{
  "sections": {
    "main": {
      "type": "main-article",
      "settings": {
        "show_date": true,
        "show_author": false,
        "show_article_tags": true,
        "show_sharing_icons": true,
        "full_width_image": false,
        "featured_image_height": "natural",
        "enable_title_overlay": false
      }
    },
    "6d10e33b-5347-479e-9d33-4c1eefb27c20": {
      "type": "slideshow",
      "blocks": {
        "template--15573688320196__6d10e33b-5347-479e-9d33-4c1eefb27c20-166962316442510772-0": {
          "type": "image",
          "settings": {
            "image": "shopify:\/\/shop_images\/august_update_7d693b18-2242-4071-9ac0-72b8408a5968.png",
            "mobile_image": "shopify:\/\/shop_images\/thsgiving.png",
            "image_position": "center right",
            "slide_link": "",
            "subheading": "",
            "title": "Thanksgiving safety tips for your pet",
            "title_size": 40,
            "text": "",
            "enlarge_text": false,
            "button_label": "",
            "text_alignment": "center center"
          }
        }
      },
      "block_order": [
        "template--15573688320196__6d10e33b-5347-479e-9d33-4c1eefb27c20-166962316442510772-0"
      ],
      "disabled": true,
      "settings": {
        "height": "fixed",
        "height_desktop": 720,
        "height_mobile": 600,
        "full_width": true,
        "mobile_overlay_under": false,
        "overlay_style": "full",
        "slide_transition": "fade",
        "slide_navigation": "arrows",
        "autoplay": true,
        "autoplay_speed": 7
      }
    },
    "1660817028dc95db89": {
      "type": "collection-list",
      "blocks": {
        "6ea3ec65-aaf1-4079-b557-290127821902": {
          "type": "collection",
          "settings": {
            "collection": "bamboo",
            "image": "shopify:\/\/shop_images\/front.jpg"
          }
        },
        "f86d2d17-a8a3-455d-af6b-b944288c5d39": {
          "type": "collection",
          "settings": {
            "collection": "comforter-duvet-cover"
          }
        },
        "7f4b40df-d9c2-406c-8136-0124901aecf3": {
          "type": "collection",
          "settings": {
            "collection": "bamboo-fiber-bedding",
            "image": "shopify:\/\/shop_images\/side_0bb0f560-1bd8-4fa4-b6e0-d44fb0c97c31.jpg"
          }
        }
      },
      "block_order": [
        "6ea3ec65-aaf1-4079-b557-290127821902",
        "f86d2d17-a8a3-455d-af6b-b944288c5d39",
        "7f4b40df-d9c2-406c-8136-0124901aecf3"
      ],
      "disabled": true,
      "settings": {
        "title": "Collection list",
        "enable_carousel": true,
        "grid": 4,
        "use_alt_bg": true,
        "full_width": true
      }
    },
    "61c5faa3-5008-464f-b282-776d5ca443ae": {
      "type": "custom-row",
      "blocks": {
        "template--15573688320196__61c5faa3-5008-464f-b282-776d5ca443ae-16696092161459e7e7-1": {
          "type": "text",
          "settings": {
            "width": "three-quarters",
            "subheading": "",
            "title": "",
            "text": "<p>With the long holiday season just around the corner, it’s a good idea to refresh your knowledge of the holiday dos and don’ts when it comes to pet safety. Whether you’re inviting people over or traveling with your pet, read on and make sure your furry friends stay healthy and safe.<\/p>",
            "button_label": "",
            "button_link": "",
            "button_style": "primary",
            "text_alignment": "left"
          }
        }
      },
      "block_order": [
        "template--15573688320196__61c5faa3-5008-464f-b282-776d5ca443ae-16696092161459e7e7-1"
      ],
      "disabled": true,
      "settings": {
        "alignment": "middle"
      }
    },
    "6172bb37-f4e5-45b5-af07-420e44eb97e5": {
      "type": "custom-row",
      "blocks": {
        "template--15573688320196__6172bb37-f4e5-45b5-af07-420e44eb97e5-16696092161459e7e7-1": {
          "type": "text",
          "settings": {
            "width": "three-quarters",
            "subheading": "",
            "title": "1. Make it easy to find your pet if it gets lost",
            "text": "<p>Check that your pet is wearing a collar with a tag and that your contact information on the tag is up-to-date. You can have your pet wear a GPS tracker tag too but remember that they don’t usually allow for precise location tracking. It will still take time to find your pet if it escaped, so prevention is important. If you’re having guests over, ask them (or your pet\/house sitter if you’re going away) to not leave any windows and doors open and unsupervised.<\/p>",
            "button_label": "",
            "button_link": "",
            "button_style": "primary",
            "text_alignment": "left"
          }
        },
        "0428ae4c-82ee-4260-bcb7-a4cac4ff78d9": {
          "type": "text",
          "settings": {
            "width": "three-quarters",
            "subheading": "",
            "title": "2. Make sure your pet is generally healthy",
            "text": "<p>If your pet is microchipped, check and update that information timely. It’s a good idea to schedule an annual checkup with your vet around this time, to ensure your pet is healthy. You can also have vaccinations or small procedures done before the holiday rush sets in. Ask your vet how you can get in touch in case of an emergency during the holidays. Keep handy the phone number of your vet and a couple of emergency vet clinics in your area.<\/p>",
            "button_label": "",
            "button_link": "",
            "button_style": "primary",
            "text_alignment": "left"
          }
        },
        "167872c7-b354-4580-b89f-f1198005d819": {
          "type": "text",
          "settings": {
            "width": "three-quarters",
            "subheading": "",
            "title": "3. Travel safely with your pet",
            "text": "<p>Use a collar and leash or a more secure harness, or opt for a proper pet carrier. A <a href=\"https:\/\/slashop.com\/collections\/pet-accessories\/products\/pet-car-seat\">pet car seat<\/a> can help keep your furry friends happy during long car rides.<\/p>",
            "button_label": "",
            "button_link": "",
            "button_style": "primary",
            "text_alignment": "left"
          }
        },
        "cfddca27-2d69-450e-b9a5-927565f5728e": {
          "type": "text",
          "settings": {
            "width": "three-quarters",
            "subheading": "",
            "title": "4. Keep your pet’s routine stable",
            "text": "<p>To <a href=\"https:\/\/www.petplace.com\/article\/general\/pet-behavior-training\/how-does-holiday-stress-affect-pets\/\">reduce holiday stress<\/a> and make their routine more predictable, do your best to feed and take your pets out for walks at regular times. Offer plenty of playtime and exercise to strengthen your bond, so that they are more obedient when you ask them to comply with commands. Give them something to do, a <a href=\"https:\/\/slashop.com\/collections\/pet-accessories\/products\/skinneez-squeaky-toy-1\">durable chew toy<\/a> to play with, or a <a href=\"https:\/\/slashop.com\/collections\/pet-accessories\/products\/skinneez-squeaky-toy\">plush friend<\/a> to cuddle while you’re busy cooking and entertaining guests.<\/p>",
            "button_label": "",
            "button_link": "",
            "button_style": "primary",
            "text_alignment": "left"
          }
        },
        "959ca9b0-8fef-4277-b8c7-bd3cde8ab376": {
          "type": "text",
          "settings": {
            "width": "three-quarters",
            "subheading": "",
            "title": "5. Define your kitchen rules",
            "text": "<p>If you’ll be spending a lot of time cooking and eating, plan for that in advance. Ideally, keep your pets out of the kitchen when you cook. Raw food lying around is a big attraction for a hungry pet. Your pet might find lots of <a href=\"https:\/\/www.thekitchn.com\/pets-safety-in-the-kitchen-according-to-veterinarians-23327197\">unsafe utensils and appliances <\/a>exciting if they’re bored and have nothing to do but check on you being busy in the kitchen. Ask another family member to occupy the pets, hire a neighbor’s teenage kid to take your pet out for a walk for a couple of hours, or make sure you’ve done your best to tire your pet with exercise and play before you get to cooking.<\/p>",
            "button_label": "",
            "button_link": "",
            "button_style": "primary",
            "text_alignment": "left"
          }
        }
      },
      "block_order": [
        "template--15573688320196__6172bb37-f4e5-45b5-af07-420e44eb97e5-16696092161459e7e7-1",
        "0428ae4c-82ee-4260-bcb7-a4cac4ff78d9",
        "167872c7-b354-4580-b89f-f1198005d819",
        "cfddca27-2d69-450e-b9a5-927565f5728e",
        "959ca9b0-8fef-4277-b8c7-bd3cde8ab376"
      ],
      "disabled": true,
      "settings": {
        "alignment": "middle"
      }
    },
    "76767da3-1da8-4426-af01-7f7811aabb09": {
      "type": "custom-row",
      "blocks": {
        "template--15573688320196__76767da3-1da8-4426-af01-7f7811aabb09-1669615592f41d598b-1": {
          "type": "text",
          "settings": {
            "width": "three-quarters",
            "subheading": "",
            "title": "6. Know what foods you can feed to your pets",
            "text": "<p>Don’t feed your pets table scraps, and ask your guests not to. While every pet appreciates a yummy treat, don’t overfeed them. Make sure that you know which foods are unsafe and should not be given to your pets. Turkey bones, skin and gravy, chocolate, and raisins are some better-known foods to avoid, check the full list of <a href=\"https:\/\/www.akc.org\/expert-advice\/nutrition\/thanksgiving-foods-to-share-with-your-dog-or-avoid\/\">Thanksgiving <\/a>and<a href=\"https:\/\/www.myfamilyvets.co.uk\/9-christmas-foods-that-are-dangerous-to-pets\"> Christmas<\/a> foods that are dangerous for cats and dogs. Make sure that alcohol is put away where they cannot reach it. Keep all of the meals that are ready to be served out of their reach too. You don’t want to start over on that gorgeous layered salad if your pet accidentally turns over the plate. Take out the trash timely before the trash cans overflow and your pet can pick up any scraps.<\/p>",
            "button_label": "",
            "button_link": "",
            "button_style": "primary",
            "text_alignment": "left"
          }
        },
        "f426bef3-b936-4bcd-85f6-bab8af74b7eb": {
          "type": "text",
          "settings": {
            "width": "three-quarters",
            "subheading": "",
            "title": "7. Decorate safely",
            "text": "<p>Certain <a href=\"https:\/\/www.petmd.com\/dog\/seasonal\/evr_multi_dangerous_winter_holiday_plants\">decorative plants <\/a>that appear in our houses around fall and wintertime can be toxic to pets. Other elements of décor, such as candles or ornaments that can be chewed are best kept at a safe level above the floor where your pets cannot reach (although some will still get creative and try). If your pet is going to wear a costume, make sure it’s comfortable. Avoid any costume details that might wrap around your pet, trap them, or limit their movement, especially during potty time so that you can avoid accidents indoors.<\/p>",
            "button_label": "",
            "button_link": "",
            "button_style": "primary",
            "text_alignment": "left"
          }
        },
        "7297f4ee-a698-48e4-9ac6-85f4fbfcd9be": {
          "type": "text",
          "settings": {
            "width": "three-quarters",
            "subheading": "",
            "title": "8. Give your pet a hiding place",
            "text": "<p>Provide a place away from the noise of the crowd that your pet can escape to if they feel overwhelmed. Set up their bed, some <a href=\"https:\/\/slashop.com\/collections\/pet-accessories\/products\/safari-line-pet-squeaky-toys\">toys <\/a>and treats for them to take a break when they need it. Once they’ve had some quiet time, it’ll be easier for them to come out and enjoy the holiday cheer with you.<\/p>",
            "button_label": "",
            "button_link": "",
            "button_style": "primary",
            "text_alignment": "left"
          }
        }
      },
      "block_order": [
        "template--15573688320196__76767da3-1da8-4426-af01-7f7811aabb09-1669615592f41d598b-1",
        "f426bef3-b936-4bcd-85f6-bab8af74b7eb",
        "7297f4ee-a698-48e4-9ac6-85f4fbfcd9be"
      ],
      "disabled": true,
      "settings": {
        "alignment": "middle"
      }
    },
    "edb286eb-ef58-4064-9b52-df37db71a15b": {
      "type": "featured-blog",
      "settings": {
        "title": "Read more",
        "blog": "our-sustainability-science-secrets",
        "post_limit": 12,
        "show_author": false,
        "show_date": true,
        "crop_ratio": ""
      }
    }
  },
  "order": [
    "main",
    "6d10e33b-5347-479e-9d33-4c1eefb27c20",
    "1660817028dc95db89",
    "61c5faa3-5008-464f-b282-776d5ca443ae",
    "6172bb37-f4e5-45b5-af07-420e44eb97e5",
    "76767da3-1da8-4426-af01-7f7811aabb09",
    "edb286eb-ef58-4064-9b52-df37db71a15b"
  ]
}