{
  "sections": {
    "1637226926db357382": {
      "type": "image-with-text-overlay",
      "disabled": true,
      "settings": {
        "image": "shopify:\/\/shop_images\/bg_9_ec2a6836-e270-401b-8e56-ae2b05080492.png",
        "image_position": "center center",
        "height": "adapt",
        "height_desktop": 600,
        "height_mobile": 100,
        "subheading": "",
        "title": "at slashop we care",
        "title_size": 64,
        "use_h1": false,
        "text": "",
        "enlarge_text": true,
        "button_label": "",
        "image_link": "",
        "text_alignment": "center left",
        "full_width": true,
        "mobile_overlay_under": false,
        "overlay_style": "no_background"
      }
    },
    "1637241147d2387c5c": {
      "type": "rich-text",
      "blocks": {
        "1637241147d2fa02f0-0": {
          "type": "subheading",
          "disabled": true,
          "settings": {
            "subheading": "Subheading"
          }
        },
        "1637241147d2fa02f0-1": {
          "type": "heading",
          "disabled": true,
          "settings": {
            "title": "Rich text",
            "use_h1": false
          }
        },
        "1637241147d2fa02f0-2": {
          "type": "text",
          "settings": {
            "text": "<p>Inspired by nature, our purpose is to create a clean, safe, and comfortable home environment to help you effortlessly enjoy life. Environmental protection and social sustainability are at the core of everything we do.<br\/>We hope to change people's unconscious consumption into conscious decisions through our own love for products and the environment, to convey the concept of environmental protection, to help people realize that better products for the environment can also bring better feelings to their own bodies and minds, and thus fundamentally change people's lifestyles.<\/p>",
            "enlarge_text": false
          }
        }
      },
      "block_order": [
        "1637241147d2fa02f0-0",
        "1637241147d2fa02f0-1",
        "1637241147d2fa02f0-2"
      ],
      "disabled": true,
      "settings": {
        "height": "medium",
        "text_alignment": "left",
        "full_width": true,
        "use_alt_bg": false
      }
    },
    "1639021930c7af3842": {
      "type": "custom-row",
      "blocks": {
        "16390219302ae9141f-0": {
          "type": "image",
          "settings": {
            "width": "half",
            "image": "shopify:\/\/shop_images\/guy_3_1c63003a-71ae-4a0a-bebb-4e4c6b1bd58f.png",
            "image_position": "center center",
            "height": "adapt",
            "height_desktop": 600,
            "height_mobile": 500,
            "subheading": "",
            "title": "",
            "text": "",
            "enlarge_text": false,
            "button_label": "",
            "image_link": "",
            "text_alignment": "center left",
            "mobile_overlay_under": false,
            "overlay_style": "no_background"
          }
        },
        "16390219302ae9141f-1": {
          "type": "text",
          "settings": {
            "width": "half",
            "subheading": "",
            "title": "our philosophy",
            "text": "<p>Our purpose is to create a clean, safe, and comfortable home environment to help you effortlessly enjoy life. <br\/>We hope to change people's unconscious consumption into conscious decisions through our own love for products and the environment, to help people realize that better products for the environment can also bring better feelings to their own bodies and minds, and thus fundamentally change people's lifestyles.<\/p>",
            "button_label": "",
            "button_link": "",
            "button_style": "primary",
            "text_alignment": "left"
          }
        }
      },
      "block_order": [
        "16390219302ae9141f-0",
        "16390219302ae9141f-1"
      ],
      "disabled": true,
      "settings": {
        "alignment": "middle"
      }
    },
    "1638960487f11557d3": {
      "type": "custom-row",
      "blocks": {
        "16389604879c06200c-1": {
          "type": "text",
          "settings": {
            "width": "half",
            "subheading": "",
            "title": "Our goal",
            "text": "<p>Slashop's goal is eliminate the use of all non-biodegradable plastic in our product and production process by 2025.<\/p>",
            "button_label": "",
            "button_link": "",
            "button_style": "primary",
            "text_alignment": "left"
          }
        },
        "16389604879c06200c-0": {
          "type": "image",
          "settings": {
            "width": "half",
            "image": "shopify:\/\/shop_images\/1_0593161b-3833-46ba-872b-751eeec7e6cd.png",
            "image_position": "center center",
            "height": "adapt",
            "height_desktop": 600,
            "height_mobile": 500,
            "subheading": "",
            "title": "",
            "text": "",
            "enlarge_text": false,
            "button_label": "",
            "image_link": "",
            "text_alignment": "center center",
            "mobile_overlay_under": false,
            "overlay_style": "full"
          }
        }
      },
      "block_order": [
        "16389604879c06200c-1",
        "16389604879c06200c-0"
      ],
      "disabled": true,
      "settings": {
        "alignment": "middle"
      }
    },
    "1637226839c3e341de": {
      "type": "image-with-text-overlay",
      "disabled": true,
      "settings": {
        "image": "shopify:\/\/shop_images\/bg_9_ec2a6836-e270-401b-8e56-ae2b05080492.png",
        "image_position": "center center",
        "height": "adapt",
        "height_desktop": 600,
        "height_mobile": 100,
        "subheading": "",
        "title": "packaging",
        "title_size": 64,
        "use_h1": false,
        "text": "",
        "enlarge_text": true,
        "button_label": "",
        "image_link": "",
        "text_alignment": "center left",
        "full_width": true,
        "mobile_overlay_under": false,
        "overlay_style": "no_background"
      }
    },
    "1637239165bb95bf98": {
      "type": "background-video",
      "disabled": true,
      "settings": {
        "video": "https:\/\/cdn.shopify.com\/s\/files\/1\/0590\/4921\/4148\/files\/packaging_89f60654-b752-415b-8e7a-16cb49500d5e.mp4?v=1637239223",
        "subheading": "",
        "title": "",
        "title_size": 34,
        "use_h1": false,
        "text": "",
        "enlarge_text": false,
        "button_label": "",
        "button_link": "",
        "text_alignment": "center center",
        "height_desktop": 600,
        "height_mobile": 280,
        "full_width": true,
        "overlay_style": "no_background"
      }
    },
    "16372411887bbaee5c": {
      "type": "rich-text",
      "blocks": {
        "1637241188838c63a5-0": {
          "type": "subheading",
          "disabled": true,
          "settings": {
            "subheading": "Subheading"
          }
        },
        "1637241188838c63a5-1": {
          "type": "heading",
          "disabled": true,
          "settings": {
            "title": "Rich text",
            "use_h1": false
          }
        },
        "1637241188838c63a5-2": {
          "type": "text",
          "settings": {
            "text": "<p>At Slashop we wrap our products in environmentally conscious packaging to reduce our impact on the planet. We use compostable polymer bags produced from a plant-based material: corn. This compostable mailer breaks down with food waste in 180 days, as opposed to a plastic bag which can take up to 400 years. Our mailer releases no harmful residues as the materials break down. <\/p><p>To compost your packaging properly please, remove any plastics (stickers, shipping labels, tape) from your compostable mailer. If you have a home compost just live your mailer there and let it compost. <\/p><p>Our cards and labels are made from recycled paper.<\/p>",
            "enlarge_text": false
          }
        }
      },
      "block_order": [
        "1637241188838c63a5-0",
        "1637241188838c63a5-1",
        "1637241188838c63a5-2"
      ],
      "disabled": true,
      "settings": {
        "height": "medium",
        "text_alignment": "left",
        "full_width": true,
        "use_alt_bg": false
      }
    },
    "1638960481eae7888d": {
      "type": "text-columns-with-images",
      "blocks": {
        "1638960481a2684360-0": {
          "type": "text_block",
          "settings": {
            "enable_image": true,
            "image": "shopify:\/\/shop_images\/plastic.png",
            "image_width": 700,
            "title": "No plastic!",
            "text": "<p>We don't wrap our products in plastic.<\/p>",
            "button_label": "",
            "link": ""
          }
        },
        "1638960481a2684360-1": {
          "type": "text_block",
          "settings": {
            "enable_image": true,
            "image": "shopify:\/\/shop_images\/cornnnnn.png",
            "image_width": 700,
            "title": "Plant-based material",
            "text": "<p>We use compostable polymer bags produced from a plant-based material: corn. <\/p>",
            "button_label": "",
            "link": ""
          }
        },
        "1638960481a2684360-2": {
          "type": "text_block",
          "settings": {
            "enable_image": true,
            "image": "shopify:\/\/shop_images\/bg_.00_04_30_13.Still006.png",
            "image_width": 700,
            "title": "180 days to decompose",
            "text": "<p>Our compostable mailer breaks down with food waste in 180 days, as opposed to a plastic bag which can take up to 400 years. <\/p>",
            "button_label": "",
            "link": ""
          }
        }
      },
      "block_order": [
        "1638960481a2684360-0",
        "1638960481a2684360-1",
        "1638960481a2684360-2"
      ],
      "disabled": true,
      "settings": {
        "title": "",
        "text_alignment": "left",
        "button_style": "primary",
        "use_alt_bg": false
      }
    },
    "1638353992ae8a52bc": {
      "type": "background-video",
      "disabled": true,
      "settings": {
        "video": "https:\/\/cdn.shopify.com\/s\/files\/1\/0590\/4921\/4148\/files\/oil-based_inks_full_screen_d49e221f-bfcd-49d5-a7fe-d71bcb1ebb10.mp4?v=1638354045",
        "subheading": "",
        "title": "",
        "title_size": 34,
        "use_h1": false,
        "text": "",
        "enlarge_text": false,
        "button_label": "",
        "button_link": "",
        "text_alignment": "center center",
        "height_desktop": 600,
        "height_mobile": 500,
        "full_width": false,
        "overlay_style": "no_background"
      }
    },
    "main": {
      "type": "main-contact",
      "disabled": true,
      "settings": {
        "show_page_title": false,
        "use_columns": false,
        "contact_title": "",
        "contact_text": ""
      }
    },
    "1637225183dd90eeb4": {
      "type": "image-with-text-overlay",
      "disabled": true,
      "settings": {
        "image": "shopify:\/\/shop_images\/bg_9_ec2a6836-e270-401b-8e56-ae2b05080492.png",
        "image_position": "center center",
        "height": "adapt",
        "height_desktop": 360,
        "height_mobile": 100,
        "subheading": "",
        "title": "certifications",
        "title_size": 64,
        "use_h1": false,
        "text": "",
        "enlarge_text": true,
        "button_label": "",
        "image_link": "",
        "text_alignment": "center left",
        "full_width": true,
        "mobile_overlay_under": false,
        "overlay_style": "no_background"
      }
    },
    "16412708317addf9df": {
      "type": "image-with-text-overlay",
      "settings": {
        "image": "shopify:\/\/shop_images\/square_0.png",
        "image_position": "center center",
        "height": "fixed",
        "height_desktop": 600,
        "height_mobile": 600,
        "subheading": "",
        "title": "",
        "title_size": 64,
        "use_h1": false,
        "text": "",
        "enlarge_text": true,
        "button_label": "",
        "image_link": "",
        "text_alignment": "center center",
        "full_width": true,
        "mobile_overlay_under": false,
        "overlay_style": "no_background"
      }
    },
    "164181734078d49529": {
      "type": "custom-row",
      "blocks": {
        "16418173397dd55eaf-1": {
          "type": "text",
          "settings": {
            "width": "three-quarters",
            "subheading": "",
            "title": "Packaging",
            "text": "<p><strong>Recyclable<\/strong><\/p><p>Corrugated board is an eco-friendly packaging material, comprised of recyclable materials like used cardboard cartons and old newspapers. Corrugated packaging is also reusable - many times cartons are folded up and stored for use again.<\/p><p><\/p><p><strong>Energy-Efficient<\/strong><\/p><p>This recycling and reusing of corrugated cardboard help to reduce the energy and other resources required to produce it in the first place. Since it is sustainably created using a high percentage of recycled materials, the energy required to produce corrugated packaging is greatly reduced.<\/p><p><\/p>",
            "button_label": "",
            "button_link": "",
            "button_style": "primary",
            "text_alignment": "left"
          }
        }
      },
      "block_order": [
        "16418173397dd55eaf-1"
      ],
      "settings": {
        "alignment": "middle"
      }
    },
    "16443088360080cf7c": {
      "type": "custom-row",
      "blocks": {
        "16443088362c7699ca-0": {
          "type": "image",
          "settings": {
            "width": "full",
            "image": "shopify:\/\/shop_images\/slashop_packaging_89dc2338-f6bd-41fe-82cd-7612a43ff15b.png",
            "image_position": "center center",
            "height": "fixed",
            "height_desktop": 600,
            "height_mobile": 600,
            "subheading": "",
            "title": "",
            "text": "",
            "enlarge_text": false,
            "button_label": "",
            "image_link": "",
            "text_alignment": "center center",
            "mobile_overlay_under": false,
            "overlay_style": "full"
          }
        },
        "1c3e76cf-1d47-4185-b36a-d399395be0a9": {
          "type": "text",
          "settings": {
            "width": "three-quarters",
            "subheading": "",
            "title": "",
            "text": "<p>We aim to offset CO2 emitted from our entire supply chain—not just freight and customer shipments. That’s why we're working towards a closed-loop system where everything we take from our planet, we'll replenish, and nothing harmful will go back in.<\/p>",
            "button_label": "",
            "button_link": "",
            "button_style": "primary",
            "text_alignment": "left"
          }
        }
      },
      "block_order": [
        "16443088362c7699ca-0",
        "1c3e76cf-1d47-4185-b36a-d399395be0a9"
      ],
      "settings": {
        "alignment": "middle"
      }
    },
    "1642583330b33aef23": {
      "type": "text-columns-with-images",
      "blocks": {
        "1642583330c558efbe-0": {
          "type": "text_block",
          "settings": {
            "enable_image": true,
            "image": "shopify:\/\/shop_images\/euc___png.png",
            "image_width": 700,
            "title": "Eucalyptus",
            "text": "<p>Biobased material, water-saving, biodegradable.<\/p>",
            "button_label": "Find out",
            "link": "shopify:\/\/pages\/eucalyptus"
          }
        },
        "1642583330c558efbe-1": {
          "type": "text_block",
          "settings": {
            "enable_image": true,
            "image": "shopify:\/\/shop_images\/sustainability_bamboo.png",
            "image_width": 700,
            "title": "Bamboo",
            "text": "<p>Regenerative, water + energy saving, biocircular. <\/p>",
            "button_label": "Find out",
            "link": "shopify:\/\/pages\/bamboo"
          }
        },
        "1642583330c558efbe-2": {
          "type": "text_block",
          "settings": {
            "enable_image": true,
            "image": "shopify:\/\/shop_images\/sustainability_round_8_99bd24e4-2ebe-471a-8f84-0d56f7dff19b.png",
            "image_width": 700,
            "title": "Aerogel",
            "text": "<p>Developed by NASA, let science keep you warm.<\/p>",
            "button_label": "Find out",
            "link": "shopify:\/\/pages\/aerogel"
          }
        }
      },
      "block_order": [
        "1642583330c558efbe-0",
        "1642583330c558efbe-1",
        "1642583330c558efbe-2"
      ],
      "settings": {
        "title": "Responsible materials at slashop",
        "text_alignment": "center",
        "button_style": "secondary",
        "use_alt_bg": false
      }
    }
  },
  "order": [
    "1637226926db357382",
    "1637241147d2387c5c",
    "1639021930c7af3842",
    "1638960487f11557d3",
    "1637226839c3e341de",
    "1637239165bb95bf98",
    "16372411887bbaee5c",
    "1638960481eae7888d",
    "1638353992ae8a52bc",
    "main",
    "1637225183dd90eeb4",
    "16412708317addf9df",
    "164181734078d49529",
    "16443088360080cf7c",
    "1642583330b33aef23"
  ]
}