{
  "sections": {
    "main": {
      "type": "main-page",
      "disabled": true,
      "settings": {
        "full_width": false
      }
    },
    "7f7b088a-3a3a-4746-b66d-45ddaa5b0af9": {
      "type": "slideshow",
      "blocks": {
        "template--15573688811716__7f7b088a-3a3a-4746-b66d-45ddaa5b0af9-1676264776586858ac-0": {
          "type": "image",
          "settings": {
            "image_position": "center center",
            "slide_link": "",
            "subheading": "",
            "title": "slashop lab",
            "title_size": 46,
            "text": "<p>Experience our innovative lab<\/p>",
            "enlarge_text": false,
            "button_label": "Enter now",
            "text_alignment": "center center"
          }
        },
        "template--15573688811716__7f7b088a-3a3a-4746-b66d-45ddaa5b0af9-1676264776586858ac-1": {
          "type": "image",
          "settings": {
            "image_position": "center center",
            "slide_link": "",
            "subheading": "Subheading",
            "title": "Tell your story",
            "title_size": 46,
            "text": "<p>Pair text with an image to tell a story<\/p>",
            "enlarge_text": true,
            "button_label": "",
            "text_alignment": "center center"
          }
        }
      },
      "block_order": [
        "template--15573688811716__7f7b088a-3a3a-4746-b66d-45ddaa5b0af9-1676264776586858ac-0",
        "template--15573688811716__7f7b088a-3a3a-4746-b66d-45ddaa5b0af9-1676264776586858ac-1"
      ],
      "settings": {
        "height": "adapt",
        "height_desktop": 600,
        "height_mobile": 500,
        "full_width": true,
        "mobile_overlay_under": false,
        "overlay_style": "full",
        "slide_transition": "fade",
        "slide_navigation": "arrows",
        "autoplay": true,
        "autoplay_speed": 7
      }
    }
  },
  "order": [
    "main",
    "7f7b088a-3a3a-4746-b66d-45ddaa5b0af9"
  ]
}