{
  "sections": {
    "main": {
      "type": "main-product",
      "blocks": {
        "title": {
          "type": "title",
          "settings": {}
        },
        "3f950942-0867-460d-82bc-fd3f07cb4b48": {
          "type": "shopify:\/\/apps\/yotpo-product-photo-reviews\/blocks\/star-rating\/eb7dfd7d-db44-4334-bc49-c893b51b36cf",
          "settings": {
            "product": "{{product}}"
          }
        },
        "price": {
          "type": "price",
          "settings": {
            "show_tax_and_shipping": false
          }
        },
        "e16eb14b-0ba9-4180-a2c8-c26223761a76": {
          "type": "variant_picker",
          "settings": {
            "show_single": true,
            "show_size_chart": true,
            "size_chart_variant": "Size Guide",
            "size_chart_page": "matching-shirt-size"
          }
        },
        "9f0889db-6ca2-4c75-a4ca-6c58b215184a": {
          "type": "richtext",
          "settings": {
            "richtext": "<p><strong>Includes a set of two T-shirts: one for humans and one for dogs.<\/strong><\/p>",
            "show_in_quickbuy": false
          }
        },
        "994447e9-3922-4951-95dd-6b7e134286de": {
          "type": "richtext",
          "settings": {
            "richtext": "<p><strong>Free delivery on orders over $100.<\/strong><\/p>",
            "show_in_quickbuy": false
          }
        },
        "buy_buttons": {
          "type": "buy_buttons",
          "settings": {
            "show_quantity_selector": false,
            "enable_payment_button": false,
            "show_backorder_text": false,
            "show_inventory_notice": false,
            "inventory_notice_threshold": 10,
            "show_pickup_availability": true
          }
        },
        "ba58b819-3956-47bd-9e96-6f00d5539d0c": {
          "type": "image",
          "disabled": true,
          "settings": {
            "image": "shopify:\/\/shop_images\/pajamas_size_guide_0b59f9be-f721-4c2a-919c-3b0b80f32816.png",
            "image_width": 700,
            "url": "",
            "show_in_quickbuy": false
          }
        },
        "030b31b0-dc19-48de-a6b7-fc930a945e63": {
          "type": "accordion",
          "settings": {
            "title": "DETAILS",
            "content": "<p>Create lasting memories with your furry friend in our embroidered hemp tee. Crafted from our signature blend of hemp and cotton, you and your pup can enjoy both comfort and style!This set includes 2 (two) tees: one in human size and one in dog size. Simply choose your desired sizes for both T-shirts.The human tee features a classic slim-fit design with a scoop neck. It is true to size, so you can order your regular fit.The dog tee is a crew neck T-shirt, tailored perfectly for your four-legged companion. To determine the right size, measure your dog's chest at its thickest part. If your measurement falls between sizes, opt for the larger size.<\/p>",
            "page": "",
            "open": false,
            "show_in_quickbuy": false
          }
        },
        "6992ed0b-4b88-440e-aac3-260c5784dc8f": {
          "type": "accordion",
          "settings": {
            "title": "FABRIC",
            "content": "<p><strong>*32% Hemp+32% Cotton+32% Polyamide +4 % Spandex.<\/strong><br\/>*Soft and comfortable hemp blend.<br\/>*Breathable, naturally moisture-wicking and odour resistant.<br\/>*Natural and non-synthetic, made from sustainable plant-based fibers.<\/p>",
            "page": "",
            "open": false,
            "show_in_quickbuy": false
          }
        },
        "eebddd1f-ad45-4394-b21d-9fccce62aa55": {
          "type": "accordion",
          "disabled": true,
          "settings": {
            "title": "FIT & SIZE",
            "content": "<p>Model is 5'9<\/p>",
            "page": "",
            "open": false,
            "show_in_quickbuy": false
          }
        },
        "572270c6-2676-4c39-a468-53536a802d56": {
          "type": "accordion",
          "settings": {
            "title": "CARE",
            "content": "<p><strong>We recommend you to follow these tips:<\/strong><br\/>Netural Detergent <br\/>Machine Wash Cold <br\/>Do Not Bleach <br\/>Machine Dry Low Heat <br\/>Max Temp 110°C or 230°F<\/p>",
            "page": "",
            "open": false,
            "show_in_quickbuy": false
          }
        },
        "d9614002-9090-429e-a49f-4ed258d292e1": {
          "type": "image",
          "settings": {
            "image_width": 700,
            "url": "",
            "show_in_quickbuy": false
          }
        },
        "dfb571ed-a717-4003-a633-3711277d1d24": {
          "type": "image",
          "settings": {
            "image_width": 700,
            "url": "",
            "show_in_quickbuy": false
          }
        },
        "72636f6e-905d-421e-a6f9-fbad4f4051d6": {
          "type": "sharing",
          "settings": {
            "show_in_quickbuy": false
          }
        },
        "eb404608-82b9-4d98-a1c5-bffd12fe5422": {
          "type": "popup",
          "disabled": true,
          "settings": {
            "text": "Pop-up link text",
            "style": "primary",
            "page": "",
            "show_in_quickbuy": false
          }
        }
      },
      "block_order": [
        "title",
        "3f950942-0867-460d-82bc-fd3f07cb4b48",
        "price",
        "e16eb14b-0ba9-4180-a2c8-c26223761a76",
        "9f0889db-6ca2-4c75-a4ca-6c58b215184a",
        "994447e9-3922-4951-95dd-6b7e134286de",
        "buy_buttons",
        "ba58b819-3956-47bd-9e96-6f00d5539d0c",
        "030b31b0-dc19-48de-a6b7-fc930a945e63",
        "6992ed0b-4b88-440e-aac3-260c5784dc8f",
        "eebddd1f-ad45-4394-b21d-9fccce62aa55",
        "572270c6-2676-4c39-a468-53536a802d56",
        "d9614002-9090-429e-a49f-4ed258d292e1",
        "dfb571ed-a717-4003-a633-3711277d1d24",
        "72636f6e-905d-421e-a6f9-fbad4f4051d6",
        "eb404608-82b9-4d98-a1c5-bffd12fe5422"
      ],
      "settings": {
        "show_breadcrumbs": false,
        "show_location_underneath": false,
        "inventory_transfers_enable": false,
        "gallery_size": "large",
        "prod_gall_thumbs_under": "under",
        "enable_sticky_gallery": true,
        "enable_zoom": true,
        "enable_video_looping": true
      }
    },
    "16570207546deb1bae": {
      "type": "testimonials",
      "blocks": {
        "1657020754dedd60d8-0": {
          "type": "testimonial",
          "settings": {
            "star_rating": 5,
            "testimonial": "Hemp is not only super-soft but also ultra-breathable and quick-drying — wonderful for working out or warmer climates. Wearing fitness is very comfortable. Love!",
            "author": "tiffanytsepiano",
            "image": "shopify:\/\/shop_images\/IMG_1284.jpg",
            "image_alignment": "center center",
            "image_caption": "",
            "link": ""
          }
        },
        "1657020754dedd60d8-1": {
          "type": "testimonial",
          "disabled": true,
          "settings": {
            "star_rating": 5,
            "testimonial": "Looks nice & feels comfortable Indoors and Outdoors. Also a must have for pet families!",
            "author": "sana",
            "image": "shopify:\/\/shop_images\/kol_kol-1.png",
            "image_alignment": "center center",
            "image_caption": "",
            "link": ""
          }
        }
      },
      "block_order": [
        "1657020754dedd60d8-0",
        "1657020754dedd60d8-1"
      ],
      "disabled": true,
      "settings": {
        "title": "Customer reviews",
        "layout": "image-left",
        "image_shape": "square",
        "use_alt_bg": false
      }
    },
    "recommendations": {
      "type": "product-recommendations",
      "disabled": true,
      "settings": {
        "title": "Related products",
        "show_vendor": false,
        "grid": 2
      }
    },
    "e510ff38-61b1-472f-8ca3-a0be28921f4f": {
      "type": "featured-collection",
      "settings": {
        "title": "Featured collection",
        "collection": "loungewear",
        "show_vendor": false,
        "enable_carousel": false,
        "grid": 4,
        "rows": 4,
        "use_alt_bg": false,
        "show_view_all": true,
        "full_width": true
      }
    },
    "1637660518324c9917": {
      "type": "apps",
      "blocks": {
        "47029079-6908-4cf1-ba76-2da4f78ed72b": {
          "type": "shopify:\/\/apps\/yotpo-product-photo-reviews\/blocks\/reviews\/eb7dfd7d-db44-4334-bc49-c893b51b36cf",
          "settings": {
            "product": "{{product}}"
          }
        }
      },
      "block_order": [
        "47029079-6908-4cf1-ba76-2da4f78ed72b"
      ],
      "settings": {
        "full_width": false
      }
    }
  },
  "order": [
    "main",
    "16570207546deb1bae",
    "recommendations",
    "e510ff38-61b1-472f-8ca3-a0be28921f4f",
    "1637660518324c9917"
  ]
}