{
  "sections": {
    "shogun-helper": {
      "type": "shogun-helper",
      "settings": {}
    },
    "shogun-above": {
      "type": "shogun-above",
      "settings": {}
    },
    "main": {
      "type": "main-product",
      "blocks": {
        "title": {
          "type": "title",
          "settings": {}
        },
        "982f920e-e894-413a-9ce4-bc54a9cef468": {
          "type": "shopify:\/\/apps\/yotpo-product-photo-reviews\/blocks\/star-rating\/eb7dfd7d-db44-4334-bc49-c893b51b36cf",
          "settings": {
            "product": "{{product}}"
          }
        },
        "price": {
          "type": "price",
          "settings": {
            "show_tax_and_shipping": false
          }
        },
        "e16eb14b-0ba9-4180-a2c8-c26223761a76": {
          "type": "variant_picker",
          "settings": {
            "show_single": true,
            "show_size_chart": true,
            "size_chart_variant": "Size Guide",
            "size_chart_page": "sofa-cover"
          }
        },
        "763225bf-6437-4650-ad8b-454947dbd76e": {
          "type": "richtext",
          "settings": {
            "richtext": "<p><strong>Includes 1 sofa cover.<\/strong><\/p>",
            "show_in_quickbuy": false
          }
        },
        "2e299c13-f239-49c3-9c7a-dc5696631cb8": {
          "type": "richtext",
          "settings": {
            "richtext": "<p><strong>Free delivery on orders over $100.<\/strong><\/p>",
            "show_in_quickbuy": false
          }
        },
        "7c523533-ebf4-4f72-8942-feda1e8fa34d": {
          "type": "text",
          "disabled": true,
          "settings": {
            "text": "Includes 1*Duvet cover.",
            "show_in_quickbuy": false
          }
        },
        "6515b48a-8f4a-4bad-acc6-799e8d70e96c": {
          "type": "text",
          "disabled": true,
          "settings": {
            "text": "*Fast Free Delivery Site-wide",
            "show_in_quickbuy": false
          }
        },
        "buy_buttons": {
          "type": "buy_buttons",
          "settings": {
            "show_quantity_selector": false,
            "enable_payment_button": false,
            "show_backorder_text": false,
            "show_inventory_notice": false,
            "inventory_notice_threshold": 100,
            "show_pickup_availability": true
          }
        },
        "23c9a8d7-9888-4e4f-8842-17e80ae81f56": {
          "type": "accordion",
          "settings": {
            "title": "DETAILS",
            "content": "<p>Transform any room with our plaid jacquard weave sofa cover. Crafted from thick, high-quality velvet, it offers unmatched comfort, softness and breathability. This durable fabric resists wrinkles and repels pet hair, making it ideal for households with pets and kids. Use it as a sofa cover, furniture protector, or bed throw to effortlessly protect against stains or general wear and tear.<\/p><ul><li>Geometric patterned plaid jacquard<\/li><li>Soft and breathable<\/li><li>Wrinkle-resistant<\/li><li>Perfect for pet families<\/li><li>Works as both a sofa cover and bed throw<\/li><\/ul>",
            "page": "",
            "open": true,
            "show_in_quickbuy": false
          }
        },
        "c69d9a7e-81b6-433a-a3e2-ba8321c2da7a": {
          "type": "accordion",
          "disabled": true,
          "settings": {
            "title": "SIZE",
            "content": "<p>The sizes are measured in inches.<\/p><p><strong>M: 71'' x 90''<\/strong><\/p><p><strong>L: 71'' x 110''<\/strong><\/p><p><strong>XL: 71'' x 118''<\/strong><\/p><p><strong>XXL: 71'' x 134''<\/strong><\/p><p><strong>XXXL: 71'' x 165''<\/strong><\/p><p><\/p>",
            "page": "",
            "open": false,
            "show_in_quickbuy": false
          }
        },
        "32c60495-21c7-43bf-bc46-d33ecb58b28b": {
          "type": "accordion",
          "settings": {
            "title": "FABRIC",
            "content": "<p><strong>100% polyester<\/strong><\/p>",
            "page": "",
            "open": false,
            "show_in_quickbuy": false
          }
        },
        "572270c6-2676-4c39-a468-53536a802d56": {
          "type": "accordion",
          "settings": {
            "title": "CARE",
            "content": "<p>For optimal results, please follow these washing instructions:<\/p><ul><li>Use a neutral detergent<\/li><li>Machine wash in cold water<\/li><li>Do not bleach<\/li><li>Do not iron<\/li><li>Maximum temperature: 104°F (40°C)<\/li><\/ul>",
            "page": "",
            "open": false,
            "show_in_quickbuy": false
          }
        },
        "b17ea531-cdc9-41b5-83ba-82d7c5700d27": {
          "type": "image",
          "disabled": true,
          "settings": {
            "image_width": 700,
            "url": "",
            "show_in_quickbuy": false
          }
        }
      },
      "block_order": [
        "title",
        "982f920e-e894-413a-9ce4-bc54a9cef468",
        "price",
        "e16eb14b-0ba9-4180-a2c8-c26223761a76",
        "763225bf-6437-4650-ad8b-454947dbd76e",
        "2e299c13-f239-49c3-9c7a-dc5696631cb8",
        "7c523533-ebf4-4f72-8942-feda1e8fa34d",
        "6515b48a-8f4a-4bad-acc6-799e8d70e96c",
        "buy_buttons",
        "23c9a8d7-9888-4e4f-8842-17e80ae81f56",
        "c69d9a7e-81b6-433a-a3e2-ba8321c2da7a",
        "32c60495-21c7-43bf-bc46-d33ecb58b28b",
        "572270c6-2676-4c39-a468-53536a802d56",
        "b17ea531-cdc9-41b5-83ba-82d7c5700d27"
      ],
      "settings": {
        "show_breadcrumbs": false,
        "show_location_underneath": false,
        "inventory_transfers_enable": false,
        "gallery_size": "large",
        "prod_gall_thumbs_under": "under",
        "enable_sticky_gallery": true,
        "enable_zoom": true,
        "enable_video_looping": true
      }
    },
    "164318472923bd8e51": {
      "type": "featured-collection",
      "settings": {
        "title": "You Might Also Like...",
        "collection": "best-seller",
        "show_vendor": false,
        "enable_carousel": false,
        "grid": 4,
        "rows": 3,
        "use_alt_bg": false,
        "show_view_all": true,
        "full_width": true
      }
    },
    "e5fe062e-e4ca-4b2c-bae5-c027aea6ec1a": {
      "type": "slideshow",
      "blocks": {
        "template--15815677051076__e5fe062e-e4ca-4b2c-bae5-c027aea6ec1a-image-1": {
          "type": "image",
          "settings": {
            "image": "shopify:\/\/shop_images\/Artboard_31_36a0fc9c-be83-4bba-a2a9-7578ab7cc61e.jpg",
            "mobile_image": "shopify:\/\/shop_images\/Artboard_30_216edb10-c082-4f1a-a484-502ffb415227.jpg",
            "image_position": "center center",
            "slide_link": "",
            "subheading": "",
            "title": "",
            "title_size": 46,
            "text": "",
            "enlarge_text": false,
            "button_label": "",
            "text_alignment": "center center"
          }
        }
      },
      "block_order": [
        "template--15815677051076__e5fe062e-e4ca-4b2c-bae5-c027aea6ec1a-image-1"
      ],
      "disabled": true,
      "settings": {
        "height": "adapt",
        "height_desktop": 600,
        "height_mobile": 500,
        "full_width": true,
        "mobile_overlay_under": false,
        "overlay_style": "full",
        "slide_transition": "fade",
        "slide_navigation": "arrows",
        "autoplay": true,
        "autoplay_speed": 7
      }
    },
    "e3612d3d-0ca9-4643-9a63-b462c1ca53af": {
      "type": "slideshow",
      "blocks": {
        "template--15815677051076__e3612d3d-0ca9-4643-9a63-b462c1ca53af-image-1": {
          "type": "image",
          "settings": {
            "image": "shopify:\/\/shop_images\/Artboard_10_433e2871-4e88-49fb-ba9b-f115dcf6eb61.jpg",
            "mobile_image": "shopify:\/\/shop_images\/Artboard_11_130a7f98-e2c2-4970-a2d4-a0646129e448.jpg",
            "image_position": "center center",
            "slide_link": "",
            "subheading": "",
            "title": "",
            "title_size": 46,
            "text": "",
            "enlarge_text": false,
            "button_label": "",
            "text_alignment": "center center"
          }
        }
      },
      "block_order": [
        "template--15815677051076__e3612d3d-0ca9-4643-9a63-b462c1ca53af-image-1"
      ],
      "settings": {
        "height": "adapt",
        "height_desktop": 600,
        "height_mobile": 500,
        "full_width": true,
        "mobile_overlay_under": false,
        "overlay_style": "full",
        "slide_transition": "fade",
        "slide_navigation": "arrows",
        "autoplay": true,
        "autoplay_speed": 7
      }
    },
    "b92a0531-2224-49c9-a57a-ac81d239b8ee": {
      "type": "slideshow",
      "blocks": {
        "template--15815677051076__b92a0531-2224-49c9-a57a-ac81d239b8ee-image-1": {
          "type": "image",
          "settings": {
            "image": "shopify:\/\/shop_images\/Artboard_23_1_1.jpg",
            "mobile_image": "shopify:\/\/shop_images\/Artboard_28_095d9216-7c8e-48d0-b7c4-601a3ad98e21.jpg",
            "image_position": "center center",
            "slide_link": "https:\/\/www.instagram.com\/slashopofficial\/",
            "subheading": "",
            "title": "",
            "title_size": 46,
            "text": "",
            "enlarge_text": false,
            "button_label": "",
            "text_alignment": "center center"
          }
        },
        "template--15815677051076__b92a0531-2224-49c9-a57a-ac81d239b8ee-image-2": {
          "type": "image",
          "settings": {
            "image": "shopify:\/\/shop_images\/Artboard_23_2_2.jpg",
            "mobile_image": "shopify:\/\/shop_images\/Artboard_28_2_3eb88469-9e8d-40c1-b7cd-20481e8e8514.jpg",
            "image_position": "center center",
            "slide_link": "https:\/\/www.instagram.com\/slashopofficial\/",
            "subheading": "",
            "title": "",
            "title_size": 46,
            "text": "",
            "enlarge_text": false,
            "button_label": "",
            "text_alignment": "center center"
          }
        },
        "7c981f00-8d32-4045-8ad8-c1cbb6610f81": {
          "type": "image",
          "settings": {
            "image": "shopify:\/\/shop_images\/Artboard_23_3_3.jpg",
            "mobile_image": "shopify:\/\/shop_images\/Artboard_28_3.jpg",
            "image_position": "center center",
            "slide_link": "",
            "subheading": "",
            "title": "",
            "title_size": 46,
            "text": "",
            "enlarge_text": false,
            "button_label": "",
            "text_alignment": "center center"
          }
        }
      },
      "block_order": [
        "template--15815677051076__b92a0531-2224-49c9-a57a-ac81d239b8ee-image-1",
        "template--15815677051076__b92a0531-2224-49c9-a57a-ac81d239b8ee-image-2",
        "7c981f00-8d32-4045-8ad8-c1cbb6610f81"
      ],
      "settings": {
        "height": "adapt",
        "height_desktop": 600,
        "height_mobile": 500,
        "full_width": true,
        "mobile_overlay_under": false,
        "overlay_style": "full",
        "slide_transition": "fade",
        "slide_navigation": "arrows",
        "autoplay": true,
        "autoplay_speed": 7
      }
    },
    "a91e8d88-4b78-44f2-8126-40a51a847b0d": {
      "type": "gallery",
      "blocks": {
        "template--15687985791172__a91e8d88-4b78-44f2-8126-40a51a847b0d-166617423838da1e05-0": {
          "type": "image",
          "settings": {
            "image": "shopify:\/\/shop_images\/Artboard_12_1d648f4a-1d64-4557-9628-cefd3297b309.jpg",
            "alignment": "center center",
            "enlarge_image": false,
            "subheading": "",
            "title": "",
            "button_label": "",
            "link": "shopify:\/\/pages\/rewards",
            "text_alignment": "center center"
          }
        },
        "template--15687985791172__a91e8d88-4b78-44f2-8126-40a51a847b0d-166617423838da1e05-1": {
          "type": "image",
          "settings": {
            "image": "shopify:\/\/shop_images\/Artboard_31_b75c7a42-9e31-4500-8fa1-a954a88ba519.jpg",
            "alignment": "center center",
            "enlarge_image": false,
            "subheading": "",
            "title": "",
            "button_label": "",
            "link": "shopify:\/\/pages\/showroom",
            "text_alignment": "center center"
          }
        },
        "template--15687985791172__a91e8d88-4b78-44f2-8126-40a51a847b0d-166617423838da1e05-2": {
          "type": "image",
          "settings": {
            "image": "shopify:\/\/shop_images\/Artboard_32_f1eb613d-4d11-4746-b5e6-4f741f0f7926.jpg",
            "alignment": "center center",
            "enlarge_image": false,
            "subheading": "",
            "title": "",
            "button_label": "",
            "link": "shopify:\/\/pages\/gift-guide",
            "text_alignment": "center center"
          }
        }
      },
      "block_order": [
        "template--15687985791172__a91e8d88-4b78-44f2-8126-40a51a847b0d-166617423838da1e05-0",
        "template--15687985791172__a91e8d88-4b78-44f2-8126-40a51a847b0d-166617423838da1e05-1",
        "template--15687985791172__a91e8d88-4b78-44f2-8126-40a51a847b0d-166617423838da1e05-2"
      ],
      "disabled": true,
      "settings": {
        "grid": 3,
        "desktop_image_height": 400,
        "mobile_image_height": 400,
        "enable_margin": true,
        "full_width": false,
        "use_alt_bg": false,
        "enable_carousel": false,
        "overlay_style": "full",
        "button_style": "primary"
      }
    },
    "recommendations": {
      "type": "product-recommendations",
      "disabled": true,
      "settings": {
        "title": "Related products",
        "show_vendor": false,
        "grid": 4
      }
    },
    "8788aadf-f996-4a5c-9c95-3e025047c844": {
      "type": "rich-text",
      "blocks": {
        "template--15687985791172__8788aadf-f996-4a5c-9c95-3e025047c844-1666174406d1240983-1": {
          "type": "heading",
          "settings": {
            "title": "Customer Reviews",
            "use_h1": false
          }
        }
      },
      "block_order": [
        "template--15687985791172__8788aadf-f996-4a5c-9c95-3e025047c844-1666174406d1240983-1"
      ],
      "settings": {
        "height": "medium",
        "text_alignment": "center",
        "full_width": false,
        "use_alt_bg": false
      }
    },
    "1637660818f2c8d56c": {
      "type": "apps",
      "blocks": {
        "22d1c328-423e-4e0e-88df-4336d3e18e31": {
          "type": "shopify:\/\/apps\/yotpo-product-photo-reviews\/blocks\/reviews\/eb7dfd7d-db44-4334-bc49-c893b51b36cf",
          "settings": {
            "product": "{{product}}"
          }
        }
      },
      "block_order": [
        "22d1c328-423e-4e0e-88df-4336d3e18e31"
      ],
      "settings": {
        "full_width": false
      }
    },
    "shogun-below": {
      "type": "shogun-below",
      "disabled": true,
      "settings": {}
    },
    "ecc3ab90-7e77-428f-856f-874691bc376e": {
      "type": "slideshow",
      "blocks": {
        "template--15815677051076__ecc3ab90-7e77-428f-856f-874691bc376e-image-1": {
          "type": "image",
          "settings": {
            "image": "shopify:\/\/shop_images\/Artboard_4_5fdd40a9-3dc2-4db7-83e8-82a6d90dfdc3.jpg",
            "mobile_image": "shopify:\/\/shop_images\/Artboard_53_f1659a70-77c8-4429-bc34-fe4a0b19cf9a.jpg",
            "image_position": "center center",
            "slide_link": "shopify:\/\/collections\/sale",
            "subheading": "",
            "title": "",
            "title_size": 46,
            "text": "",
            "enlarge_text": false,
            "button_label": "",
            "text_alignment": "center center"
          }
        }
      },
      "block_order": [
        "template--15815677051076__ecc3ab90-7e77-428f-856f-874691bc376e-image-1"
      ],
      "settings": {
        "height": "adapt",
        "height_desktop": 600,
        "height_mobile": 500,
        "full_width": true,
        "mobile_overlay_under": false,
        "overlay_style": "full",
        "slide_transition": "fade",
        "slide_navigation": "arrows",
        "autoplay": true,
        "autoplay_speed": 7
      }
    }
  },
  "order": [
    "shogun-helper",
    "shogun-above",
    "main",
    "164318472923bd8e51",
    "e5fe062e-e4ca-4b2c-bae5-c027aea6ec1a",
    "e3612d3d-0ca9-4643-9a63-b462c1ca53af",
    "b92a0531-2224-49c9-a57a-ac81d239b8ee",
    "a91e8d88-4b78-44f2-8126-40a51a847b0d",
    "recommendations",
    "8788aadf-f996-4a5c-9c95-3e025047c844",
    "1637660818f2c8d56c",
    "shogun-below",
    "ecc3ab90-7e77-428f-856f-874691bc376e"
  ]
}