{
  "sections": {
    "shogun-helper": {
      "type": "shogun-helper",
      "settings": {}
    },
    "shogun-above": {
      "type": "shogun-above",
      "settings": {}
    },
    "main": {
      "type": "main-product",
      "blocks": {
        "title": {
          "type": "title",
          "settings": {}
        },
        "f2d68360-aa02-4b0c-828a-06411bb8c312": {
          "type": "shopify:\/\/apps\/yotpo-product-photo-reviews\/blocks\/star-rating\/eb7dfd7d-db44-4334-bc49-c893b51b36cf",
          "settings": {
            "product": "{{product}}"
          }
        },
        "price": {
          "type": "price",
          "settings": {
            "show_tax_and_shipping": false
          }
        },
        "e16eb14b-0ba9-4180-a2c8-c26223761a76": {
          "type": "variant_picker",
          "settings": {
            "show_single": false,
            "show_size_chart": true,
            "size_chart_variant": "Size Guide",
            "size_chart_page": "size-guide-bedding"
          }
        },
        "200c6c1d-58ba-4af8-a163-7a63e524dc4c": {
          "type": "richtext",
          "settings": {
            "richtext": "<p><strong>Includes 1 duvet cover and 2 pillowcases.<\/strong><\/p>",
            "show_in_quickbuy": false
          }
        },
        "69c51370-9617-463e-9da2-e9f6e7099e8f": {
          "type": "richtext",
          "settings": {
            "richtext": "<p><strong>Free delivery on orders over $100.<\/strong><\/p>",
            "show_in_quickbuy": false
          }
        },
        "buy_buttons": {
          "type": "buy_buttons",
          "settings": {
            "show_quantity_selector": false,
            "enable_payment_button": false,
            "show_backorder_text": false,
            "show_inventory_notice": false,
            "inventory_notice_threshold": 100,
            "show_pickup_availability": false
          }
        },
        "23c9a8d7-9888-4e4f-8842-17e80ae81f56": {
          "type": "accordion",
          "settings": {
            "title": "DETAILS",
            "content": "<p><strong>Pet Hair Repellent<\/strong><br\/><br\/>Our innovative fabrics repel pet hair, dander, and dust, making it easy to keep your space clean. This makes it a great choice for families with pets and young children.<br\/><br\/><strong>Antibacterial & Hypoallergenic<\/strong><br\/><br\/>Our fabric is crafted from bamboo, which is naturally resistant to bacteria and free from harmful chemicals. This makes it an excellent option for those with sensitive skin, as it is hypoallergenic and gentle to the touch.<br\/><br\/><strong>Absurdly Soft<\/strong><br\/><br\/>Our bamboo fabric is exceptionally soft and silky-smooth to the touch. It is also naturally breathable, making it a perfect option for those who want a comfortable night's sleep.<\/p><p><strong>Note: <\/strong>The duvet cover designed to protect your existing duvet or comforter. It does not come with any filling or comforter included.<\/p>",
            "page": "",
            "open": true,
            "show_in_quickbuy": false
          }
        },
        "ceb8eaf6-8af9-4237-a5b8-0e10904a2bc4": {
          "type": "accordion",
          "settings": {
            "title": "FABRIC",
            "content": "<p>100% premium viscose from bamboo<\/p>",
            "page": "",
            "open": false,
            "show_in_quickbuy": false
          }
        },
        "572270c6-2676-4c39-a468-53536a802d56": {
          "type": "accordion",
          "settings": {
            "title": "CARE",
            "content": "<p><strong>Keep your bamboo sheets fresh with these care tips.<\/strong><\/p><p>Neutral Detergent<br\/>Machine Wash Cold <br\/>Do Not Bleach <br\/>Machine Dry Low Heat<br\/>Max Temp 110°C or 230°F<br\/><\/p><p>For additional questions, please contact us.<\/p>",
            "page": "",
            "open": false,
            "show_in_quickbuy": false
          }
        },
        "b17ea531-cdc9-41b5-83ba-82d7c5700d27": {
          "type": "image",
          "disabled": true,
          "settings": {
            "image_width": 700,
            "url": "",
            "show_in_quickbuy": false
          }
        },
        "c9dae184-4e81-43a3-a005-bb66e1b08b5d": {
          "type": "sharing",
          "settings": {
            "show_in_quickbuy": false
          }
        }
      },
      "block_order": [
        "title",
        "f2d68360-aa02-4b0c-828a-06411bb8c312",
        "price",
        "e16eb14b-0ba9-4180-a2c8-c26223761a76",
        "200c6c1d-58ba-4af8-a163-7a63e524dc4c",
        "69c51370-9617-463e-9da2-e9f6e7099e8f",
        "buy_buttons",
        "23c9a8d7-9888-4e4f-8842-17e80ae81f56",
        "ceb8eaf6-8af9-4237-a5b8-0e10904a2bc4",
        "572270c6-2676-4c39-a468-53536a802d56",
        "b17ea531-cdc9-41b5-83ba-82d7c5700d27",
        "c9dae184-4e81-43a3-a005-bb66e1b08b5d"
      ],
      "settings": {
        "show_breadcrumbs": false,
        "show_location_underneath": false,
        "inventory_transfers_enable": false,
        "gallery_size": "large",
        "prod_gall_thumbs_under": "under",
        "enable_sticky_gallery": true,
        "enable_zoom": true,
        "enable_video_looping": true
      }
    },
    "164318472923bd8e51": {
      "type": "featured-collection",
      "settings": {
        "title": "You Might Also Like...",
        "collection": "bamboo-bedding",
        "show_vendor": false,
        "enable_carousel": false,
        "grid": 4,
        "rows": 4,
        "use_alt_bg": false,
        "show_view_all": false,
        "full_width": true
      }
    },
    "53c848a6-e2ef-412a-8d74-543a8bb5e9ca": {
      "type": "slideshow",
      "blocks": {
        "template--15744191037636__53c848a6-e2ef-412a-8d74-543a8bb5e9ca-166617508168bcae6b-0": {
          "type": "image",
          "settings": {
            "image": "shopify:\/\/shop_images\/brand_intro_2_71449a2a-2862-4163-86a2-6ed1ffc5c98f.png",
            "mobile_image": "shopify:\/\/shop_images\/banner_6_b8549a8c-0f98-4d6e-93d0-849730885c31.png",
            "image_position": "bottom center",
            "slide_link": "",
            "subheading": "",
            "title": "What bedding is best for people with dogs and cats? \nslashop",
            "title_size": 38,
            "text": "",
            "enlarge_text": true,
            "button_label": "",
            "text_alignment": "center center"
          }
        },
        "template--15744191037636__53c848a6-e2ef-412a-8d74-543a8bb5e9ca-166617508168bcae6b-1": {
          "type": "image",
          "settings": {
            "image": "shopify:\/\/shop_images\/brand-intro-1_0665f17b-889b-4e44-8103-13400a9a27f3.jpg",
            "mobile_image": "shopify:\/\/shop_images\/banner_4_ff2e72c4-2d12-44cd-b8ee-95dd97820475.jpg",
            "image_position": "bottom center",
            "slide_link": "",
            "subheading": "",
            "title": "We redesign all textile essentials to meet the pet family’s needs, with the environment in mind",
            "title_size": 38,
            "text": "",
            "enlarge_text": false,
            "button_label": "",
            "text_alignment": "center center"
          }
        },
        "68689c9d-db34-4b81-8dfe-c61ba6b4f0f4": {
          "type": "image",
          "settings": {
            "image": "shopify:\/\/shop_images\/banner_3_a4e98c87-512c-4a4d-8697-a2f799ef8832.png",
            "mobile_image": "shopify:\/\/shop_images\/banner_5_f9f74646-a40b-4cbc-a7e0-43bd68acbe05.jpg",
            "image_position": "bottom center",
            "slide_link": "",
            "subheading": "",
            "title": "Welcome furry friends to your life, easy and free",
            "title_size": 38,
            "text": "",
            "enlarge_text": false,
            "button_label": "",
            "text_alignment": "center center"
          }
        }
      },
      "block_order": [
        "template--15744191037636__53c848a6-e2ef-412a-8d74-543a8bb5e9ca-166617508168bcae6b-0",
        "template--15744191037636__53c848a6-e2ef-412a-8d74-543a8bb5e9ca-166617508168bcae6b-1",
        "68689c9d-db34-4b81-8dfe-c61ba6b4f0f4"
      ],
      "disabled": true,
      "settings": {
        "height": "fixed",
        "height_desktop": 640,
        "height_mobile": 520,
        "full_width": true,
        "mobile_overlay_under": false,
        "overlay_style": "full",
        "slide_transition": "fade",
        "slide_navigation": "arrows",
        "autoplay": true,
        "autoplay_speed": 3
      }
    },
    "ef7aa3a4-607c-4409-8aa7-ed96f0f04719": {
      "type": "rich-text",
      "blocks": {
        "template--15744191037636__ef7aa3a4-607c-4409-8aa7-ed96f0f04719-166617551277329e1a-0": {
          "type": "subheading",
          "settings": {
            "subheading": ""
          }
        },
        "template--15744191037636__ef7aa3a4-607c-4409-8aa7-ed96f0f04719-166617551277329e1a-1": {
          "type": "heading",
          "settings": {
            "title": "Why Bamboo Bedding?",
            "use_h1": false
          }
        },
        "template--15744191037636__ef7aa3a4-607c-4409-8aa7-ed96f0f04719-166617551277329e1a-2": {
          "type": "text",
          "settings": {
            "text": "<p>Learn about Bamboo properties<\/p>",
            "enlarge_text": false
          }
        }
      },
      "block_order": [
        "template--15744191037636__ef7aa3a4-607c-4409-8aa7-ed96f0f04719-166617551277329e1a-0",
        "template--15744191037636__ef7aa3a4-607c-4409-8aa7-ed96f0f04719-166617551277329e1a-1",
        "template--15744191037636__ef7aa3a4-607c-4409-8aa7-ed96f0f04719-166617551277329e1a-2"
      ],
      "disabled": true,
      "settings": {
        "height": "medium",
        "text_alignment": "center",
        "full_width": false,
        "use_alt_bg": false
      }
    },
    "1638940697011c8bb5": {
      "type": "custom-row",
      "blocks": {
        "1638940697994455c0-0": {
          "type": "image",
          "settings": {
            "width": "third",
            "image": "shopify:\/\/shop_images\/selling_point_8cabaedc-e29c-48fd-8684-69bd32c7d061.png",
            "image_position": "center center",
            "height": "fixed",
            "height_desktop": 480,
            "height_mobile": 360,
            "subheading": "",
            "title": "",
            "text": "",
            "enlarge_text": false,
            "button_label": "",
            "image_link": "",
            "text_alignment": "center center",
            "mobile_overlay_under": false,
            "overlay_style": "no_background"
          }
        },
        "1638940697994455c0-1": {
          "type": "text",
          "settings": {
            "width": "half",
            "subheading": "",
            "title": "Pet hair resistant",
            "text": "<p><strong>Perfect for families with dogs and cats<\/strong><\/p><p>Slashop innovative hair resistant fabric is anti-static, effectively prevents hair and dust stuck on bed. It doesn't prevent your husky from shedding, while you remove pet furwith hands easily.<\/p>",
            "button_label": "",
            "button_link": "",
            "button_style": "primary",
            "text_alignment": "left"
          }
        }
      },
      "block_order": [
        "1638940697994455c0-0",
        "1638940697994455c0-1"
      ],
      "disabled": true,
      "settings": {
        "alignment": "middle",
        "class_name": "custom-row"
      }
    },
    "163894072740ffbfce": {
      "type": "custom-row",
      "blocks": {
        "163894072768ad7053-0": {
          "type": "image",
          "settings": {
            "width": "third",
            "image": "shopify:\/\/shop_images\/fur-resistant_95460dd6-de96-4323-8cee-9f94c19e5756.png",
            "image_position": "center center",
            "height": "fixed",
            "height_desktop": 480,
            "height_mobile": 360,
            "subheading": "",
            "title": "",
            "text": "",
            "enlarge_text": false,
            "button_label": "",
            "image_link": "",
            "text_alignment": "center center",
            "mobile_overlay_under": false,
            "overlay_style": "full"
          }
        },
        "163894072768ad7053-1": {
          "type": "text",
          "settings": {
            "width": "half",
            "subheading": "",
            "title": "Anti-bacterial  and Anti-odor",
            "text": "<p><strong>Enjoy sleeping with your furry friends<\/strong><\/p><p>Bamboo naturally contains anti-bacterial substance \"bamboo quinone\" which makes it anti-odor and anti-microbial<em>.<\/em><\/p>",
            "button_label": "",
            "button_link": "",
            "button_style": "primary",
            "text_alignment": "left"
          }
        }
      },
      "block_order": [
        "163894072768ad7053-0",
        "163894072768ad7053-1"
      ],
      "disabled": true,
      "settings": {
        "alignment": "middle",
        "class_name": "custom-row"
      }
    },
    "1638941065e1970d95": {
      "type": "custom-row",
      "blocks": {
        "16389410655a411aaf-0": {
          "type": "image",
          "settings": {
            "width": "third",
            "image": "shopify:\/\/shop_images\/dog1.png",
            "image_position": "center center",
            "height": "fixed",
            "height_desktop": 480,
            "height_mobile": 360,
            "subheading": "",
            "title": "",
            "text": "",
            "enlarge_text": false,
            "button_label": "",
            "image_link": "",
            "text_alignment": "bottom left",
            "mobile_overlay_under": false,
            "overlay_style": "full"
          }
        },
        "16389410655a411aaf-1": {
          "type": "text",
          "settings": {
            "width": "half",
            "subheading": "",
            "title": "Ideal for hot sleepers",
            "text": "<p><strong>Forget about hot flashes<\/strong><\/p><p>Slashop bamboo bedding is absorbent and dries super quickly, perfect for sweaty hot sleepers. Our innovative fabric is also thermo-regulating and breathable, keeps you cool all night long.<\/p>",
            "button_label": "",
            "button_link": "",
            "button_style": "primary",
            "text_alignment": "left"
          }
        }
      },
      "block_order": [
        "16389410655a411aaf-0",
        "16389410655a411aaf-1"
      ],
      "disabled": true,
      "settings": {
        "alignment": "middle",
        "class_name": "custom-row"
      }
    },
    "ca1229c5-cc52-465a-805b-94b14d5143b6": {
      "type": "slideshow",
      "blocks": {
        "template--15744191037636__ca1229c5-cc52-465a-805b-94b14d5143b6-1666175898f527feca-0": {
          "type": "image",
          "settings": {
            "image": "shopify:\/\/shop_images\/comparison.png",
            "mobile_image": "shopify:\/\/shop_images\/bamboo_cotton_update_a04fc060-b2da-4c35-b63e-3bede995866b.png",
            "image_position": "center center",
            "slide_link": "",
            "subheading": "",
            "title": "",
            "title_size": 46,
            "text": "",
            "enlarge_text": true,
            "button_label": "",
            "text_alignment": "center center"
          }
        }
      },
      "block_order": [
        "template--15744191037636__ca1229c5-cc52-465a-805b-94b14d5143b6-1666175898f527feca-0"
      ],
      "disabled": true,
      "settings": {
        "height": "fixed",
        "height_desktop": 400,
        "height_mobile": 540,
        "full_width": false,
        "mobile_overlay_under": false,
        "overlay_style": "full",
        "slide_transition": "fade",
        "slide_navigation": "arrows",
        "autoplay": true,
        "autoplay_speed": 1
      }
    },
    "c5231e74-3382-42f4-a62a-91ef29542748": {
      "type": "rich-text",
      "blocks": {
        "template--15744191037636__c5231e74-3382-42f4-a62a-91ef29542748-166617604532aa4d6c-0": {
          "type": "subheading",
          "settings": {
            "subheading": ""
          }
        },
        "template--15744191037636__c5231e74-3382-42f4-a62a-91ef29542748-166617604532aa4d6c-1": {
          "type": "heading",
          "settings": {
            "title": "Furry friends approved",
            "use_h1": false
          }
        },
        "template--15744191037636__c5231e74-3382-42f4-a62a-91ef29542748-166617604532aa4d6c-2": {
          "type": "text",
          "settings": {
            "text": "<p>Follow @slashopofficial to find more<\/p>",
            "enlarge_text": false
          }
        }
      },
      "block_order": [
        "template--15744191037636__c5231e74-3382-42f4-a62a-91ef29542748-166617604532aa4d6c-0",
        "template--15744191037636__c5231e74-3382-42f4-a62a-91ef29542748-166617604532aa4d6c-1",
        "template--15744191037636__c5231e74-3382-42f4-a62a-91ef29542748-166617604532aa4d6c-2"
      ],
      "settings": {
        "height": "medium",
        "text_alignment": "center",
        "full_width": false,
        "use_alt_bg": false
      }
    },
    "f0ec8c40-bbe0-4166-b325-908fec46c8d5": {
      "type": "gallery",
      "blocks": {
        "template--15744191037636__f0ec8c40-bbe0-4166-b325-908fec46c8d5-1666176109cf325218-0": {
          "type": "image",
          "settings": {
            "image": "shopify:\/\/shop_images\/KOL_review_2_7eb7914a-4702-4ff9-8151-1af27d1f8e13.png",
            "alignment": "center center",
            "enlarge_image": false,
            "subheading": "",
            "title": "",
            "button_label": "",
            "link": "",
            "text_alignment": "center center"
          }
        },
        "template--15744191037636__f0ec8c40-bbe0-4166-b325-908fec46c8d5-1666176109cf325218-1": {
          "type": "image",
          "settings": {
            "image": "shopify:\/\/shop_images\/kol_reviews_3.png",
            "alignment": "center center",
            "enlarge_image": false,
            "subheading": "",
            "title": "",
            "button_label": "",
            "link": "",
            "text_alignment": "center center"
          }
        },
        "template--15744191037636__f0ec8c40-bbe0-4166-b325-908fec46c8d5-1666176109cf325218-2": {
          "type": "image",
          "settings": {
            "image": "shopify:\/\/shop_images\/Kol_review_1_4962ff73-ae4a-4b5c-90db-81979faecb29.png",
            "alignment": "center center",
            "enlarge_image": false,
            "subheading": "",
            "title": "",
            "button_label": "",
            "link": "",
            "text_alignment": "center center"
          }
        }
      },
      "block_order": [
        "template--15744191037636__f0ec8c40-bbe0-4166-b325-908fec46c8d5-1666176109cf325218-0",
        "template--15744191037636__f0ec8c40-bbe0-4166-b325-908fec46c8d5-1666176109cf325218-1",
        "template--15744191037636__f0ec8c40-bbe0-4166-b325-908fec46c8d5-1666176109cf325218-2"
      ],
      "settings": {
        "grid": 3,
        "desktop_image_height": 400,
        "mobile_image_height": 400,
        "enable_margin": true,
        "full_width": false,
        "use_alt_bg": false,
        "enable_carousel": true,
        "overlay_style": "full",
        "button_style": "primary"
      }
    },
    "recommendations": {
      "type": "product-recommendations",
      "disabled": true,
      "settings": {
        "title": "Related products",
        "show_vendor": false,
        "grid": 4
      }
    },
    "1641899986c3ca8597": {
      "type": "text-columns-with-images",
      "blocks": {
        "16418999869057970b-0": {
          "type": "text_block",
          "settings": {
            "enable_image": true,
            "image": "shopify:\/\/shop_images\/bamboo_b_e6f07c01-6852-4c91-ae87-e8676b04b648.png",
            "image_width": 700,
            "title": "Eucalyptus",
            "text": "<p>Biobased material, water-saving,   biodegradable.<\/p>",
            "button_label": "Learn more",
            "link": "shopify:\/\/pages\/eucalyptus"
          }
        },
        "16418999869057970b-1": {
          "type": "text_block",
          "settings": {
            "enable_image": true,
            "image": "shopify:\/\/shop_images\/bamboo_bb.png",
            "image_width": 700,
            "title": "Bamboo",
            "text": "<p>Regenerative, water + energy-efficient, bio circular.<\/p>",
            "button_label": "Learn more",
            "link": "shopify:\/\/pages\/bamboo"
          }
        },
        "16418999869057970b-2": {
          "type": "text_block",
          "settings": {
            "enable_image": true,
            "image": "shopify:\/\/shop_images\/sustainability_round_8_99bd24e4-2ebe-471a-8f84-0d56f7dff19b.png",
            "image_width": 700,
            "title": "Aerogel",
            "text": "<p>Developed by NASA, let science keep you warm.<\/p>",
            "button_label": "Learn more",
            "link": "shopify:\/\/pages\/aerogel"
          }
        }
      },
      "block_order": [
        "16418999869057970b-0",
        "16418999869057970b-1",
        "16418999869057970b-2"
      ],
      "disabled": true,
      "settings": {
        "title": "Our responsible materials",
        "text_alignment": "center",
        "button_style": "link",
        "use_alt_bg": false
      }
    },
    "1637660818f2c8d56c": {
      "type": "apps",
      "disabled": true,
      "settings": {
        "full_width": false
      }
    },
    "shogun-below": {
      "type": "shogun-below",
      "settings": {}
    },
    "166563584445768e80": {
      "type": "apps",
      "blocks": {
        "fd8f05f0-ef45-48d1-965d-e3eb03b9061a": {
          "type": "shopify:\/\/apps\/yotpo-product-photo-reviews\/blocks\/reviews\/eb7dfd7d-db44-4334-bc49-c893b51b36cf",
          "settings": {
            "product": "{{product}}"
          }
        }
      },
      "block_order": [
        "fd8f05f0-ef45-48d1-965d-e3eb03b9061a"
      ],
      "settings": {
        "full_width": false
      }
    },
    "16433551324dca06ee": {
      "type": "logo-list",
      "blocks": {
        "6207d941-fdb6-49f0-9e98-0125880c5565": {
          "type": "logo",
          "settings": {
            "image": "shopify:\/\/shop_images\/fo__round.png",
            "image_width": 160,
            "link": "",
            "title": "Forest Stewardship Council"
          }
        },
        "0f88bd70-5b81-47d8-8564-a8950f2dccad": {
          "type": "logo",
          "disabled": true,
          "settings": {
            "image": "shopify:\/\/shop_images\/forest__round.png",
            "image_width": 160,
            "link": "shopify:\/\/pages\/certifications",
            "title": "Organic Content Standard"
          }
        },
        "aa4c67e9-98c7-4025-8948-1aeab2267bb3": {
          "type": "logo",
          "settings": {
            "image": "shopify:\/\/shop_images\/oeko__round_45db7309-ad8d-4830-a266-3f3e4446e798.png",
            "image_width": 280,
            "link": "",
            "title": "Standard 100 by OEKO-TEX"
          }
        }
      },
      "block_order": [
        "6207d941-fdb6-49f0-9e98-0125880c5565",
        "0f88bd70-5b81-47d8-8564-a8950f2dccad",
        "aa4c67e9-98c7-4025-8948-1aeab2267bb3"
      ],
      "settings": {
        "title": "Certified by",
        "image_opacity": 100,
        "use_alt_bg": false
      }
    },
    "01a53aed-7470-441e-937c-cfba4daf9f3e": {
      "type": "image-with-text-overlay",
      "settings": {
        "image": "shopify:\/\/shop_images\/sale.png",
        "image_position": "center center",
        "height": "fixed",
        "height_desktop": 440,
        "height_mobile": 220,
        "subheading": "",
        "title": "Last Call Sale",
        "title_size": 46,
        "use_h1": false,
        "text": "",
        "enlarge_text": false,
        "button_label": "Shop now",
        "image_link": "shopify:\/\/collections\/sale",
        "text_alignment": "center center",
        "full_width": true,
        "mobile_overlay_under": false,
        "overlay_style": "full"
      }
    }
  },
  "order": [
    "shogun-helper",
    "shogun-above",
    "main",
    "164318472923bd8e51",
    "53c848a6-e2ef-412a-8d74-543a8bb5e9ca",
    "ef7aa3a4-607c-4409-8aa7-ed96f0f04719",
    "1638940697011c8bb5",
    "163894072740ffbfce",
    "1638941065e1970d95",
    "ca1229c5-cc52-465a-805b-94b14d5143b6",
    "c5231e74-3382-42f4-a62a-91ef29542748",
    "f0ec8c40-bbe0-4166-b325-908fec46c8d5",
    "recommendations",
    "1641899986c3ca8597",
    "1637660818f2c8d56c",
    "shogun-below",
    "166563584445768e80",
    "16433551324dca06ee",
    "01a53aed-7470-441e-937c-cfba4daf9f3e"
  ]
}