{
  "sections": {
    "main": {
      "type": "main-product",
      "blocks": {
        "title": {
          "type": "title",
          "settings": {}
        },
        "price": {
          "type": "price",
          "settings": {
            "show_tax_and_shipping": false
          }
        },
        "86a8a064-a407-4a78-9497-e96b00ec92d1": {
          "type": "variant_picker",
          "settings": {
            "show_single": true,
            "show_size_chart": true,
            "size_chart_variant": "Size Guide",
            "size_chart_page": "size-guide-breeze-comforter"
          }
        },
        "d711534a-1ce7-4bd9-89ba-bd6efca271ec": {
          "type": "richtext",
          "disabled": true,
          "settings": {
            "richtext": "<p><strong>*Set includes short sleeve top and pants<\/strong><\/p>",
            "show_in_quickbuy": false
          }
        },
        "ab7d18e9-3aa7-476f-9ca2-a91c61e2a916": {
          "type": "richtext",
          "settings": {
            "richtext": "<p><strong>Free delivery on orders over $100.<\/strong><\/p>",
            "show_in_quickbuy": false
          }
        },
        "buy_buttons": {
          "type": "buy_buttons",
          "settings": {
            "show_quantity_selector": false,
            "enable_payment_button": true,
            "show_backorder_text": false,
            "show_inventory_notice": false,
            "inventory_notice_threshold": 10,
            "show_pickup_availability": true
          }
        },
        "030b31b0-dc19-48de-a6b7-fc930a945e63": {
          "type": "accordion",
          "settings": {
            "title": "DESCRIPTION",
            "content": "<p>To ensure that both you and your beloved fur babies can always breathe easily and relax fully, we choose to use the comfiest and the most refreshing fabrics with maximum functionalities. <\/p>",
            "page": "",
            "open": false,
            "show_in_quickbuy": false
          }
        },
        "06b99184-7b91-442c-87d7-6b0dffbd3607": {
          "type": "accordion",
          "disabled": true,
          "settings": {
            "title": "SIZE TO FIT",
            "content": "<p>The top is designed to be oversized. Pants are designed with an easy and relaxed fit.<\/p>",
            "page": "",
            "open": false,
            "show_in_quickbuy": false
          }
        },
        "572270c6-2676-4c39-a468-53536a802d56": {
          "type": "accordion",
          "settings": {
            "title": "PRODUCT CARE",
            "content": "<p>We recommend you to follow these tips:<br\/>-Gentle wash<br\/>-Do not bleach<br\/>-Do not iron<br\/>-Do not dry clean<\/p>",
            "page": "",
            "open": false,
            "show_in_quickbuy": false
          }
        },
        "23c9a8d7-9888-4e4f-8842-17e80ae81f56": {
          "type": "accordion",
          "settings": {
            "title": "DETAILS",
            "content": "<p><strong>1. Cooling & Absorbent<\/strong><\/p><p>Moisture-wicking and extremely breathable fabric gives you a cool and comfortable sleep by absorbing heat and lowering your body temperature.<\/p><p><strong>2. Pet Fur-Resistant<\/strong><\/p><p>Since our comforters are anti-sang and do not cling to pet fur the way other fabrics do, they are perfect for sensitive skin. <\/p><p><strong>3. Snag-Proof <\/strong><\/p><p>Regenerated fabrics are durable and resistant to scratches, bites, or even the most mischievous claws, despite how soft and refreshing they are to the touch.<\/p><p><strong>4. Sustainable<\/strong><\/p><p>Slashop achieves zero contamination during manufacturing while producing bedding and loungewear that is biodegradable, for the good of the planet.<\/p>",
            "page": "",
            "open": false,
            "show_in_quickbuy": false
          }
        }
      },
      "block_order": [
        "title",
        "price",
        "86a8a064-a407-4a78-9497-e96b00ec92d1",
        "d711534a-1ce7-4bd9-89ba-bd6efca271ec",
        "ab7d18e9-3aa7-476f-9ca2-a91c61e2a916",
        "buy_buttons",
        "030b31b0-dc19-48de-a6b7-fc930a945e63",
        "06b99184-7b91-442c-87d7-6b0dffbd3607",
        "572270c6-2676-4c39-a468-53536a802d56",
        "23c9a8d7-9888-4e4f-8842-17e80ae81f56"
      ],
      "settings": {
        "show_breadcrumbs": false,
        "show_location_underneath": false,
        "inventory_transfers_enable": false,
        "gallery_size": "large",
        "prod_gall_thumbs_under": "under",
        "enable_sticky_gallery": true,
        "enable_zoom": true,
        "enable_video_looping": true
      }
    },
    "16633217812bb54a23": {
      "type": "testimonials",
      "blocks": {
        "16633217811b3c2d58-1": {
          "type": "testimonial",
          "disabled": true,
          "settings": {
            "star_rating": 5,
            "testimonial": "Add customer reviews and testimonials to showcase your store’s happy customers.",
            "author": "Author's name",
            "image_alignment": "center center",
            "image_caption": "",
            "link": ""
          }
        },
        "16633217811b3c2d58-0": {
          "type": "testimonial",
          "settings": {
            "star_rating": 5,
            "testimonial": "It's definitely cool\/cold to the touch. Can't live without it! Nor can my cat. She even sleeps on top of me to be on it.",
            "author": "alliandcats",
            "image": "shopify:\/\/shop_images\/alliandcats-135155.jpg",
            "image_alignment": "center center",
            "image_caption": "",
            "link": ""
          }
        }
      },
      "block_order": [
        "16633217811b3c2d58-1",
        "16633217811b3c2d58-0"
      ],
      "settings": {
        "title": "Customer reviews",
        "layout": "image-left",
        "image_shape": "square",
        "use_alt_bg": false
      }
    },
    "16499471446bb97770": {
      "type": "image-with-text-overlay",
      "settings": {
        "image": "shopify:\/\/shop_images\/banner_comforter_jpg.png",
        "image_position": "center right",
        "height": "fixed",
        "height_desktop": 480,
        "height_mobile": 520,
        "subheading": "",
        "title": "Eucalyptus comforters",
        "title_size": 42,
        "use_h1": false,
        "text": "<p>The closest thing you will find to sleeping in a dreamy cloud.<\/p>",
        "enlarge_text": false,
        "button_label": "",
        "image_link": "",
        "text_alignment": "center center",
        "full_width": true,
        "mobile_overlay_under": false,
        "overlay_style": "no_background"
      }
    },
    "16499471369440bd83": {
      "type": "collection-list",
      "blocks": {
        "e0448535-abde-4bdf-bd8e-cf1f030c4006": {
          "type": "collection",
          "settings": {
            "collection": "charming-white",
            "image": "shopify:\/\/shop_images\/charming_white.png"
          }
        },
        "66b7566a-5717-4acc-bff4-045b0993715d": {
          "type": "collection",
          "settings": {
            "collection": "whipped-cream-hybrid-fabric-sheet-set-from-149-99",
            "image": "shopify:\/\/shop_images\/whipped_cream_b8925293-5cda-4c67-963c-87612717fe64.png"
          }
        },
        "189856bb-f25a-4218-8a0a-b9669088e41f": {
          "type": "collection",
          "settings": {
            "collection": "sand-dune",
            "image": "shopify:\/\/shop_images\/sand_dune.png"
          }
        },
        "e08e4ca4-6057-4135-89ba-cbcd75622c97": {
          "type": "collection",
          "settings": {
            "collection": "lost-shell",
            "image": "shopify:\/\/shop_images\/Lost_Shell_94f3f024-0e5f-41f6-a33f-c262cd567389.png"
          }
        },
        "fe3acfcb-370e-4656-b143-e0ee7be0ca9f": {
          "type": "collection",
          "settings": {
            "collection": "vague-dream",
            "image": "shopify:\/\/shop_images\/Vague_dream.png"
          }
        }
      },
      "block_order": [
        "e0448535-abde-4bdf-bd8e-cf1f030c4006",
        "66b7566a-5717-4acc-bff4-045b0993715d",
        "189856bb-f25a-4218-8a0a-b9669088e41f",
        "e08e4ca4-6057-4135-89ba-cbcd75622c97",
        "fe3acfcb-370e-4656-b143-e0ee7be0ca9f"
      ],
      "settings": {
        "title": "Shop by color",
        "enable_carousel": true,
        "grid": 3,
        "use_alt_bg": true,
        "full_width": true
      }
    },
    "1649947048eaf7e450": {
      "type": "background-video",
      "disabled": true,
      "settings": {
        "video": "https:\/\/www.youtube.com\/watch?v=FjNx0CEVRsk",
        "placeholder_image": "shopify:\/\/shop_images\/Untitled-2_4d74b7f7-69cc-456f-84f1-2a3fb9ac281d.jpg",
        "subheading": "",
        "title": "",
        "title_size": 34,
        "use_h1": false,
        "text": "",
        "enlarge_text": false,
        "button_label": "",
        "button_link": "",
        "text_alignment": "center center",
        "height_desktop": 1000,
        "height_mobile": 500,
        "full_width": true,
        "overlay_style": "full"
      }
    },
    "recommendations": {
      "type": "product-recommendations",
      "disabled": true,
      "settings": {
        "title": "Related products",
        "show_vendor": false,
        "grid": 2
      }
    },
    "1637660518324c9917": {
      "type": "apps",
      "settings": {
        "full_width": false
      }
    }
  },
  "order": [
    "main",
    "16633217812bb54a23",
    "16499471446bb97770",
    "16499471369440bd83",
    "1649947048eaf7e450",
    "recommendations",
    "1637660518324c9917"
  ]
}