{
  "sections": {
    "shogun-helper": {
      "type": "shogun-helper",
      "settings": {}
    },
    "shogun-above": {
      "type": "shogun-above",
      "settings": {}
    },
    "main": {
      "type": "main-product",
      "blocks": {
        "title": {
          "type": "title",
          "settings": {}
        },
        "dc683298-ab09-4c00-b7a7-181936016a2c": {
          "type": "shopify:\/\/apps\/yotpo-product-photo-reviews\/blocks\/star-rating\/eb7dfd7d-db44-4334-bc49-c893b51b36cf",
          "settings": {
            "product": "{{product}}"
          }
        },
        "price": {
          "type": "price",
          "settings": {
            "show_tax_and_shipping": false
          }
        },
        "f3a25f10-9668-4e48-99d5-d65528f18e08": {
          "type": "richtext",
          "settings": {
            "richtext": "<p><strong>Includes 2 fitted sheets in Twin XL, 1 flat sheet in King, and 2 pillowcases.<\/strong><\/p>",
            "show_in_quickbuy": false
          }
        },
        "e16eb14b-0ba9-4180-a2c8-c26223761a76": {
          "type": "variant_picker",
          "settings": {
            "show_single": true,
            "show_size_chart": true,
            "size_chart_variant": "Size Guide",
            "size_chart_page": "split-sheet-size"
          }
        },
        "61598d8d-b87c-4bbb-8fa1-b14a67460996": {
          "type": "richtext",
          "settings": {
            "richtext": "<p><strong>Free delivery on orders over $100.<\/strong><\/p>",
            "show_in_quickbuy": false
          }
        },
        "7c523533-ebf4-4f72-8942-feda1e8fa34d": {
          "type": "text",
          "disabled": true,
          "settings": {
            "text": "Includes 1*Flat sheet, 1*Fitted sheet and 2*Pillowcases.",
            "show_in_quickbuy": false
          }
        },
        "6515b48a-8f4a-4bad-acc6-799e8d70e96c": {
          "type": "text",
          "disabled": true,
          "settings": {
            "text": "*Fast Free Delivery Site-wide",
            "show_in_quickbuy": false
          }
        },
        "buy_buttons": {
          "type": "buy_buttons",
          "settings": {
            "show_quantity_selector": false,
            "enable_payment_button": false,
            "show_backorder_text": false,
            "show_inventory_notice": false,
            "inventory_notice_threshold": 100,
            "show_pickup_availability": true
          }
        },
        "23c9a8d7-9888-4e4f-8842-17e80ae81f56": {
          "type": "accordion",
          "settings": {
            "title": "DETAILS",
            "content": "<p><strong>Pet Hair Repellent<\/strong><br\/> <br\/>Our innovative fabrics repel pet hair, dander, and dust, making it easy to keep your space clean. This makes it a great choice for families with pets and young children.<br\/><strong><br\/>Antibacterial & Hypoallergenic<\/strong><br\/> <br\/>Our fabric is crafted from bamboo, which is naturally resistant to bacteria and free from harmful chemicals. This makes it an excellent option for those with sensitive skin, as it is hypoallergenic and gentle to the touch.<br\/> <br\/><strong>Absurdly Soft<\/strong><br\/> <br\/>Our bamboo  fabric is exceptionally soft and silky-smooth to the touch. It is also naturally breathable, making it a perfect option for those who want a comfortable night's sleep.<\/p>",
            "page": "",
            "open": true,
            "show_in_quickbuy": false
          }
        },
        "5835fca3-e839-4707-850f-f5042ca77209": {
          "type": "accordion",
          "settings": {
            "title": "FABRIC",
            "content": "<p>100% premium viscose from bamboo<\/p>",
            "page": "",
            "open": false,
            "show_in_quickbuy": false
          }
        },
        "572270c6-2676-4c39-a468-53536a802d56": {
          "type": "accordion",
          "settings": {
            "title": "CARE",
            "content": "<p><strong>Keep your bamboo sheets fresh with these care tips.<\/strong><\/p><p>Neutral Detergent<br\/>Machine Wash Cold <br\/>Do Not Bleach <br\/>Machine Dry Low Heat<br\/>Max Temp 110°C or 230°F<br\/><\/p><p>For additional questions, please contact us.<\/p>",
            "page": "",
            "open": false,
            "show_in_quickbuy": false
          }
        },
        "b17ea531-cdc9-41b5-83ba-82d7c5700d27": {
          "type": "image",
          "disabled": true,
          "settings": {
            "image_width": 700,
            "url": "",
            "show_in_quickbuy": false
          }
        },
        "a18f81f8-63c2-4ef1-9a56-7e3da88860f0": {
          "type": "sharing",
          "settings": {
            "show_in_quickbuy": false
          }
        }
      },
      "block_order": [
        "title",
        "dc683298-ab09-4c00-b7a7-181936016a2c",
        "price",
        "f3a25f10-9668-4e48-99d5-d65528f18e08",
        "e16eb14b-0ba9-4180-a2c8-c26223761a76",
        "61598d8d-b87c-4bbb-8fa1-b14a67460996",
        "7c523533-ebf4-4f72-8942-feda1e8fa34d",
        "6515b48a-8f4a-4bad-acc6-799e8d70e96c",
        "buy_buttons",
        "23c9a8d7-9888-4e4f-8842-17e80ae81f56",
        "5835fca3-e839-4707-850f-f5042ca77209",
        "572270c6-2676-4c39-a468-53536a802d56",
        "b17ea531-cdc9-41b5-83ba-82d7c5700d27",
        "a18f81f8-63c2-4ef1-9a56-7e3da88860f0"
      ],
      "settings": {
        "show_breadcrumbs": false,
        "show_location_underneath": false,
        "inventory_transfers_enable": false,
        "gallery_size": "large",
        "prod_gall_thumbs_under": "under",
        "enable_sticky_gallery": true,
        "enable_zoom": true,
        "enable_video_looping": true
      }
    },
    "164318472923bd8e51": {
      "type": "featured-collection",
      "settings": {
        "title": "You Might Also Like...",
        "collection": "sale",
        "show_vendor": false,
        "enable_carousel": true,
        "grid": 4,
        "rows": 1,
        "use_alt_bg": false,
        "show_view_all": false,
        "full_width": true
      }
    },
    "recommendations": {
      "type": "product-recommendations",
      "disabled": true,
      "settings": {
        "title": "Related products",
        "show_vendor": false,
        "grid": 4
      }
    },
    "shogun-below": {
      "type": "shogun-below",
      "settings": {}
    },
    "8521fdbd-e72a-47fb-b43c-8dc0263cb8bc": {
      "type": "slideshow",
      "blocks": {
        "template--15810787508420__8521fdbd-e72a-47fb-b43c-8dc0263cb8bc-image-1": {
          "type": "image",
          "settings": {
            "image": "shopify:\/\/shop_images\/Artboard_8-2.jpg",
            "mobile_image": "shopify:\/\/shop_images\/Artboard_45_41f9f0e1-c03b-4b22-bfbb-e3071a76086d.jpg",
            "image_position": "center center",
            "slide_link": "",
            "subheading": "",
            "title": "",
            "title_size": 46,
            "text": "",
            "enlarge_text": false,
            "button_label": "",
            "text_alignment": "center center"
          }
        }
      },
      "block_order": [
        "template--15810787508420__8521fdbd-e72a-47fb-b43c-8dc0263cb8bc-image-1"
      ],
      "disabled": true,
      "settings": {
        "height": "adapt",
        "height_desktop": 600,
        "height_mobile": 500,
        "full_width": true,
        "mobile_overlay_under": false,
        "overlay_style": "full",
        "slide_transition": "fade",
        "slide_navigation": "arrows",
        "autoplay": true,
        "autoplay_speed": 7
      }
    },
    "008363ad-a4c4-46b6-9f91-6ea2dd24ab95": {
      "type": "slideshow",
      "blocks": {
        "template--15810787508420__008363ad-a4c4-46b6-9f91-6ea2dd24ab95-image-1": {
          "type": "image",
          "settings": {
            "image": "shopify:\/\/shop_images\/Artboard_7-2.jpg",
            "mobile_image": "shopify:\/\/shop_images\/Artboard_9_d909fd92-8b31-4ac9-b37a-273db1d5e311.jpg",
            "image_position": "center center",
            "slide_link": "",
            "subheading": "",
            "title": "",
            "title_size": 46,
            "text": "",
            "enlarge_text": false,
            "button_label": "",
            "text_alignment": "center center"
          }
        }
      },
      "block_order": [
        "template--15810787508420__008363ad-a4c4-46b6-9f91-6ea2dd24ab95-image-1"
      ],
      "disabled": true,
      "settings": {
        "height": "adapt",
        "height_desktop": 600,
        "height_mobile": 500,
        "full_width": true,
        "mobile_overlay_under": false,
        "overlay_style": "full",
        "slide_transition": "fade",
        "slide_navigation": "arrows",
        "autoplay": true,
        "autoplay_speed": 7
      }
    },
    "949aa839-e4eb-4c55-af29-5bc281e46e05": {
      "type": "slideshow",
      "blocks": {
        "template--15810787508420__949aa839-e4eb-4c55-af29-5bc281e46e05-image-1": {
          "type": "image",
          "settings": {
            "image": "shopify:\/\/shop_images\/Artboard_3_4b6b0557-1881-4d19-8c9f-03d6f076c42d.jpg",
            "mobile_image": "shopify:\/\/shop_images\/Artboard_47_9dc9ee34-7de6-4a4b-80ae-7e207df8f3af.jpg",
            "image_position": "center center",
            "slide_link": "",
            "subheading": "",
            "title": "",
            "title_size": 46,
            "text": "",
            "enlarge_text": false,
            "button_label": "",
            "text_alignment": "center center"
          }
        }
      },
      "block_order": [
        "template--15810787508420__949aa839-e4eb-4c55-af29-5bc281e46e05-image-1"
      ],
      "disabled": true,
      "settings": {
        "height": "adapt",
        "height_desktop": 600,
        "height_mobile": 500,
        "full_width": true,
        "mobile_overlay_under": false,
        "overlay_style": "full",
        "slide_transition": "fade",
        "slide_navigation": "arrows",
        "autoplay": true,
        "autoplay_speed": 7
      }
    },
    "a2774168-d8db-4dc4-8684-f32cc5de398b": {
      "type": "slideshow",
      "blocks": {
        "template--15810787508420__a2774168-d8db-4dc4-8684-f32cc5de398b-image-1": {
          "type": "image",
          "settings": {
            "image": "shopify:\/\/shop_images\/Artboard_6_2faa1fa0-75ee-463c-ba10-760ca53ea973.jpg",
            "mobile_image": "shopify:\/\/shop_images\/Artboard_51_f20fb253-d13a-4734-8910-ee639703f82f.jpg",
            "image_position": "center center",
            "slide_link": "",
            "subheading": "",
            "title": "",
            "title_size": 46,
            "text": "",
            "enlarge_text": false,
            "button_label": "",
            "text_alignment": "center center"
          }
        }
      },
      "block_order": [
        "template--15810787508420__a2774168-d8db-4dc4-8684-f32cc5de398b-image-1"
      ],
      "disabled": true,
      "settings": {
        "height": "adapt",
        "height_desktop": 600,
        "height_mobile": 500,
        "full_width": true,
        "mobile_overlay_under": false,
        "overlay_style": "full",
        "slide_transition": "fade",
        "slide_navigation": "arrows",
        "autoplay": true,
        "autoplay_speed": 7
      }
    },
    "f2996f56-8d7e-41d4-84e1-d50fd9e9fbd0": {
      "type": "slideshow",
      "blocks": {
        "template--15810787508420__f2996f56-8d7e-41d4-84e1-d50fd9e9fbd0-image-1": {
          "type": "image",
          "settings": {
            "image": "shopify:\/\/shop_images\/Artboard_2_3be1e30e-26e1-432e-84f8-d45108674d88.jpg",
            "mobile_image": "shopify:\/\/shop_images\/Artboard_50_d9fe917c-b9f8-4b0f-92d1-eb41a0186a8d.jpg",
            "image_position": "center center",
            "slide_link": "",
            "subheading": "",
            "title": "",
            "title_size": 46,
            "text": "",
            "enlarge_text": false,
            "button_label": "",
            "text_alignment": "center center"
          }
        }
      },
      "block_order": [
        "template--15810787508420__f2996f56-8d7e-41d4-84e1-d50fd9e9fbd0-image-1"
      ],
      "disabled": true,
      "settings": {
        "height": "adapt",
        "height_desktop": 600,
        "height_mobile": 500,
        "full_width": true,
        "mobile_overlay_under": false,
        "overlay_style": "full",
        "slide_transition": "fade",
        "slide_navigation": "arrows",
        "autoplay": true,
        "autoplay_speed": 7
      }
    },
    "f78721f3-081b-4802-a1ee-d4287462eec8": {
      "type": "slideshow",
      "blocks": {
        "template--15810787508420__f78721f3-081b-4802-a1ee-d4287462eec8-image-1": {
          "type": "image",
          "settings": {
            "image": "shopify:\/\/shop_images\/Artboard_5_e7e25d3b-9899-4da0-bdce-c967557f34e4.jpg",
            "mobile_image": "shopify:\/\/shop_images\/Artboard_55_2b99937b-7cdc-4a70-a409-3a89af60d8e1.jpg",
            "image_position": "center center",
            "slide_link": "",
            "subheading": "",
            "title": "",
            "title_size": 46,
            "text": "",
            "enlarge_text": false,
            "button_label": "",
            "text_alignment": "center center"
          }
        }
      },
      "block_order": [
        "template--15810787508420__f78721f3-081b-4802-a1ee-d4287462eec8-image-1"
      ],
      "disabled": true,
      "settings": {
        "height": "adapt",
        "height_desktop": 600,
        "height_mobile": 500,
        "full_width": true,
        "mobile_overlay_under": false,
        "overlay_style": "full",
        "slide_transition": "fade",
        "slide_navigation": "arrows",
        "autoplay": true,
        "autoplay_speed": 7
      }
    },
    "dc931bdb-19f7-48e2-989b-462d4c4ea668": {
      "type": "slideshow",
      "blocks": {
        "template--15810787508420__dc931bdb-19f7-48e2-989b-462d4c4ea668-image-1": {
          "type": "image",
          "settings": {
            "image": "shopify:\/\/shop_images\/Artboard_23_1_1.jpg",
            "mobile_image": "shopify:\/\/shop_images\/Artboard_28_8818844e-a68b-4a1e-87e5-05ab72f0b183.jpg",
            "image_position": "center center",
            "slide_link": "https:\/\/www.instagram.com\/slashopofficial\/",
            "subheading": "",
            "title": "",
            "title_size": 46,
            "text": "",
            "enlarge_text": false,
            "button_label": "",
            "text_alignment": "center center"
          }
        },
        "template--15810787508420__dc931bdb-19f7-48e2-989b-462d4c4ea668-image-2": {
          "type": "image",
          "settings": {
            "image": "shopify:\/\/shop_images\/Artboard_23_2_2.jpg",
            "mobile_image": "shopify:\/\/shop_images\/Artboard_28_2.jpg",
            "image_position": "center center",
            "slide_link": "https:\/\/www.instagram.com\/slashopofficial\/",
            "subheading": "",
            "title": "",
            "title_size": 46,
            "text": "",
            "enlarge_text": false,
            "button_label": "",
            "text_alignment": "center center"
          }
        },
        "5d865250-af84-41fd-b99a-314b940a71b3": {
          "type": "image",
          "settings": {
            "image": "shopify:\/\/shop_images\/Artboard_23_3_3.jpg",
            "mobile_image": "shopify:\/\/shop_images\/Artboard_28_3.jpg",
            "image_position": "center center",
            "slide_link": "https:\/\/www.instagram.com\/slashopofficial\/",
            "subheading": "",
            "title": "",
            "title_size": 46,
            "text": "",
            "enlarge_text": false,
            "button_label": "",
            "text_alignment": "center center"
          }
        }
      },
      "block_order": [
        "template--15810787508420__dc931bdb-19f7-48e2-989b-462d4c4ea668-image-1",
        "template--15810787508420__dc931bdb-19f7-48e2-989b-462d4c4ea668-image-2",
        "5d865250-af84-41fd-b99a-314b940a71b3"
      ],
      "settings": {
        "height": "adapt",
        "height_desktop": 600,
        "height_mobile": 500,
        "full_width": true,
        "mobile_overlay_under": false,
        "overlay_style": "full",
        "slide_transition": "fade",
        "slide_navigation": "arrows",
        "autoplay": true,
        "autoplay_speed": 2
      }
    },
    "875610f7-4d00-41ae-9775-495f6ffa7b6e": {
      "type": "gallery",
      "blocks": {
        "template--15810787508420__875610f7-4d00-41ae-9775-495f6ffa7b6e-image-1": {
          "type": "image",
          "settings": {
            "image": "shopify:\/\/shop_images\/Artboard_12_637c9f39-28b2-48ea-a1ff-b54765143814.jpg",
            "alignment": "center center",
            "enlarge_image": false,
            "subheading": "",
            "title": "",
            "button_label": "",
            "link": "shopify:\/\/pages\/rewards",
            "text_alignment": "center center"
          }
        },
        "template--15810787508420__875610f7-4d00-41ae-9775-495f6ffa7b6e-image-2": {
          "type": "image",
          "settings": {
            "image": "shopify:\/\/shop_images\/Artboard_31_b540346e-b49b-4567-b4f2-3109b61e695d.jpg",
            "alignment": "center center",
            "enlarge_image": false,
            "subheading": "",
            "title": "",
            "button_label": "",
            "link": "shopify:\/\/pages\/showroom",
            "text_alignment": "center center"
          }
        },
        "template--15810787508420__875610f7-4d00-41ae-9775-495f6ffa7b6e-image-3": {
          "type": "image",
          "settings": {
            "image": "shopify:\/\/shop_images\/Artboard_32_36fb39cd-4709-4655-968f-de4d94ee89c8.jpg",
            "alignment": "center center",
            "enlarge_image": false,
            "subheading": "",
            "title": "",
            "button_label": "",
            "link": "shopify:\/\/pages\/gift-guide",
            "text_alignment": "center center"
          }
        }
      },
      "block_order": [
        "template--15810787508420__875610f7-4d00-41ae-9775-495f6ffa7b6e-image-1",
        "template--15810787508420__875610f7-4d00-41ae-9775-495f6ffa7b6e-image-2",
        "template--15810787508420__875610f7-4d00-41ae-9775-495f6ffa7b6e-image-3"
      ],
      "disabled": true,
      "settings": {
        "grid": 3,
        "desktop_image_height": 420,
        "mobile_image_height": 400,
        "enable_margin": false,
        "full_width": true,
        "use_alt_bg": false,
        "enable_carousel": false,
        "overlay_style": "full",
        "button_style": "primary"
      }
    },
    "42b69eb0-89eb-4e19-bdad-5a3f49f892df": {
      "type": "rich-text",
      "blocks": {
        "template--15810787508420__42b69eb0-89eb-4e19-bdad-5a3f49f892df-heading-1": {
          "type": "heading",
          "settings": {
            "title": "Customer Reviews",
            "use_h1": false
          }
        }
      },
      "block_order": [
        "template--15810787508420__42b69eb0-89eb-4e19-bdad-5a3f49f892df-heading-1"
      ],
      "settings": {
        "height": "medium",
        "text_alignment": "center",
        "full_width": false,
        "use_alt_bg": false
      }
    },
    "1637660818f2c8d56c": {
      "type": "apps",
      "blocks": {
        "75b2e4c7-28db-46c0-b496-4f6be798e0bb": {
          "type": "shopify:\/\/apps\/yotpo-product-photo-reviews\/blocks\/reviews\/eb7dfd7d-db44-4334-bc49-c893b51b36cf",
          "settings": {
            "product": "{{product}}"
          }
        }
      },
      "block_order": [
        "75b2e4c7-28db-46c0-b496-4f6be798e0bb"
      ],
      "settings": {
        "full_width": false
      }
    },
    "6e215248-a661-48e5-84e0-e67cb9e17bf8": {
      "type": "slideshow",
      "blocks": {
        "template--15810787508420__6e215248-a661-48e5-84e0-e67cb9e17bf8-image-1": {
          "type": "image",
          "settings": {
            "image": "shopify:\/\/shop_images\/Artboard_4_5fdd40a9-3dc2-4db7-83e8-82a6d90dfdc3.jpg",
            "mobile_image": "shopify:\/\/shop_images\/Artboard_53_f1659a70-77c8-4429-bc34-fe4a0b19cf9a.jpg",
            "image_position": "center center",
            "slide_link": "shopify:\/\/collections\/sale",
            "subheading": "",
            "title": "",
            "title_size": 46,
            "text": "",
            "enlarge_text": false,
            "button_label": "",
            "text_alignment": "center center"
          }
        }
      },
      "block_order": [
        "template--15810787508420__6e215248-a661-48e5-84e0-e67cb9e17bf8-image-1"
      ],
      "settings": {
        "height": "adapt",
        "height_desktop": 600,
        "height_mobile": 500,
        "full_width": true,
        "mobile_overlay_under": false,
        "overlay_style": "full",
        "slide_transition": "fade",
        "slide_navigation": "arrows",
        "autoplay": true,
        "autoplay_speed": 7
      }
    }
  },
  "order": [
    "shogun-helper",
    "shogun-above",
    "main",
    "164318472923bd8e51",
    "recommendations",
    "shogun-below",
    "8521fdbd-e72a-47fb-b43c-8dc0263cb8bc",
    "008363ad-a4c4-46b6-9f91-6ea2dd24ab95",
    "949aa839-e4eb-4c55-af29-5bc281e46e05",
    "a2774168-d8db-4dc4-8684-f32cc5de398b",
    "f2996f56-8d7e-41d4-84e1-d50fd9e9fbd0",
    "f78721f3-081b-4802-a1ee-d4287462eec8",
    "dc931bdb-19f7-48e2-989b-462d4c4ea668",
    "875610f7-4d00-41ae-9775-495f6ffa7b6e",
    "42b69eb0-89eb-4e19-bdad-5a3f49f892df",
    "1637660818f2c8d56c",
    "6e215248-a661-48e5-84e0-e67cb9e17bf8"
  ]
}