{
  "sections": {
    "main": {
      "type": "main-product",
      "blocks": {
        "title": {
          "type": "title",
          "settings": {}
        },
        "price": {
          "type": "price",
          "settings": {
            "show_tax_and_shipping": false
          }
        },
        "e16eb14b-0ba9-4180-a2c8-c26223761a76": {
          "type": "variant_picker",
          "settings": {
            "show_single": false,
            "show_size_chart": true,
            "size_chart_variant": "Size Guide",
            "size_chart_page": "size-guide_vanilla-dream_infinity-set"
          }
        },
        "d711534a-1ce7-4bd9-89ba-bd6efca271ec": {
          "type": "richtext",
          "settings": {
            "richtext": "<p><strong>*Includes 1 short sleeve top and 1 shorts<\/strong><\/p>",
            "show_in_quickbuy": false
          }
        },
        "fa59d87e-585c-49f6-962a-9f0e4a4217b2": {
          "type": "richtext",
          "settings": {
            "richtext": "<p><strong>*Fast Free Delivery Site-wide<\/strong><\/p>",
            "show_in_quickbuy": false
          }
        },
        "buy_buttons": {
          "type": "buy_buttons",
          "settings": {
            "show_quantity_selector": false,
            "enable_payment_button": true,
            "show_backorder_text": false,
            "show_inventory_notice": false,
            "inventory_notice_threshold": 10,
            "show_pickup_availability": true
          }
        },
        "ab7d18e9-3aa7-476f-9ca2-a91c61e2a916": {
          "type": "richtext",
          "settings": {
            "richtext": "",
            "show_in_quickbuy": false
          }
        },
        "030b31b0-dc19-48de-a6b7-fc930a945e63": {
          "type": "accordion",
          "settings": {
            "title": "DESCRIPTION",
            "content": "<p>As a mixed child of innovation and essential design, our loungewear has sufficiently proven the possibility of putting functionalities on top of artistry.<\/p>",
            "page": "",
            "open": false,
            "show_in_quickbuy": false
          }
        },
        "572270c6-2676-4c39-a468-53536a802d56": {
          "type": "accordion",
          "settings": {
            "title": "PRODUCT CARE",
            "content": "<p><strong>We recommend you to follow these tips:<\/strong><br\/>Netural Detergent <br\/>Machine Wash Cold <br\/>Do Not Bleach <br\/>Machine Dry Low Heat <br\/>Max Temp 110°C or 230°F<br\/><\/p>",
            "page": "",
            "open": false,
            "show_in_quickbuy": false
          }
        },
        "23c9a8d7-9888-4e4f-8842-17e80ae81f56": {
          "type": "accordion",
          "settings": {
            "title": "DETAILS",
            "content": "<p><strong>Hybrid Fabric<\/strong><\/p><p>Our innovative fabric from world-class textile labs allows you to embrace the experience of home clothing. Now, say goodbye to friction and static once and for all.<\/p><p><strong>Pet friendly<\/strong><\/p><p>Pets are also part of the family, that's why we make sure our loungewear is not just anti-bacteria, but pet hair and snag resistant.<\/p><p><strong>Machine-Washable<\/strong><\/p><p>Our products are made with extreme detail and craftsmanship. Although they can endure tough situations, we do recommend you to follow the tips above to maximize their potential.<\/p><p><strong>Sustainability<\/strong><\/p><p>We make sure all of our materials are natural and biodegradable and also eliminate all the chemical reactions during manufacturing.<\/p>",
            "page": "",
            "open": false,
            "show_in_quickbuy": false
          }
        }
      },
      "block_order": [
        "title",
        "price",
        "e16eb14b-0ba9-4180-a2c8-c26223761a76",
        "d711534a-1ce7-4bd9-89ba-bd6efca271ec",
        "fa59d87e-585c-49f6-962a-9f0e4a4217b2",
        "buy_buttons",
        "ab7d18e9-3aa7-476f-9ca2-a91c61e2a916",
        "030b31b0-dc19-48de-a6b7-fc930a945e63",
        "572270c6-2676-4c39-a468-53536a802d56",
        "23c9a8d7-9888-4e4f-8842-17e80ae81f56"
      ],
      "settings": {
        "show_breadcrumbs": false,
        "show_location_underneath": false,
        "inventory_transfers_enable": false,
        "gallery_size": "large",
        "prod_gall_thumbs_under": "under",
        "enable_sticky_gallery": true,
        "enable_zoom": true,
        "enable_video_looping": true
      }
    },
    "1649947048eaf7e450": {
      "type": "background-video",
      "settings": {
        "video": "https:\/\/www.youtube.com\/watch?v=FjNx0CEVRsk",
        "placeholder_image": "shopify:\/\/shop_images\/Untitled-2_4d74b7f7-69cc-456f-84f1-2a3fb9ac281d.jpg",
        "subheading": "",
        "title": "",
        "title_size": 34,
        "use_h1": false,
        "text": "",
        "enlarge_text": false,
        "button_label": "",
        "button_link": "",
        "text_alignment": "center center",
        "height_desktop": 1000,
        "height_mobile": 500,
        "full_width": true,
        "overlay_style": "full"
      }
    },
    "16499471369440bd83": {
      "type": "collection-list",
      "blocks": {
        "e08e4ca4-6057-4135-89ba-cbcd75622c97": {
          "type": "collection",
          "settings": {
            "collection": "silver-veil-set",
            "image": "shopify:\/\/shop_images\/Full-side_85a8661a-aa05-491f-9e30-e7d031a2937e.jpg"
          }
        },
        "fe3acfcb-370e-4656-b143-e0ee7be0ca9f": {
          "type": "collection",
          "settings": {
            "collection": "starry-night-set",
            "image": "shopify:\/\/shop_images\/full_a555c582-ef43-4271-9415-c554df6f44fd.jpg"
          }
        },
        "66b7566a-5717-4acc-bff4-045b0993715d": {
          "type": "collection",
          "settings": {
            "collection": "milky-white-set",
            "image": "shopify:\/\/shop_images\/full-front.jpg"
          }
        },
        "e0448535-abde-4bdf-bd8e-cf1f030c4006": {
          "type": "collection",
          "settings": {
            "collection": "contemplating-blue",
            "image": "shopify:\/\/shop_images\/ide_2fe69e21-43ae-497f-b162-91109ab34b1b.jpg"
          }
        },
        "189856bb-f25a-4218-8a0a-b9669088e41f": {
          "type": "collection",
          "settings": {
            "collection": "vanilla-dream-set",
            "image": "shopify:\/\/shop_images\/full-angled_e4250a7e-640f-4bc0-a4b2-f3a1fb5556d4.jpg"
          }
        }
      },
      "block_order": [
        "e08e4ca4-6057-4135-89ba-cbcd75622c97",
        "fe3acfcb-370e-4656-b143-e0ee7be0ca9f",
        "66b7566a-5717-4acc-bff4-045b0993715d",
        "e0448535-abde-4bdf-bd8e-cf1f030c4006",
        "189856bb-f25a-4218-8a0a-b9669088e41f"
      ],
      "settings": {
        "title": "Discover collection",
        "enable_carousel": true,
        "grid": 3,
        "use_alt_bg": true,
        "full_width": true
      }
    },
    "recommendations": {
      "type": "product-recommendations",
      "disabled": true,
      "settings": {
        "title": "Related products",
        "show_vendor": false,
        "grid": 2
      }
    },
    "1637660518324c9917": {
      "type": "apps",
      "settings": {
        "full_width": false
      }
    }
  },
  "order": [
    "main",
    "1649947048eaf7e450",
    "16499471369440bd83",
    "recommendations",
    "1637660518324c9917"
  ]
}