{
  "sections": {
    "shogun-helper": {
      "type": "shogun-helper",
      "settings": {}
    },
    "shogun-above": {
      "type": "shogun-above",
      "settings": {}
    },
    "main": {
      "type": "main-product",
      "blocks": {
        "title": {
          "type": "title",
          "settings": {}
        },
        "37a39f61-502f-4842-a4f7-4c0db20180c9": {
          "type": "shopify:\/\/apps\/yotpo-product-photo-reviews\/blocks\/star-rating\/eb7dfd7d-db44-4334-bc49-c893b51b36cf",
          "settings": {
            "product": "{{product}}"
          }
        },
        "price": {
          "type": "price",
          "settings": {
            "show_tax_and_shipping": false
          }
        },
        "e16eb14b-0ba9-4180-a2c8-c26223761a76": {
          "type": "variant_picker",
          "settings": {
            "show_single": false,
            "show_size_chart": true,
            "size_chart_variant": "Size Guide",
            "size_chart_page": "size-guide-bedding"
          }
        },
        "ac0a749b-2635-47e0-ab6b-7dd32ca0f965": {
          "type": "richtext",
          "settings": {
            "richtext": "<p><strong>Includes 1 duvet cover and 2 pillowcases.<\/strong><\/p>",
            "show_in_quickbuy": false
          }
        },
        "8cac9a0e-cf89-450e-aa69-66d0014f9163": {
          "type": "richtext",
          "settings": {
            "richtext": "<p><strong>Free delivery on orders over $100.<\/strong><\/p>",
            "show_in_quickbuy": false
          }
        },
        "buy_buttons": {
          "type": "buy_buttons",
          "settings": {
            "show_quantity_selector": false,
            "enable_payment_button": false,
            "show_backorder_text": false,
            "show_inventory_notice": false,
            "inventory_notice_threshold": 100,
            "show_pickup_availability": true
          }
        },
        "23c9a8d7-9888-4e4f-8842-17e80ae81f56": {
          "type": "accordion",
          "settings": {
            "title": "DETAILS",
            "content": "<p><strong>Pet Hair Repellent<\/strong><\/p><p>Our innovative materials fend off fur, dander, and dust, making it easy and efficient to keep your bedding clean. Perfect for families with pets and\/or small children.<\/p><p><strong>Temperature Regulation for Every Season<\/strong><\/p><p>The set is designed to provide a comfortable sleeping experience all year round by keeping you cool in the summer and warm in the winter. The natural properties of bamboo make it an excellent material for bedding, as it wicks away moisture and allows for better airflow than traditional cotton sheets.<\/p><p><strong>Antistatic<\/strong><\/p><p>Our antistatic finish is highly effective in repelling pet hair, fine dust, and dander. Additionally, it provides protection against unnecessary static friction and damage to your hair and skin.<\/p><p><strong>Antibacterial & Hypoallergenic<\/strong><\/p><p>Ideal for sensitive skin, bamboo materials are hypoallergenic, free from harmful chemicals, and naturally resistant to bacteria.<\/p><p><strong>*Suitable for cold sleepers, hot sleepers, pet owners, people with allergies<\/strong><\/p><p><strong>Note: <\/strong>The duvet cover designed to protect your existing duvet or comforter. It does not come with any filling or comforter included.<\/p>",
            "page": "",
            "open": true,
            "show_in_quickbuy": false
          }
        },
        "7cb7836f-3f10-441d-971d-30c37f7045bd": {
          "type": "accordion",
          "settings": {
            "title": "FABRIC",
            "content": "<p>60% viscose from bamboo + 40% cotton<\/p>",
            "page": "",
            "open": false,
            "show_in_quickbuy": false
          }
        },
        "572270c6-2676-4c39-a468-53536a802d56": {
          "type": "accordion",
          "settings": {
            "title": "CARE",
            "content": "<p><strong>Keep your bamboo sheets fresh with these care tips.<\/strong><\/p><p>Neutral Detergent<br\/>Machine Wash Cold <br\/>Do Not Bleach <br\/>Machine Dry Low Heat<br\/>Max Temp 110°C or 230°F<br\/><\/p><p>For additional questions, please contact us.<\/p>",
            "page": "",
            "open": false,
            "show_in_quickbuy": false
          }
        },
        "b17ea531-cdc9-41b5-83ba-82d7c5700d27": {
          "type": "image",
          "disabled": true,
          "settings": {
            "image_width": 700,
            "url": "",
            "show_in_quickbuy": false
          }
        }
      },
      "block_order": [
        "title",
        "37a39f61-502f-4842-a4f7-4c0db20180c9",
        "price",
        "e16eb14b-0ba9-4180-a2c8-c26223761a76",
        "ac0a749b-2635-47e0-ab6b-7dd32ca0f965",
        "8cac9a0e-cf89-450e-aa69-66d0014f9163",
        "buy_buttons",
        "23c9a8d7-9888-4e4f-8842-17e80ae81f56",
        "7cb7836f-3f10-441d-971d-30c37f7045bd",
        "572270c6-2676-4c39-a468-53536a802d56",
        "b17ea531-cdc9-41b5-83ba-82d7c5700d27"
      ],
      "settings": {
        "show_breadcrumbs": false,
        "show_location_underneath": false,
        "inventory_transfers_enable": false,
        "gallery_size": "large",
        "prod_gall_thumbs_under": "under",
        "enable_sticky_gallery": true,
        "enable_zoom": true,
        "enable_video_looping": true
      }
    },
    "164318472923bd8e51": {
      "type": "featured-collection",
      "settings": {
        "title": "You Might Also Like...",
        "collection": "bamboo-cotton-bedding",
        "show_vendor": false,
        "enable_carousel": false,
        "grid": 4,
        "rows": 4,
        "use_alt_bg": false,
        "show_view_all": false,
        "full_width": true
      }
    },
    "029a38f6-9c76-4504-bbcb-fdebf08a697f": {
      "type": "slideshow",
      "blocks": {
        "template--15732094304452__029a38f6-9c76-4504-bbcb-fdebf08a697f-166618015425c16d35-0": {
          "type": "image",
          "settings": {
            "image": "shopify:\/\/shop_images\/brand_intro_2_71449a2a-2862-4163-86a2-6ed1ffc5c98f.png",
            "mobile_image": "shopify:\/\/shop_images\/banner_6_b8549a8c-0f98-4d6e-93d0-849730885c31.png",
            "image_position": "center center",
            "slide_link": "",
            "subheading": "",
            "title": "What bedding is best for people with dogs and cats? \nslashop",
            "title_size": 38,
            "text": "",
            "enlarge_text": false,
            "button_label": "",
            "text_alignment": "center center"
          }
        },
        "template--15732094304452__029a38f6-9c76-4504-bbcb-fdebf08a697f-166618015425c16d35-1": {
          "type": "image",
          "settings": {
            "image": "shopify:\/\/shop_images\/brand-intro-1_0665f17b-889b-4e44-8103-13400a9a27f3.jpg",
            "mobile_image": "shopify:\/\/shop_images\/banner_4_ff2e72c4-2d12-44cd-b8ee-95dd97820475.jpg",
            "image_position": "center center",
            "slide_link": "",
            "subheading": "",
            "title": "We redesign all textile essentials to meet the pet family’s needs, with the environment in mind",
            "title_size": 38,
            "text": "",
            "enlarge_text": false,
            "button_label": "",
            "text_alignment": "center center"
          }
        },
        "4c0ae1c8-6736-462d-b9f3-e93bd0c21f17": {
          "type": "image",
          "settings": {
            "image": "shopify:\/\/shop_images\/banner_3_a4e98c87-512c-4a4d-8697-a2f799ef8832.png",
            "mobile_image": "shopify:\/\/shop_images\/banner_5_f9f74646-a40b-4cbc-a7e0-43bd68acbe05.jpg",
            "image_position": "center center",
            "slide_link": "",
            "subheading": "",
            "title": "Welcome furry friends to your life, easy and free",
            "title_size": 38,
            "text": "",
            "enlarge_text": false,
            "button_label": "",
            "text_alignment": "center center"
          }
        }
      },
      "block_order": [
        "template--15732094304452__029a38f6-9c76-4504-bbcb-fdebf08a697f-166618015425c16d35-0",
        "template--15732094304452__029a38f6-9c76-4504-bbcb-fdebf08a697f-166618015425c16d35-1",
        "4c0ae1c8-6736-462d-b9f3-e93bd0c21f17"
      ],
      "disabled": true,
      "settings": {
        "height": "fixed",
        "height_desktop": 640,
        "height_mobile": 520,
        "full_width": true,
        "mobile_overlay_under": false,
        "overlay_style": "full",
        "slide_transition": "fade",
        "slide_navigation": "arrows",
        "autoplay": true,
        "autoplay_speed": 3
      }
    },
    "81279a65-46b8-4c14-a2e1-db61c7323019": {
      "type": "rich-text",
      "blocks": {
        "template--15732094304452__81279a65-46b8-4c14-a2e1-db61c7323019-1666180466dc438bff-0": {
          "type": "subheading",
          "settings": {
            "subheading": ""
          }
        },
        "template--15732094304452__81279a65-46b8-4c14-a2e1-db61c7323019-1666180466dc438bff-1": {
          "type": "heading",
          "settings": {
            "title": "Why Bamboo Cotton?",
            "use_h1": false
          }
        },
        "template--15732094304452__81279a65-46b8-4c14-a2e1-db61c7323019-1666180466dc438bff-2": {
          "type": "text",
          "settings": {
            "text": "<p>Learn about Bamboo Cotton properties<\/p>",
            "enlarge_text": false
          }
        }
      },
      "block_order": [
        "template--15732094304452__81279a65-46b8-4c14-a2e1-db61c7323019-1666180466dc438bff-0",
        "template--15732094304452__81279a65-46b8-4c14-a2e1-db61c7323019-1666180466dc438bff-1",
        "template--15732094304452__81279a65-46b8-4c14-a2e1-db61c7323019-1666180466dc438bff-2"
      ],
      "disabled": true,
      "settings": {
        "height": "medium",
        "text_alignment": "center",
        "full_width": false,
        "use_alt_bg": false
      }
    },
    "1638940697011c8bb5": {
      "type": "custom-row",
      "blocks": {
        "1638940697994455c0-0": {
          "type": "image",
          "settings": {
            "width": "third",
            "image": "shopify:\/\/shop_images\/selling_point_1.png",
            "image_position": "center center",
            "height": "fixed",
            "height_desktop": 480,
            "height_mobile": 360,
            "subheading": "",
            "title": "",
            "text": "",
            "enlarge_text": false,
            "button_label": "",
            "image_link": "",
            "text_alignment": "center center",
            "mobile_overlay_under": false,
            "overlay_style": "no_background"
          }
        },
        "1638940697994455c0-1": {
          "type": "text",
          "settings": {
            "width": "half",
            "subheading": "",
            "title": "Scratch-resistant",
            "text": "<p><strong>Perfect for families with dogs and cats<\/strong><\/p><p>High density bamboo cotton bedding improves toughness for snag-free performance; no more claw scratches and holes in your bed.<\/p>",
            "button_label": "",
            "button_link": "",
            "button_style": "primary",
            "text_alignment": "left"
          }
        }
      },
      "block_order": [
        "1638940697994455c0-0",
        "1638940697994455c0-1"
      ],
      "disabled": true,
      "settings": {
        "alignment": "middle",
        "class_name": "custom-row"
      }
    },
    "163894072740ffbfce": {
      "type": "custom-row",
      "blocks": {
        "163894072768ad7053-0": {
          "type": "image",
          "settings": {
            "width": "third",
            "image": "shopify:\/\/shop_images\/fur-resistant_95460dd6-de96-4323-8cee-9f94c19e5756.png",
            "image_position": "center center",
            "height": "fixed",
            "height_desktop": 480,
            "height_mobile": 360,
            "subheading": "",
            "title": "",
            "text": "",
            "enlarge_text": false,
            "button_label": "",
            "image_link": "",
            "text_alignment": "center center",
            "mobile_overlay_under": false,
            "overlay_style": "full"
          }
        },
        "163894072768ad7053-1": {
          "type": "text",
          "settings": {
            "width": "half",
            "subheading": "",
            "title": "Anti-odor and Anti-bacterial",
            "text": "<p><strong>Enjoy sleeping with your furry mate<\/strong><\/p><p>Bamboo naturally contains anti-bacterial substance \"bamboo quinone\" which makes it anti-odor and anti-microbial. Enjoy sleeping with your furry friends.<\/p>",
            "button_label": "",
            "button_link": "",
            "button_style": "primary",
            "text_alignment": "left"
          }
        }
      },
      "block_order": [
        "163894072768ad7053-0",
        "163894072768ad7053-1"
      ],
      "disabled": true,
      "settings": {
        "alignment": "middle",
        "class_name": "custom-row"
      }
    },
    "1638941065e1970d95": {
      "type": "custom-row",
      "blocks": {
        "16389410655a411aaf-0": {
          "type": "image",
          "settings": {
            "width": "third",
            "image": "shopify:\/\/shop_images\/anti_bacterial_copy_506d3708-153a-42d5-8fd0-050a79a06d8c.png",
            "image_position": "center center",
            "height": "fixed",
            "height_desktop": 480,
            "height_mobile": 360,
            "subheading": "",
            "title": "",
            "text": "",
            "enlarge_text": false,
            "button_label": "",
            "image_link": "",
            "text_alignment": "bottom left",
            "mobile_overlay_under": false,
            "overlay_style": "full"
          }
        },
        "16389410655a411aaf-1": {
          "type": "text",
          "settings": {
            "width": "half",
            "subheading": "",
            "title": "Ideal for cold sleepers + hot sleepers",
            "text": "<p><strong>Regulates body temperature<\/strong><\/p><p>Body temperature-regulating slashop innovative bamboo cotton fabric absorbs and distributes excess body heat —cooling you when you're hot, and warming you when you're cold.<\/p>",
            "button_label": "",
            "button_link": "",
            "button_style": "primary",
            "text_alignment": "left"
          }
        }
      },
      "block_order": [
        "16389410655a411aaf-0",
        "16389410655a411aaf-1"
      ],
      "disabled": true,
      "settings": {
        "alignment": "middle",
        "class_name": "custom-row"
      }
    },
    "2543437e-2b6f-4def-8c09-00c5078266f5": {
      "type": "slideshow",
      "blocks": {
        "template--15732094304452__2543437e-2b6f-4def-8c09-00c5078266f5-16661810438a6fc99a-0": {
          "type": "image",
          "settings": {
            "image": "shopify:\/\/shop_images\/comparison.png",
            "mobile_image": "shopify:\/\/shop_images\/bamboo_cotton_update_a04fc060-b2da-4c35-b63e-3bede995866b.png",
            "image_position": "center center",
            "slide_link": "",
            "subheading": "",
            "title": "",
            "title_size": 46,
            "text": "",
            "enlarge_text": true,
            "button_label": "",
            "text_alignment": "center center"
          }
        }
      },
      "block_order": [
        "template--15732094304452__2543437e-2b6f-4def-8c09-00c5078266f5-16661810438a6fc99a-0"
      ],
      "disabled": true,
      "settings": {
        "height": "fixed",
        "height_desktop": 400,
        "height_mobile": 540,
        "full_width": false,
        "mobile_overlay_under": false,
        "overlay_style": "full",
        "slide_transition": "fade",
        "slide_navigation": "arrows",
        "autoplay": true,
        "autoplay_speed": 1
      }
    },
    "8a838038-bb86-4f9d-a9cc-2a8049d6ad70": {
      "type": "rich-text",
      "blocks": {
        "template--15732094304452__8a838038-bb86-4f9d-a9cc-2a8049d6ad70-166618130604d9aca8-0": {
          "type": "subheading",
          "settings": {
            "subheading": ""
          }
        },
        "template--15732094304452__8a838038-bb86-4f9d-a9cc-2a8049d6ad70-166618130604d9aca8-1": {
          "type": "heading",
          "settings": {
            "title": "Furry friends approved",
            "use_h1": false
          }
        },
        "template--15732094304452__8a838038-bb86-4f9d-a9cc-2a8049d6ad70-166618130604d9aca8-2": {
          "type": "text",
          "settings": {
            "text": "<p>Follow @slashopofficial to find more<\/p>",
            "enlarge_text": false
          }
        }
      },
      "block_order": [
        "template--15732094304452__8a838038-bb86-4f9d-a9cc-2a8049d6ad70-166618130604d9aca8-0",
        "template--15732094304452__8a838038-bb86-4f9d-a9cc-2a8049d6ad70-166618130604d9aca8-1",
        "template--15732094304452__8a838038-bb86-4f9d-a9cc-2a8049d6ad70-166618130604d9aca8-2"
      ],
      "settings": {
        "height": "medium",
        "text_alignment": "center",
        "full_width": false,
        "use_alt_bg": false
      }
    },
    "506f3c6f-9bc8-4914-a086-60f4d9494c58": {
      "type": "gallery",
      "blocks": {
        "template--15732094304452__506f3c6f-9bc8-4914-a086-60f4d9494c58-16661813575f66cca4-0": {
          "type": "image",
          "settings": {
            "image": "shopify:\/\/shop_images\/KOL_review_2_7eb7914a-4702-4ff9-8151-1af27d1f8e13.png",
            "alignment": "center center",
            "enlarge_image": false,
            "subheading": "",
            "title": "",
            "button_label": "",
            "link": "",
            "text_alignment": "center center"
          }
        },
        "template--15732094304452__506f3c6f-9bc8-4914-a086-60f4d9494c58-16661813575f66cca4-1": {
          "type": "image",
          "settings": {
            "image": "shopify:\/\/shop_images\/kol_reviews_3.png",
            "alignment": "center center",
            "enlarge_image": false,
            "subheading": "",
            "title": "",
            "button_label": "",
            "link": "",
            "text_alignment": "center center"
          }
        },
        "template--15732094304452__506f3c6f-9bc8-4914-a086-60f4d9494c58-16661813575f66cca4-2": {
          "type": "image",
          "settings": {
            "image": "shopify:\/\/shop_images\/Kol_review_1_4962ff73-ae4a-4b5c-90db-81979faecb29.png",
            "alignment": "center center",
            "enlarge_image": false,
            "subheading": "",
            "title": "",
            "button_label": "",
            "link": "",
            "text_alignment": "center center"
          }
        }
      },
      "block_order": [
        "template--15732094304452__506f3c6f-9bc8-4914-a086-60f4d9494c58-16661813575f66cca4-0",
        "template--15732094304452__506f3c6f-9bc8-4914-a086-60f4d9494c58-16661813575f66cca4-1",
        "template--15732094304452__506f3c6f-9bc8-4914-a086-60f4d9494c58-16661813575f66cca4-2"
      ],
      "settings": {
        "grid": 3,
        "desktop_image_height": 400,
        "mobile_image_height": 400,
        "enable_margin": true,
        "full_width": false,
        "use_alt_bg": false,
        "enable_carousel": true,
        "overlay_style": "full",
        "button_style": "primary"
      }
    },
    "recommendations": {
      "type": "product-recommendations",
      "disabled": true,
      "settings": {
        "title": "Related products",
        "show_vendor": false,
        "grid": 4
      }
    },
    "1641899986c3ca8597": {
      "type": "text-columns-with-images",
      "blocks": {
        "16418999869057970b-0": {
          "type": "text_block",
          "settings": {
            "enable_image": true,
            "image": "shopify:\/\/shop_images\/bamboo_b_e6f07c01-6852-4c91-ae87-e8676b04b648.png",
            "image_width": 700,
            "title": "Eucalyptus",
            "text": "<p>Biobased material, water-saving,   biodegradable.<\/p>",
            "button_label": "Learn more",
            "link": "shopify:\/\/pages\/eucalyptus"
          }
        },
        "16418999869057970b-1": {
          "type": "text_block",
          "settings": {
            "enable_image": true,
            "image": "shopify:\/\/shop_images\/bamboo_bb.png",
            "image_width": 700,
            "title": "Bamboo",
            "text": "<p>Regenerative, water + energy-efficient, bio circular.<\/p>",
            "button_label": "Learn more",
            "link": "shopify:\/\/pages\/bamboo"
          }
        },
        "16418999869057970b-2": {
          "type": "text_block",
          "settings": {
            "enable_image": true,
            "image": "shopify:\/\/shop_images\/sustainability_round_8_99bd24e4-2ebe-471a-8f84-0d56f7dff19b.png",
            "image_width": 700,
            "title": "Aerogel",
            "text": "<p>Developed by NASA, let science keep you warm.<\/p>",
            "button_label": "Learn more",
            "link": "shopify:\/\/pages\/aerogel"
          }
        }
      },
      "block_order": [
        "16418999869057970b-0",
        "16418999869057970b-1",
        "16418999869057970b-2"
      ],
      "disabled": true,
      "settings": {
        "title": "Our responsible materials",
        "text_alignment": "center",
        "button_style": "link",
        "use_alt_bg": false
      }
    },
    "16656362963da72cd4": {
      "type": "apps",
      "blocks": {
        "0ff02406-71f1-4fb7-8004-0f3c7c3886c8": {
          "type": "shopify:\/\/apps\/yotpo-product-photo-reviews\/blocks\/reviews\/eb7dfd7d-db44-4334-bc49-c893b51b36cf",
          "settings": {
            "product": "{{product}}"
          }
        }
      },
      "block_order": [
        "0ff02406-71f1-4fb7-8004-0f3c7c3886c8"
      ],
      "settings": {
        "full_width": false
      }
    },
    "1637660818f2c8d56c": {
      "type": "apps",
      "disabled": true,
      "settings": {
        "full_width": false
      }
    },
    "shogun-below": {
      "type": "shogun-below",
      "settings": {}
    },
    "16433551324dca06ee": {
      "type": "logo-list",
      "blocks": {
        "6207d941-fdb6-49f0-9e98-0125880c5565": {
          "type": "logo",
          "settings": {
            "image": "shopify:\/\/shop_images\/fo__round.png",
            "image_width": 160,
            "link": "",
            "title": "Forest Stewardship Council"
          }
        },
        "0f88bd70-5b81-47d8-8564-a8950f2dccad": {
          "type": "logo",
          "disabled": true,
          "settings": {
            "image": "shopify:\/\/shop_images\/forest__round.png",
            "image_width": 160,
            "link": "shopify:\/\/pages\/certifications",
            "title": "Organic Content Standard"
          }
        },
        "aa4c67e9-98c7-4025-8948-1aeab2267bb3": {
          "type": "logo",
          "settings": {
            "image": "shopify:\/\/shop_images\/oeko__round_45db7309-ad8d-4830-a266-3f3e4446e798.png",
            "image_width": 280,
            "link": "",
            "title": "Standard 100 by OEKO-TEX"
          }
        }
      },
      "block_order": [
        "6207d941-fdb6-49f0-9e98-0125880c5565",
        "0f88bd70-5b81-47d8-8564-a8950f2dccad",
        "aa4c67e9-98c7-4025-8948-1aeab2267bb3"
      ],
      "settings": {
        "title": "Certified by",
        "image_opacity": 100,
        "use_alt_bg": false
      }
    },
    "d2a5a1ed-5404-43de-98a6-f42bab81bfcb": {
      "type": "image-with-text-overlay",
      "settings": {
        "image": "shopify:\/\/shop_images\/sale.png",
        "image_position": "center center",
        "height": "fixed",
        "height_desktop": 440,
        "height_mobile": 220,
        "subheading": "",
        "title": "Last Call Sale",
        "title_size": 46,
        "use_h1": false,
        "text": "",
        "enlarge_text": false,
        "button_label": "Shop now",
        "image_link": "shopify:\/\/collections\/sale",
        "text_alignment": "center center",
        "full_width": true,
        "mobile_overlay_under": false,
        "overlay_style": "full"
      }
    }
  },
  "order": [
    "shogun-helper",
    "shogun-above",
    "main",
    "164318472923bd8e51",
    "029a38f6-9c76-4504-bbcb-fdebf08a697f",
    "81279a65-46b8-4c14-a2e1-db61c7323019",
    "1638940697011c8bb5",
    "163894072740ffbfce",
    "1638941065e1970d95",
    "2543437e-2b6f-4def-8c09-00c5078266f5",
    "8a838038-bb86-4f9d-a9cc-2a8049d6ad70",
    "506f3c6f-9bc8-4914-a086-60f4d9494c58",
    "recommendations",
    "1641899986c3ca8597",
    "16656362963da72cd4",
    "1637660818f2c8d56c",
    "shogun-below",
    "16433551324dca06ee",
    "d2a5a1ed-5404-43de-98a6-f42bab81bfcb"
  ]
}