{
  "sections": {
    "main": {
      "type": "main-product",
      "blocks": {
        "title": {
          "type": "title",
          "settings": {}
        },
        "price": {
          "type": "price",
          "settings": {
            "show_tax_and_shipping": false
          }
        },
        "e16eb14b-0ba9-4180-a2c8-c26223761a76": {
          "type": "variant_picker",
          "settings": {
            "show_single": false,
            "show_size_chart": true,
            "size_chart_variant": "Size Guide",
            "size_chart_page": "size-guide-loungewear"
          }
        },
        "e4311f76-af83-42ca-85f5-2831b6a75034": {
          "type": "richtext",
          "settings": {
            "richtext": "<p><strong>Free delivery on orders over $100.<\/strong><\/p>",
            "show_in_quickbuy": false
          }
        },
        "buy_buttons": {
          "type": "buy_buttons",
          "settings": {
            "show_quantity_selector": false,
            "enable_payment_button": true,
            "show_backorder_text": false,
            "show_inventory_notice": false,
            "inventory_notice_threshold": 10,
            "show_pickup_availability": true
          }
        },
        "994447e9-3922-4951-95dd-6b7e134286de": {
          "type": "richtext",
          "settings": {
            "richtext": "",
            "show_in_quickbuy": false
          }
        },
        "030b31b0-dc19-48de-a6b7-fc930a945e63": {
          "type": "accordion",
          "settings": {
            "title": "DETAILS",
            "content": "<p><strong>Adjustable straps and waistband for a custom fit<\/strong><\/p><p>Our camisole set features a fluid and substantial drape, powder-luxe feel, sophisticated square neckline, and sexy low-cut back with adjustable straps. <\/p><p><strong>Suitable for a variety of occasions<\/strong><\/p><p>Sleep in before your morning Zoom, toss a blazer on top, and show up sophisticated (and well rested) for work!<\/p><p><strong>Moisture-wicking, and quick-drying <\/strong><\/p><p>It's cooling, moisture-wicking and quick to dry — ready to regulate your temperature in any climate.<\/p><p><strong>Hypoallergenic and ultra soft for even the most sensitive skin <\/strong><\/p><p>Brilliant breathability, and second-skin softness — perfect for even the most sensitive of skin.<strong><br\/><\/strong><\/p>",
            "page": "",
            "open": false,
            "show_in_quickbuy": false
          }
        },
        "e6e00af3-73f3-4b24-9ffd-9c6239f0b70a": {
          "type": "accordion",
          "disabled": true,
          "settings": {
            "title": "SIZE TO FIT",
            "content": "<p>The top is designed to be oversized. Shorts are designed for an easy and relaxed fit.<\/p>",
            "page": "",
            "open": false,
            "show_in_quickbuy": false
          }
        },
        "6992ed0b-4b88-440e-aac3-260c5784dc8f": {
          "type": "accordion",
          "settings": {
            "title": "FABRIC",
            "content": "<p><strong>100% Eucalyptus Tencel<\/strong><\/p><p>Powdery soft, free-flowing, and substantial to the touch — this highly durable fabric is similar to mulberry silk in touch, luster, and performance.<\/p><p>It boasts a figure flattering drape, just the right amount of stretch, brilliant breathability, and second-skin softness — perfect for even the most sensitive of skin.<\/p><p>It's cooling, moisture-wicking and quick to dry — ready to regulate your temperature in any climate.<\/p><p>Our fibers are antibacterial, antimicrobial, and hypoallergenic, while our weave repels static dirt, dust, hair and fur and resists tugs, snags, and tears — making it family and pet friendly.<\/p>",
            "page": "",
            "open": false,
            "show_in_quickbuy": false
          }
        },
        "b893d9dd-4c7d-4ef1-b4a1-3589268a2424": {
          "type": "accordion",
          "settings": {
            "title": "FIT & SIZE",
            "content": "<p>Model is 5'10 wearing size M<\/p>",
            "page": "",
            "open": false,
            "show_in_quickbuy": false
          }
        },
        "572270c6-2676-4c39-a468-53536a802d56": {
          "type": "accordion",
          "settings": {
            "title": "CARE",
            "content": "<p>It couldn't be easier or more efficient to care for: our quick dry technology makes laundry futuristically fast. And unlike other fabrics that break down over wash and wear cycles, ours gets even softer and more comfortable over time.<\/p><p><strong>We recommend you to follow these tips:<\/strong><br\/>Netural Detergent <br\/>Machine Wash Cold <br\/>Do Not Bleach <br\/>Machine Dry Low Heat <br\/>Max Temp 110°C or 230°F<\/p>",
            "page": "",
            "open": false,
            "show_in_quickbuy": false
          }
        },
        "9ab8ce30-aaf6-487c-b25b-eb1f2df0d6fb": {
          "type": "sharing",
          "settings": {
            "show_in_quickbuy": false
          }
        }
      },
      "block_order": [
        "title",
        "price",
        "e16eb14b-0ba9-4180-a2c8-c26223761a76",
        "e4311f76-af83-42ca-85f5-2831b6a75034",
        "buy_buttons",
        "994447e9-3922-4951-95dd-6b7e134286de",
        "030b31b0-dc19-48de-a6b7-fc930a945e63",
        "e6e00af3-73f3-4b24-9ffd-9c6239f0b70a",
        "6992ed0b-4b88-440e-aac3-260c5784dc8f",
        "b893d9dd-4c7d-4ef1-b4a1-3589268a2424",
        "572270c6-2676-4c39-a468-53536a802d56",
        "9ab8ce30-aaf6-487c-b25b-eb1f2df0d6fb"
      ],
      "settings": {
        "show_breadcrumbs": false,
        "show_location_underneath": false,
        "inventory_transfers_enable": false,
        "gallery_size": "large",
        "prod_gall_thumbs_under": "under",
        "enable_sticky_gallery": true,
        "enable_zoom": true,
        "enable_video_looping": true
      }
    },
    "1649947048eaf7e450": {
      "type": "background-video",
      "settings": {
        "video": "https:\/\/www.youtube.com\/watch?v=MV7ewcqftng",
        "placeholder_image": "shopify:\/\/shop_images\/Untitled-1_0ad4ce9a-416e-46e9-97b2-5c2e988cab0e.jpg",
        "subheading": "",
        "title": "",
        "title_size": 34,
        "use_h1": false,
        "text": "",
        "enlarge_text": false,
        "button_label": "",
        "button_link": "",
        "text_alignment": "center center",
        "height_desktop": 1000,
        "height_mobile": 500,
        "full_width": true,
        "overlay_style": "no_background"
      }
    },
    "16499471369440bd83": {
      "type": "collection-list",
      "blocks": {
        "fe3acfcb-370e-4656-b143-e0ee7be0ca9f": {
          "type": "collection",
          "settings": {
            "collection": "starry-night-set",
            "image": "shopify:\/\/shop_images\/full_a555c582-ef43-4271-9415-c554df6f44fd.jpg"
          }
        },
        "189856bb-f25a-4218-8a0a-b9669088e41f": {
          "type": "collection",
          "settings": {
            "collection": "vanilla-dream-set",
            "image": "shopify:\/\/shop_images\/full-angled_e4250a7e-640f-4bc0-a4b2-f3a1fb5556d4.jpg"
          }
        },
        "66b7566a-5717-4acc-bff4-045b0993715d": {
          "type": "collection",
          "settings": {
            "collection": "milky-white-set",
            "image": "shopify:\/\/shop_images\/full-front.jpg"
          }
        },
        "e0448535-abde-4bdf-bd8e-cf1f030c4006": {
          "type": "collection",
          "settings": {
            "collection": "contemplating-blue-set",
            "image": "shopify:\/\/shop_images\/ide_2fe69e21-43ae-497f-b162-91109ab34b1b.jpg"
          }
        },
        "e08e4ca4-6057-4135-89ba-cbcd75622c97": {
          "type": "collection",
          "settings": {
            "collection": "silver-veil-set",
            "image": "shopify:\/\/shop_images\/Full-side_85a8661a-aa05-491f-9e30-e7d031a2937e.jpg"
          }
        }
      },
      "block_order": [
        "fe3acfcb-370e-4656-b143-e0ee7be0ca9f",
        "189856bb-f25a-4218-8a0a-b9669088e41f",
        "66b7566a-5717-4acc-bff4-045b0993715d",
        "e0448535-abde-4bdf-bd8e-cf1f030c4006",
        "e08e4ca4-6057-4135-89ba-cbcd75622c97"
      ],
      "disabled": true,
      "settings": {
        "title": "Discover loungewear collection",
        "enable_carousel": true,
        "grid": 3,
        "use_alt_bg": true,
        "full_width": true
      }
    },
    "recommendations": {
      "type": "product-recommendations",
      "disabled": true,
      "settings": {
        "title": "Related products",
        "show_vendor": false,
        "grid": 2
      }
    },
    "1637660518324c9917": {
      "type": "apps",
      "settings": {
        "full_width": false
      }
    }
  },
  "order": [
    "main",
    "1649947048eaf7e450",
    "16499471369440bd83",
    "recommendations",
    "1637660518324c9917"
  ]
}