{
  "sections": {
    "shogun-helper": {
      "type": "shogun-helper",
      "settings": {}
    },
    "shogun-above": {
      "type": "shogun-above",
      "settings": {}
    },
    "main": {
      "type": "main-product",
      "blocks": {
        "title": {
          "type": "title",
          "settings": {}
        },
        "741eb21a-7a13-4523-adb9-d9cd19c25958": {
          "type": "shopify:\/\/apps\/yotpo-product-photo-reviews\/blocks\/star-rating\/eb7dfd7d-db44-4334-bc49-c893b51b36cf",
          "settings": {
            "product": "{{product}}"
          }
        },
        "price": {
          "type": "price",
          "settings": {
            "show_tax_and_shipping": false
          }
        },
        "e16eb14b-0ba9-4180-a2c8-c26223761a76": {
          "type": "variant_picker",
          "settings": {
            "show_single": false,
            "show_size_chart": true,
            "size_chart_variant": "Size Guide",
            "size_chart_page": "size-guide-bedding"
          }
        },
        "fcf51839-3019-4cee-8057-c527958af854": {
          "type": "richtext",
          "settings": {
            "richtext": "<p><strong>Includes 2 pillowcases.<\/strong><\/p>",
            "show_in_quickbuy": false
          }
        },
        "9a074078-5400-4ea2-b7f7-35c76e205567": {
          "type": "richtext",
          "settings": {
            "richtext": "<p><strong>Free delivery on orders over $100.<\/strong><\/p>",
            "show_in_quickbuy": false
          }
        },
        "7c523533-ebf4-4f72-8942-feda1e8fa34d": {
          "type": "text",
          "disabled": true,
          "settings": {
            "text": "Includes 2*Pillowcases.",
            "show_in_quickbuy": false
          }
        },
        "6515b48a-8f4a-4bad-acc6-799e8d70e96c": {
          "type": "text",
          "disabled": true,
          "settings": {
            "text": "*Fast Free Delivery Site-wide",
            "show_in_quickbuy": false
          }
        },
        "buy_buttons": {
          "type": "buy_buttons",
          "settings": {
            "show_quantity_selector": false,
            "enable_payment_button": false,
            "show_backorder_text": false,
            "show_inventory_notice": false,
            "inventory_notice_threshold": 100,
            "show_pickup_availability": true
          }
        },
        "ec37c032-7ba7-4cf1-a641-75497cebbb08": {
          "type": "description",
          "disabled": true,
          "settings": {
            "show_in_tab": false,
            "open_tab": true,
            "show_in_quickbuy": false
          }
        },
        "23c9a8d7-9888-4e4f-8842-17e80ae81f56": {
          "type": "accordion",
          "settings": {
            "title": "DETAILS",
            "content": "<p><strong>* <\/strong>The trial sets come with 2 pillowcases and 1 sleep mask.<\/p><p><strong>Pet Hair Repellent<\/strong><\/p><p>Our innovative fabrics repel pet hair, dander, and dust, making it easy to keep your space clean. This makes it a great choice for families with pets and young children.<br\/><br\/><strong>Antibacterial & Hypoallergenic<\/strong><\/p><p>Our fabric is crafted from bamboo, which is naturally resistant to bacteria and free from harmful chemicals. This makes it an excellent option for those with sensitive skin, as it is hypoallergenic and gentle to the touch.<br\/><br\/><strong>Absurdly Soft<\/strong><\/p><p>Our bamboo fabric is exceptionally soft and silky-smooth to the touch. It is also naturally breathable, making it a perfect option for those who want a comfortable night's sleep.<\/p>",
            "page": "",
            "open": true,
            "show_in_quickbuy": false
          }
        },
        "db8094c5-247c-49ba-ac72-436807188803": {
          "type": "accordion",
          "settings": {
            "title": "FABRIC",
            "content": "<p>100% premium viscose from bamboo<\/p>",
            "page": "",
            "open": false,
            "show_in_quickbuy": false
          }
        },
        "572270c6-2676-4c39-a468-53536a802d56": {
          "type": "accordion",
          "settings": {
            "title": "CARE",
            "content": "<p>Neutral Detergent<br\/>Machine Wash Cold <br\/>Do Not Bleach <br\/>Machine Dry Low Heat<br\/>Max Temp 110°C or 230°F<br\/><\/p><p>For additional questions, please contact us.<\/p>",
            "page": "",
            "open": false,
            "show_in_quickbuy": false
          }
        },
        "b17ea531-cdc9-41b5-83ba-82d7c5700d27": {
          "type": "image",
          "disabled": true,
          "settings": {
            "image_width": 700,
            "url": "",
            "show_in_quickbuy": false
          }
        },
        "f30f1ef0-8691-4b2b-97cb-53f0258013e6": {
          "type": "sharing",
          "settings": {
            "show_in_quickbuy": false
          }
        }
      },
      "block_order": [
        "title",
        "741eb21a-7a13-4523-adb9-d9cd19c25958",
        "price",
        "e16eb14b-0ba9-4180-a2c8-c26223761a76",
        "fcf51839-3019-4cee-8057-c527958af854",
        "9a074078-5400-4ea2-b7f7-35c76e205567",
        "7c523533-ebf4-4f72-8942-feda1e8fa34d",
        "6515b48a-8f4a-4bad-acc6-799e8d70e96c",
        "buy_buttons",
        "ec37c032-7ba7-4cf1-a641-75497cebbb08",
        "23c9a8d7-9888-4e4f-8842-17e80ae81f56",
        "db8094c5-247c-49ba-ac72-436807188803",
        "572270c6-2676-4c39-a468-53536a802d56",
        "b17ea531-cdc9-41b5-83ba-82d7c5700d27",
        "f30f1ef0-8691-4b2b-97cb-53f0258013e6"
      ],
      "settings": {
        "show_breadcrumbs": false,
        "show_location_underneath": false,
        "inventory_transfers_enable": false,
        "gallery_size": "large",
        "prod_gall_thumbs_under": "under",
        "enable_sticky_gallery": true,
        "enable_zoom": true,
        "enable_video_looping": true
      }
    },
    "164318472923bd8e51": {
      "type": "featured-collection",
      "settings": {
        "title": "You Might Also Like...",
        "collection": "best-seller",
        "show_vendor": false,
        "enable_carousel": false,
        "grid": 4,
        "rows": 4,
        "use_alt_bg": false,
        "show_view_all": false,
        "full_width": true
      }
    },
    "32cd70bd-c3ee-4f1f-99ae-370064565f5e": {
      "type": "slideshow",
      "blocks": {
        "template--15687933788356__32cd70bd-c3ee-4f1f-99ae-370064565f5e-1666175690a9064fd3-0": {
          "type": "image",
          "settings": {
            "image": "shopify:\/\/shop_images\/brand_intro_2_71449a2a-2862-4163-86a2-6ed1ffc5c98f.png",
            "mobile_image": "shopify:\/\/shop_images\/banner_6_b8549a8c-0f98-4d6e-93d0-849730885c31.png",
            "image_position": "center center",
            "slide_link": "",
            "subheading": "",
            "title": "What bedding is best for people with dogs and cats? \nslashop",
            "title_size": 38,
            "text": "",
            "enlarge_text": true,
            "button_label": "",
            "text_alignment": "center center"
          }
        },
        "template--15687933788356__32cd70bd-c3ee-4f1f-99ae-370064565f5e-1666175690a9064fd3-1": {
          "type": "image",
          "settings": {
            "image": "shopify:\/\/shop_images\/brand-intro-1_0665f17b-889b-4e44-8103-13400a9a27f3.jpg",
            "mobile_image": "shopify:\/\/shop_images\/banner_4_ff2e72c4-2d12-44cd-b8ee-95dd97820475.jpg",
            "image_position": "center center",
            "slide_link": "",
            "subheading": "",
            "title": "We redesign all textile essentials to meet the pet family’s needs, with the environment in mind",
            "title_size": 38,
            "text": "",
            "enlarge_text": true,
            "button_label": "",
            "text_alignment": "center center"
          }
        },
        "253f8e21-f954-4667-8993-3dcaccba334a": {
          "type": "image",
          "settings": {
            "image": "shopify:\/\/shop_images\/banner_3_a4e98c87-512c-4a4d-8697-a2f799ef8832.png",
            "mobile_image": "shopify:\/\/shop_images\/banner_5_f9f74646-a40b-4cbc-a7e0-43bd68acbe05.jpg",
            "image_position": "center center",
            "slide_link": "",
            "subheading": "",
            "title": "Welcome furry friends to your life, easy and free",
            "title_size": 38,
            "text": "",
            "enlarge_text": true,
            "button_label": "",
            "text_alignment": "center center"
          }
        }
      },
      "block_order": [
        "template--15687933788356__32cd70bd-c3ee-4f1f-99ae-370064565f5e-1666175690a9064fd3-0",
        "template--15687933788356__32cd70bd-c3ee-4f1f-99ae-370064565f5e-1666175690a9064fd3-1",
        "253f8e21-f954-4667-8993-3dcaccba334a"
      ],
      "disabled": true,
      "settings": {
        "height": "adapt",
        "height_desktop": 640,
        "height_mobile": 520,
        "full_width": true,
        "mobile_overlay_under": false,
        "overlay_style": "full",
        "slide_transition": "fade",
        "slide_navigation": "arrows",
        "autoplay": true,
        "autoplay_speed": 1
      }
    },
    "e590aa7c-89e7-4ba7-89d8-44e38c8d2952": {
      "type": "rich-text",
      "blocks": {
        "template--15687933788356__e590aa7c-89e7-4ba7-89d8-44e38c8d2952-1666175712689b0265-0": {
          "type": "subheading",
          "disabled": true,
          "settings": {
            "subheading": "Subheading"
          }
        },
        "template--15687933788356__e590aa7c-89e7-4ba7-89d8-44e38c8d2952-1666175712689b0265-1": {
          "type": "heading",
          "settings": {
            "title": "Why Bamboo Bedding?",
            "use_h1": false
          }
        },
        "template--15687933788356__e590aa7c-89e7-4ba7-89d8-44e38c8d2952-1666175712689b0265-2": {
          "type": "text",
          "settings": {
            "text": "<p>Learn about Bamboo properties<\/p>",
            "enlarge_text": false
          }
        }
      },
      "block_order": [
        "template--15687933788356__e590aa7c-89e7-4ba7-89d8-44e38c8d2952-1666175712689b0265-0",
        "template--15687933788356__e590aa7c-89e7-4ba7-89d8-44e38c8d2952-1666175712689b0265-1",
        "template--15687933788356__e590aa7c-89e7-4ba7-89d8-44e38c8d2952-1666175712689b0265-2"
      ],
      "disabled": true,
      "settings": {
        "height": "medium",
        "text_alignment": "center",
        "full_width": false,
        "use_alt_bg": false
      }
    },
    "1637827161ab4ea7d6": {
      "type": "custom-row",
      "blocks": {
        "1637827161214f8d12-1": {
          "type": "text",
          "disabled": true,
          "settings": {
            "width": "half",
            "subheading": "",
            "title": "Bamboo properties",
            "text": "",
            "button_label": "",
            "button_link": "",
            "button_style": "primary",
            "text_alignment": "center"
          }
        }
      },
      "block_order": [
        "1637827161214f8d12-1"
      ],
      "disabled": true,
      "settings": {
        "alignment": "top",
        "class_name": "custom-row"
      }
    },
    "1638940697011c8bb5": {
      "type": "custom-row",
      "blocks": {
        "1638940697994455c0-0": {
          "type": "image",
          "settings": {
            "width": "third",
            "image": "shopify:\/\/shop_images\/selling_point_8cabaedc-e29c-48fd-8684-69bd32c7d061.png",
            "image_position": "center center",
            "height": "fixed",
            "height_desktop": 480,
            "height_mobile": 360,
            "subheading": "",
            "title": "",
            "text": "",
            "enlarge_text": false,
            "button_label": "",
            "image_link": "",
            "text_alignment": "center center",
            "mobile_overlay_under": false,
            "overlay_style": "no_background"
          }
        },
        "1638940697994455c0-1": {
          "type": "text",
          "settings": {
            "width": "half",
            "subheading": "",
            "title": "Pet hair resistant",
            "text": "<p><strong>Perfect for families with dogs and cats<\/strong><\/p><p>Slashop innovative hair resistant fabric is anti-static, effectively prevents hair and dust stuck on bed. It doesn't prevent your husky from shedding, while you remove pet furwith hands easily.<\/p>",
            "button_label": "",
            "button_link": "",
            "button_style": "primary",
            "text_alignment": "left"
          }
        }
      },
      "block_order": [
        "1638940697994455c0-0",
        "1638940697994455c0-1"
      ],
      "disabled": true,
      "settings": {
        "alignment": "middle",
        "class_name": "custom-row"
      }
    },
    "163894072740ffbfce": {
      "type": "custom-row",
      "blocks": {
        "163894072768ad7053-0": {
          "type": "image",
          "settings": {
            "width": "third",
            "image": "shopify:\/\/shop_images\/fur-resistant_95460dd6-de96-4323-8cee-9f94c19e5756.png",
            "image_position": "center center",
            "height": "fixed",
            "height_desktop": 480,
            "height_mobile": 360,
            "subheading": "",
            "title": "",
            "text": "",
            "enlarge_text": false,
            "button_label": "",
            "image_link": "",
            "text_alignment": "center center",
            "mobile_overlay_under": false,
            "overlay_style": "full"
          }
        },
        "163894072768ad7053-1": {
          "type": "text",
          "settings": {
            "width": "half",
            "subheading": "",
            "title": "Anti-bacterial  and Anti-odor",
            "text": "<p><strong>Enjoy sleeping with your furry friends<\/strong><\/p><p>Bamboo naturally contains anti-bacterial substance \"bamboo quinone\" which makes it anti-odor and anti-microbial<em>.<\/em><\/p>",
            "button_label": "",
            "button_link": "",
            "button_style": "primary",
            "text_alignment": "left"
          }
        }
      },
      "block_order": [
        "163894072768ad7053-0",
        "163894072768ad7053-1"
      ],
      "disabled": true,
      "settings": {
        "alignment": "middle",
        "class_name": "custom-row"
      }
    },
    "1638941065e1970d95": {
      "type": "custom-row",
      "blocks": {
        "16389410655a411aaf-0": {
          "type": "image",
          "settings": {
            "width": "third",
            "image": "shopify:\/\/shop_images\/dog1.png",
            "image_position": "center center",
            "height": "fixed",
            "height_desktop": 480,
            "height_mobile": 360,
            "subheading": "",
            "title": "",
            "text": "",
            "enlarge_text": false,
            "button_label": "",
            "image_link": "",
            "text_alignment": "bottom left",
            "mobile_overlay_under": false,
            "overlay_style": "full"
          }
        },
        "16389410655a411aaf-1": {
          "type": "text",
          "settings": {
            "width": "half",
            "subheading": "",
            "title": "Ideal for hot sleepers",
            "text": "<p><strong>Forget about hot flashes<\/strong><\/p><p>Slashop bamboo bedding is absorbent and dries super quickly, perfect for sweaty hot sleepers. Our innovative fabric is also thermo-regulating and breathable, keeps you cool all night long.<\/p>",
            "button_label": "",
            "button_link": "",
            "button_style": "primary",
            "text_alignment": "left"
          }
        }
      },
      "block_order": [
        "16389410655a411aaf-0",
        "16389410655a411aaf-1"
      ],
      "disabled": true,
      "settings": {
        "alignment": "middle",
        "class_name": "custom-row"
      }
    },
    "recommendations": {
      "type": "product-recommendations",
      "disabled": true,
      "settings": {
        "title": "Related products",
        "show_vendor": false,
        "grid": 4
      }
    },
    "1641899986c3ca8597": {
      "type": "text-columns-with-images",
      "blocks": {
        "16418999869057970b-0": {
          "type": "text_block",
          "settings": {
            "enable_image": true,
            "image": "shopify:\/\/shop_images\/bamboo_b_e6f07c01-6852-4c91-ae87-e8676b04b648.png",
            "image_width": 700,
            "title": "Eucalyptus",
            "text": "<p>Biobased material, water-saving,   biodegradable.<\/p>",
            "button_label": "Learn more",
            "link": "shopify:\/\/pages\/eucalyptus"
          }
        },
        "16418999869057970b-1": {
          "type": "text_block",
          "settings": {
            "enable_image": true,
            "image": "shopify:\/\/shop_images\/bamboo_bb.png",
            "image_width": 700,
            "title": "Bamboo",
            "text": "<p>Regenerative, water + energy-efficient, bio circular.<\/p>",
            "button_label": "Learn more",
            "link": "shopify:\/\/pages\/bamboo"
          }
        },
        "16418999869057970b-2": {
          "type": "text_block",
          "settings": {
            "enable_image": true,
            "image": "shopify:\/\/shop_images\/sustainability_round_8_99bd24e4-2ebe-471a-8f84-0d56f7dff19b.png",
            "image_width": 700,
            "title": "Aerogel",
            "text": "<p>Developed by NASA, let science keep you warm.<\/p>",
            "button_label": "Learn more",
            "link": "shopify:\/\/pages\/aerogel"
          }
        }
      },
      "block_order": [
        "16418999869057970b-0",
        "16418999869057970b-1",
        "16418999869057970b-2"
      ],
      "disabled": true,
      "settings": {
        "title": "Our responsible materials",
        "text_alignment": "center",
        "button_style": "link",
        "use_alt_bg": false
      }
    },
    "3e7a9816-7aed-424c-885a-61fc781c55f9": {
      "type": "slideshow",
      "blocks": {
        "template--15687933788356__3e7a9816-7aed-424c-885a-61fc781c55f9-1666175696b407805b-1": {
          "type": "image",
          "settings": {
            "image": "shopify:\/\/shop_images\/comparison.png",
            "mobile_image": "shopify:\/\/shop_images\/bamboo_cotton_update_a04fc060-b2da-4c35-b63e-3bede995866b.png",
            "image_position": "center center",
            "slide_link": "",
            "subheading": "",
            "title": "",
            "title_size": 46,
            "text": "",
            "enlarge_text": true,
            "button_label": "",
            "text_alignment": "center center"
          }
        }
      },
      "block_order": [
        "template--15687933788356__3e7a9816-7aed-424c-885a-61fc781c55f9-1666175696b407805b-1"
      ],
      "disabled": true,
      "settings": {
        "height": "adapt",
        "height_desktop": 500,
        "height_mobile": 540,
        "full_width": true,
        "mobile_overlay_under": false,
        "overlay_style": "full",
        "slide_transition": "fade",
        "slide_navigation": "arrows",
        "autoplay": true,
        "autoplay_speed": 1
      }
    },
    "40eccc7a-a8d2-49e2-98a4-c25c9d11529e": {
      "type": "rich-text",
      "blocks": {
        "template--15687933788356__40eccc7a-a8d2-49e2-98a4-c25c9d11529e-1666175706cd7dfe14-0": {
          "type": "subheading",
          "disabled": true,
          "settings": {
            "subheading": "Subheading"
          }
        },
        "template--15687933788356__40eccc7a-a8d2-49e2-98a4-c25c9d11529e-1666175706cd7dfe14-1": {
          "type": "heading",
          "settings": {
            "title": "Furry friends approved",
            "use_h1": false
          }
        },
        "template--15687933788356__40eccc7a-a8d2-49e2-98a4-c25c9d11529e-1666175706cd7dfe14-2": {
          "type": "text",
          "settings": {
            "text": "<p>Follow @slashopofficial to find more<\/p>",
            "enlarge_text": false
          }
        }
      },
      "block_order": [
        "template--15687933788356__40eccc7a-a8d2-49e2-98a4-c25c9d11529e-1666175706cd7dfe14-0",
        "template--15687933788356__40eccc7a-a8d2-49e2-98a4-c25c9d11529e-1666175706cd7dfe14-1",
        "template--15687933788356__40eccc7a-a8d2-49e2-98a4-c25c9d11529e-1666175706cd7dfe14-2"
      ],
      "settings": {
        "height": "medium",
        "text_alignment": "center",
        "full_width": false,
        "use_alt_bg": false
      }
    },
    "5e6ad24b-970f-4514-a062-946d78f4e1b9": {
      "type": "gallery",
      "blocks": {
        "template--15687933788356__5e6ad24b-970f-4514-a062-946d78f4e1b9-16661756983869f7d2-0": {
          "type": "image",
          "settings": {
            "image": "shopify:\/\/shop_images\/KOL_review_2_7eb7914a-4702-4ff9-8151-1af27d1f8e13.png",
            "alignment": "center center",
            "enlarge_image": false,
            "subheading": "",
            "title": "",
            "button_label": "",
            "link": "",
            "text_alignment": "center center"
          }
        },
        "template--15687933788356__5e6ad24b-970f-4514-a062-946d78f4e1b9-16661756983869f7d2-1": {
          "type": "image",
          "settings": {
            "image": "shopify:\/\/shop_images\/kol_reviews_3.png",
            "alignment": "center center",
            "enlarge_image": false,
            "subheading": "",
            "title": "",
            "button_label": "",
            "link": "",
            "text_alignment": "center center"
          }
        },
        "template--15687933788356__5e6ad24b-970f-4514-a062-946d78f4e1b9-16661756983869f7d2-2": {
          "type": "image",
          "settings": {
            "image": "shopify:\/\/shop_images\/Kol_review_1_4962ff73-ae4a-4b5c-90db-81979faecb29.png",
            "alignment": "center center",
            "enlarge_image": false,
            "subheading": "Subhea",
            "title": "",
            "button_label": "",
            "link": "",
            "text_alignment": "center center"
          }
        }
      },
      "block_order": [
        "template--15687933788356__5e6ad24b-970f-4514-a062-946d78f4e1b9-16661756983869f7d2-0",
        "template--15687933788356__5e6ad24b-970f-4514-a062-946d78f4e1b9-16661756983869f7d2-1",
        "template--15687933788356__5e6ad24b-970f-4514-a062-946d78f4e1b9-16661756983869f7d2-2"
      ],
      "settings": {
        "grid": 3,
        "desktop_image_height": 400,
        "mobile_image_height": 400,
        "enable_margin": true,
        "full_width": false,
        "use_alt_bg": false,
        "enable_carousel": true,
        "overlay_style": "full",
        "button_style": "primary"
      }
    },
    "1637660818f2c8d56c": {
      "type": "apps",
      "blocks": {
        "262cd0a6-7d15-442c-8456-80270783dd49": {
          "type": "shopify:\/\/apps\/yotpo-product-photo-reviews\/blocks\/reviews\/eb7dfd7d-db44-4334-bc49-c893b51b36cf",
          "settings": {
            "product": "{{product}}"
          }
        }
      },
      "block_order": [
        "262cd0a6-7d15-442c-8456-80270783dd49"
      ],
      "settings": {
        "full_width": false
      }
    },
    "shogun-below": {
      "type": "shogun-below",
      "settings": {}
    },
    "16433551324dca06ee": {
      "type": "logo-list",
      "blocks": {
        "6207d941-fdb6-49f0-9e98-0125880c5565": {
          "type": "logo",
          "settings": {
            "image": "shopify:\/\/shop_images\/fo__round.png",
            "image_width": 160,
            "link": "",
            "title": "Forest Stewardship Council"
          }
        },
        "0f88bd70-5b81-47d8-8564-a8950f2dccad": {
          "type": "logo",
          "disabled": true,
          "settings": {
            "image": "shopify:\/\/shop_images\/forest__round.png",
            "image_width": 160,
            "link": "shopify:\/\/pages\/certifications",
            "title": "Organic Content Standard"
          }
        },
        "aa4c67e9-98c7-4025-8948-1aeab2267bb3": {
          "type": "logo",
          "settings": {
            "image": "shopify:\/\/shop_images\/oeko__round_45db7309-ad8d-4830-a266-3f3e4446e798.png",
            "image_width": 280,
            "link": "",
            "title": "Standard 100 by OEKO-TEX"
          }
        }
      },
      "block_order": [
        "6207d941-fdb6-49f0-9e98-0125880c5565",
        "0f88bd70-5b81-47d8-8564-a8950f2dccad",
        "aa4c67e9-98c7-4025-8948-1aeab2267bb3"
      ],
      "settings": {
        "title": "Certified by",
        "image_opacity": 100,
        "use_alt_bg": false
      }
    },
    "7bebd874-07a8-4e1b-ae63-6593a67c99c3": {
      "type": "image-with-text-overlay",
      "settings": {
        "image": "shopify:\/\/shop_images\/sale.png",
        "image_position": "center center",
        "height": "fixed",
        "height_desktop": 440,
        "height_mobile": 220,
        "subheading": "",
        "title": "Last Call Sale",
        "title_size": 46,
        "use_h1": false,
        "text": "",
        "enlarge_text": false,
        "button_label": "Shop now",
        "image_link": "shopify:\/\/collections\/sale",
        "text_alignment": "center center",
        "full_width": true,
        "mobile_overlay_under": false,
        "overlay_style": "full"
      }
    }
  },
  "order": [
    "shogun-helper",
    "shogun-above",
    "main",
    "164318472923bd8e51",
    "32cd70bd-c3ee-4f1f-99ae-370064565f5e",
    "e590aa7c-89e7-4ba7-89d8-44e38c8d2952",
    "1637827161ab4ea7d6",
    "1638940697011c8bb5",
    "163894072740ffbfce",
    "1638941065e1970d95",
    "recommendations",
    "1641899986c3ca8597",
    "3e7a9816-7aed-424c-885a-61fc781c55f9",
    "40eccc7a-a8d2-49e2-98a4-c25c9d11529e",
    "5e6ad24b-970f-4514-a062-946d78f4e1b9",
    "1637660818f2c8d56c",
    "shogun-below",
    "16433551324dca06ee",
    "7bebd874-07a8-4e1b-ae63-6593a67c99c3"
  ]
}