{
  "sections": {
    "main": {
      "type": "main-product",
      "blocks": {
        "title": {
          "type": "title",
          "settings": {}
        },
        "20f30a73-c0c8-497a-8a77-920f3865cb77": {
          "type": "shopify:\/\/apps\/yotpo-product-photo-reviews\/blocks\/star-rating\/eb7dfd7d-db44-4334-bc49-c893b51b36cf",
          "settings": {
            "product": "{{product}}"
          }
        },
        "price": {
          "type": "price",
          "settings": {
            "show_tax_and_shipping": false
          }
        },
        "e16eb14b-0ba9-4180-a2c8-c26223761a76": {
          "type": "variant_picker",
          "settings": {
            "show_single": false,
            "show_size_chart": true,
            "size_chart_variant": "Size Guide",
            "size_chart_page": "size-guide-loungewear"
          }
        },
        "6cccffce-d381-4e20-890c-a649f6213e9b": {
          "type": "richtext",
          "settings": {
            "richtext": "<p><strong>Includes 1 tank top and pants.<\/strong><\/p>",
            "show_in_quickbuy": false
          }
        },
        "994447e9-3922-4951-95dd-6b7e134286de": {
          "type": "richtext",
          "settings": {
            "richtext": "<p><strong>Free delivery on orders over $100.<\/strong><\/p>",
            "show_in_quickbuy": false
          }
        },
        "buy_buttons": {
          "type": "buy_buttons",
          "settings": {
            "show_quantity_selector": false,
            "enable_payment_button": true,
            "show_backorder_text": false,
            "show_inventory_notice": false,
            "inventory_notice_threshold": 10,
            "show_pickup_availability": true
          }
        },
        "ba58b819-3956-47bd-9e96-6f00d5539d0c": {
          "type": "image",
          "disabled": true,
          "settings": {
            "image": "shopify:\/\/shop_images\/pajamas_size_guide_0b59f9be-f721-4c2a-919c-3b0b80f32816.png",
            "image_width": 700,
            "url": "",
            "show_in_quickbuy": false
          }
        },
        "030b31b0-dc19-48de-a6b7-fc930a945e63": {
          "type": "accordion",
          "settings": {
            "title": "DETAILS",
            "content": "<p>Super soft tank with a scoop neckline and raw-edge hem. Including matching high-waisted straight leg trousers with a drawstring waistband and roomy pockets.<\/p>",
            "page": "",
            "open": false,
            "show_in_quickbuy": false
          }
        },
        "41e8e499-9dce-4a02-bf60-0a62da3862bf": {
          "type": "accordion",
          "settings": {
            "title": "FABRIC",
            "content": "<p><strong>47%  Rayon + 41% Nylon + 12% Spandex <\/strong><\/p>",
            "page": "",
            "open": false,
            "show_in_quickbuy": false
          }
        },
        "6992ed0b-4b88-440e-aac3-260c5784dc8f": {
          "type": "accordion",
          "settings": {
            "title": "FIT & SIZE",
            "content": "<p>Model is 5'6 wearing size L<\/p>",
            "page": "",
            "open": false,
            "show_in_quickbuy": false
          }
        },
        "572270c6-2676-4c39-a468-53536a802d56": {
          "type": "accordion",
          "settings": {
            "title": "CARE",
            "content": "<p><strong>We recommend you to follow these tips:<\/strong><br\/>Natural Detergent <br\/>Machine Wash Cold <br\/>Do Not Bleach <br\/>Machine Dry Low Heat <br\/>Max Temp 110°C or 230°F<\/p>",
            "page": "",
            "open": false,
            "show_in_quickbuy": false
          }
        },
        "d9614002-9090-429e-a49f-4ed258d292e1": {
          "type": "image",
          "settings": {
            "image_width": 700,
            "url": "",
            "show_in_quickbuy": false
          }
        },
        "dfb571ed-a717-4003-a633-3711277d1d24": {
          "type": "image",
          "settings": {
            "image_width": 700,
            "url": "",
            "show_in_quickbuy": false
          }
        },
        "72636f6e-905d-421e-a6f9-fbad4f4051d6": {
          "type": "sharing",
          "settings": {
            "show_in_quickbuy": false
          }
        }
      },
      "block_order": [
        "title",
        "20f30a73-c0c8-497a-8a77-920f3865cb77",
        "price",
        "e16eb14b-0ba9-4180-a2c8-c26223761a76",
        "6cccffce-d381-4e20-890c-a649f6213e9b",
        "994447e9-3922-4951-95dd-6b7e134286de",
        "buy_buttons",
        "ba58b819-3956-47bd-9e96-6f00d5539d0c",
        "030b31b0-dc19-48de-a6b7-fc930a945e63",
        "41e8e499-9dce-4a02-bf60-0a62da3862bf",
        "6992ed0b-4b88-440e-aac3-260c5784dc8f",
        "572270c6-2676-4c39-a468-53536a802d56",
        "d9614002-9090-429e-a49f-4ed258d292e1",
        "dfb571ed-a717-4003-a633-3711277d1d24",
        "72636f6e-905d-421e-a6f9-fbad4f4051d6"
      ],
      "settings": {
        "show_breadcrumbs": false,
        "show_location_underneath": false,
        "inventory_transfers_enable": false,
        "gallery_size": "large",
        "prod_gall_thumbs_under": "under",
        "enable_sticky_gallery": true,
        "enable_zoom": true,
        "enable_video_looping": true
      }
    },
    "1649947048eaf7e450": {
      "type": "background-video",
      "disabled": true,
      "settings": {
        "video": "https:\/\/cdn.shopify.com\/videos\/c\/o\/v\/c19e69f7a8fb4101a74e23fe9d84ad91.mp4",
        "placeholder_image": "shopify:\/\/shop_images\/Untitled-1_0ad4ce9a-416e-46e9-97b2-5c2e988cab0e.jpg",
        "subheading": "",
        "title": "",
        "title_size": 34,
        "use_h1": false,
        "text": "",
        "enlarge_text": false,
        "button_label": "",
        "button_link": "",
        "text_alignment": "center center",
        "height_desktop": 1000,
        "height_mobile": 500,
        "full_width": true,
        "overlay_style": "no_background"
      }
    },
    "7ad88f3f-31cc-4a5a-bc0e-84ed1f1d9c29": {
      "type": "featured-collection",
      "settings": {
        "title": "Styles You May Like",
        "collection": "loungewear",
        "show_vendor": false,
        "enable_carousel": true,
        "grid": 2,
        "rows": 1,
        "use_alt_bg": true,
        "show_view_all": true,
        "full_width": true
      }
    },
    "c9753f17-1762-43ee-875c-900a3436fd02": {
      "type": "slideshow",
      "blocks": {
        "template--15721377398980__c9753f17-1762-43ee-875c-900a3436fd02-16663209366cf24cde-0": {
          "type": "image",
          "settings": {
            "image": "shopify:\/\/shop_images\/brand_intro_2_71449a2a-2862-4163-86a2-6ed1ffc5c98f.png",
            "mobile_image": "shopify:\/\/shop_images\/banner_6_b8549a8c-0f98-4d6e-93d0-849730885c31.png",
            "image_position": "center center",
            "slide_link": "",
            "subheading": "",
            "title": "What pajamas are best for people with dogs and cats? \nslashop",
            "title_size": 38,
            "text": "",
            "enlarge_text": true,
            "button_label": "",
            "text_alignment": "center center"
          }
        },
        "template--15721377398980__c9753f17-1762-43ee-875c-900a3436fd02-16663209366cf24cde-1": {
          "type": "image",
          "settings": {
            "image": "shopify:\/\/shop_images\/brand-intro-1_0665f17b-889b-4e44-8103-13400a9a27f3.jpg",
            "mobile_image": "shopify:\/\/shop_images\/banner_4_ff2e72c4-2d12-44cd-b8ee-95dd97820475.jpg",
            "image_position": "center center",
            "slide_link": "",
            "subheading": "",
            "title": "We redesign all textile essentials to meet the pet family’s needs, with the environment in mind",
            "title_size": 38,
            "text": "",
            "enlarge_text": true,
            "button_label": "",
            "text_alignment": "center center"
          }
        },
        "54cd2a2e-4d1c-45f6-b065-38b01120c7ae": {
          "type": "image",
          "settings": {
            "image": "shopify:\/\/shop_images\/banner_3_a4e98c87-512c-4a4d-8697-a2f799ef8832.png",
            "mobile_image": "shopify:\/\/shop_images\/banner_6_b8549a8c-0f98-4d6e-93d0-849730885c31.png",
            "image_position": "center center",
            "slide_link": "",
            "subheading": "",
            "title": "Welcome furry friends to your life, easy and free",
            "title_size": 38,
            "text": "",
            "enlarge_text": true,
            "button_label": "",
            "text_alignment": "center center"
          }
        }
      },
      "block_order": [
        "template--15721377398980__c9753f17-1762-43ee-875c-900a3436fd02-16663209366cf24cde-0",
        "template--15721377398980__c9753f17-1762-43ee-875c-900a3436fd02-16663209366cf24cde-1",
        "54cd2a2e-4d1c-45f6-b065-38b01120c7ae"
      ],
      "settings": {
        "height": "adapt",
        "height_desktop": 640,
        "height_mobile": 520,
        "full_width": true,
        "mobile_overlay_under": false,
        "overlay_style": "full",
        "slide_transition": "fade",
        "slide_navigation": "arrows",
        "autoplay": true,
        "autoplay_speed": 3
      }
    },
    "35e11590-404d-42c7-be92-1bca5c5bbb04": {
      "type": "rich-text",
      "blocks": {
        "template--15721377398980__35e11590-404d-42c7-be92-1bca5c5bbb04-1666335612fd2b5bc9-1": {
          "type": "heading",
          "settings": {
            "title": "Why slashop Pajamas?",
            "use_h1": false
          }
        },
        "template--15721377398980__35e11590-404d-42c7-be92-1bca5c5bbb04-1666335612fd2b5bc9-2": {
          "type": "text",
          "settings": {
            "text": "<p>Learn about fabrics and features<\/p>",
            "enlarge_text": false
          }
        }
      },
      "block_order": [
        "template--15721377398980__35e11590-404d-42c7-be92-1bca5c5bbb04-1666335612fd2b5bc9-1",
        "template--15721377398980__35e11590-404d-42c7-be92-1bca5c5bbb04-1666335612fd2b5bc9-2"
      ],
      "settings": {
        "height": "medium",
        "text_alignment": "center",
        "full_width": false,
        "use_alt_bg": false
      }
    },
    "fee3760c-1008-4e05-a344-b64dfb5c24d0": {
      "type": "custom-row",
      "blocks": {
        "template--15721377398980__fee3760c-1008-4e05-a344-b64dfb5c24d0-16663356220a0f2b11-0": {
          "type": "image",
          "settings": {
            "width": "third",
            "image": "shopify:\/\/shop_images\/20221021-112919.png",
            "image_position": "center center",
            "height": "fixed",
            "height_desktop": 480,
            "height_mobile": 360,
            "subheading": "",
            "title": "",
            "text": "",
            "enlarge_text": false,
            "button_label": "",
            "image_link": "",
            "text_alignment": "center center",
            "mobile_overlay_under": false,
            "overlay_style": "full"
          }
        },
        "template--15721377398980__fee3760c-1008-4e05-a344-b64dfb5c24d0-16663356220a0f2b11-1": {
          "type": "text",
          "settings": {
            "width": "half",
            "subheading": "",
            "title": "Cuddle with your cat",
            "text": "<p><strong>Say goodbye to lint roller<\/strong><\/p><p>Have you ever hesitated to hug your cat since it takes a long time to remove fur from your clothes? Save yourself time and stress wearing slashop fur resistant leisurewear.<\/p>",
            "button_label": "",
            "button_link": "",
            "button_style": "primary",
            "text_alignment": "left"
          }
        }
      },
      "block_order": [
        "template--15721377398980__fee3760c-1008-4e05-a344-b64dfb5c24d0-16663356220a0f2b11-0",
        "template--15721377398980__fee3760c-1008-4e05-a344-b64dfb5c24d0-16663356220a0f2b11-1"
      ],
      "settings": {
        "alignment": "middle"
      }
    },
    "989b8bfb-5e11-4ec6-ae88-12a354045f48": {
      "type": "custom-row",
      "blocks": {
        "template--15721377398980__989b8bfb-5e11-4ec6-ae88-12a354045f48-16663356220a0f2b11-0": {
          "type": "image",
          "settings": {
            "width": "third",
            "image": "shopify:\/\/shop_images\/20221021-140110.png",
            "image_position": "center center",
            "height": "fixed",
            "height_desktop": 480,
            "height_mobile": 320,
            "subheading": "",
            "title": "",
            "text": "",
            "enlarge_text": false,
            "button_label": "",
            "image_link": "",
            "text_alignment": "center center",
            "mobile_overlay_under": false,
            "overlay_style": "full"
          }
        },
        "template--15721377398980__989b8bfb-5e11-4ec6-ae88-12a354045f48-16663356220a0f2b11-1": {
          "type": "text",
          "settings": {
            "width": "half",
            "subheading": "",
            "title": "Fur & Scratch Resistant",
            "text": "<p><strong>Perfect for families with dogs and cats<\/strong><\/p><p>Slashop innovative plant based fabric is anti-static, effectively prevents hair and dust stuck on clothes. It also improves toughness for snag-free performance; no more claw scratches and holes.<\/p>",
            "button_label": "",
            "button_link": "",
            "button_style": "primary",
            "text_alignment": "left"
          }
        }
      },
      "block_order": [
        "template--15721377398980__989b8bfb-5e11-4ec6-ae88-12a354045f48-16663356220a0f2b11-0",
        "template--15721377398980__989b8bfb-5e11-4ec6-ae88-12a354045f48-16663356220a0f2b11-1"
      ],
      "settings": {
        "alignment": "middle"
      }
    },
    "80571aeb-6f81-40cc-81d7-fa4330e0ed14": {
      "type": "rich-text",
      "blocks": {
        "template--15721377398980__80571aeb-6f81-40cc-81d7-fa4330e0ed14-1666335992636a0276-0": {
          "type": "subheading",
          "disabled": true,
          "settings": {
            "subheading": "Subheading"
          }
        },
        "template--15721377398980__80571aeb-6f81-40cc-81d7-fa4330e0ed14-1666335992636a0276-1": {
          "type": "heading",
          "settings": {
            "title": "Furry friends approved",
            "use_h1": false
          }
        },
        "template--15721377398980__80571aeb-6f81-40cc-81d7-fa4330e0ed14-1666335992636a0276-2": {
          "type": "text",
          "settings": {
            "text": "<p>Follow @slashopofficial to find more<\/p>",
            "enlarge_text": false
          }
        }
      },
      "block_order": [
        "template--15721377398980__80571aeb-6f81-40cc-81d7-fa4330e0ed14-1666335992636a0276-0",
        "template--15721377398980__80571aeb-6f81-40cc-81d7-fa4330e0ed14-1666335992636a0276-1",
        "template--15721377398980__80571aeb-6f81-40cc-81d7-fa4330e0ed14-1666335992636a0276-2"
      ],
      "settings": {
        "height": "medium",
        "text_alignment": "center",
        "full_width": false,
        "use_alt_bg": false
      }
    },
    "67eeed0f-fa69-4537-a04a-c77bc1fd48df": {
      "type": "gallery",
      "blocks": {
        "template--15721377398980__67eeed0f-fa69-4537-a04a-c77bc1fd48df-1666335995aff5f6db-0": {
          "type": "image",
          "settings": {
            "image": "shopify:\/\/shop_images\/20221021-140042.png",
            "alignment": "center center",
            "enlarge_image": false,
            "subheading": "Subheadin",
            "title": "",
            "button_label": "",
            "link": "",
            "text_alignment": "center center"
          }
        },
        "template--15721377398980__67eeed0f-fa69-4537-a04a-c77bc1fd48df-1666335995aff5f6db-1": {
          "type": "image",
          "settings": {
            "image": "shopify:\/\/shop_images\/20221021-140036.png",
            "alignment": "center center",
            "enlarge_image": false,
            "subheading": "",
            "title": "",
            "button_label": "",
            "link": "",
            "text_alignment": "center center"
          }
        },
        "template--15721377398980__67eeed0f-fa69-4537-a04a-c77bc1fd48df-1666335995aff5f6db-2": {
          "type": "image",
          "settings": {
            "image": "shopify:\/\/shop_images\/20221021-140028.png",
            "alignment": "center center",
            "enlarge_image": false,
            "subheading": "",
            "title": "",
            "button_label": "",
            "link": "",
            "text_alignment": "center center"
          }
        }
      },
      "block_order": [
        "template--15721377398980__67eeed0f-fa69-4537-a04a-c77bc1fd48df-1666335995aff5f6db-0",
        "template--15721377398980__67eeed0f-fa69-4537-a04a-c77bc1fd48df-1666335995aff5f6db-1",
        "template--15721377398980__67eeed0f-fa69-4537-a04a-c77bc1fd48df-1666335995aff5f6db-2"
      ],
      "settings": {
        "grid": 3,
        "desktop_image_height": 400,
        "mobile_image_height": 400,
        "enable_margin": true,
        "full_width": false,
        "use_alt_bg": false,
        "enable_carousel": true,
        "overlay_style": "full",
        "button_style": "primary"
      }
    },
    "recommendations": {
      "type": "product-recommendations",
      "disabled": true,
      "settings": {
        "title": "Related products",
        "show_vendor": false,
        "grid": 2
      }
    },
    "1637660518324c9917": {
      "type": "apps",
      "blocks": {
        "f0211ac4-bd3e-44d3-91c0-1c437cce8fa0": {
          "type": "shopify:\/\/apps\/yotpo-product-photo-reviews\/blocks\/reviews\/eb7dfd7d-db44-4334-bc49-c893b51b36cf",
          "settings": {
            "product": "{{product}}"
          }
        }
      },
      "block_order": [
        "f0211ac4-bd3e-44d3-91c0-1c437cce8fa0"
      ],
      "settings": {
        "full_width": false
      }
    },
    "e818465e-6c5b-4806-8d24-5a152b68023d": {
      "type": "image-with-text-overlay",
      "settings": {
        "image": "shopify:\/\/shop_images\/banner_sale_9f9124b4-7069-4d80-830f-76a169591ce9.png",
        "image_position": "center center",
        "height": "fixed",
        "height_desktop": 440,
        "height_mobile": 220,
        "subheading": "",
        "title": "Last Call Sale",
        "title_size": 46,
        "use_h1": false,
        "text": "",
        "enlarge_text": true,
        "button_label": "Shop now",
        "image_link": "shopify:\/\/collections\/sale",
        "text_alignment": "center center",
        "full_width": true,
        "mobile_overlay_under": false,
        "overlay_style": "full"
      }
    }
  },
  "order": [
    "main",
    "1649947048eaf7e450",
    "7ad88f3f-31cc-4a5a-bc0e-84ed1f1d9c29",
    "c9753f17-1762-43ee-875c-900a3436fd02",
    "35e11590-404d-42c7-be92-1bca5c5bbb04",
    "fee3760c-1008-4e05-a344-b64dfb5c24d0",
    "989b8bfb-5e11-4ec6-ae88-12a354045f48",
    "80571aeb-6f81-40cc-81d7-fa4330e0ed14",
    "67eeed0f-fa69-4537-a04a-c77bc1fd48df",
    "recommendations",
    "1637660518324c9917",
    "e818465e-6c5b-4806-8d24-5a152b68023d"
  ]
}