{
  "sections": {
    "main": {
      "type": "main-product",
      "blocks": {
        "title": {
          "type": "title",
          "settings": {}
        },
        "5299b5a6-6b97-405c-b9a7-a136e22fe9a4": {
          "type": "shopify:\/\/apps\/yotpo-product-photo-reviews\/blocks\/star-rating\/eb7dfd7d-db44-4334-bc49-c893b51b36cf",
          "settings": {
            "product": "{{product}}"
          }
        },
        "price": {
          "type": "price",
          "settings": {
            "show_tax_and_shipping": false
          }
        },
        "e16eb14b-0ba9-4180-a2c8-c26223761a76": {
          "type": "variant_picker",
          "settings": {
            "show_single": true,
            "show_size_chart": false,
            "size_chart_variant": "Size Guide",
            "size_chart_page": "size-guide-loungewear"
          }
        },
        "1d0aa8f9-171e-4f36-95bf-3bcf803cc458": {
          "type": "richtext",
          "settings": {
            "richtext": "<p><strong>Free delivery on orders over $100.<\/strong><\/p>",
            "show_in_quickbuy": false
          }
        },
        "buy_buttons": {
          "type": "buy_buttons",
          "settings": {
            "show_quantity_selector": false,
            "enable_payment_button": false,
            "show_backorder_text": false,
            "show_inventory_notice": false,
            "inventory_notice_threshold": 10,
            "show_pickup_availability": true
          }
        },
        "994447e9-3922-4951-95dd-6b7e134286de": {
          "type": "richtext",
          "settings": {
            "richtext": "",
            "show_in_quickbuy": false
          }
        },
        "030b31b0-dc19-48de-a6b7-fc930a945e63": {
          "type": "accordion",
          "settings": {
            "title": "DETAILS",
            "content": "<p>Travel together with this super comfortable, modular travel carrier. It has breathable mesh walls, a dual-use leash\/shoulder strap, and an interior cushion that folds out to make a comfortable dog bed. Our airline-compliant carrier is the home away from home that your dog deserves.<\/p><p><strong>* Breathable mesh walls<\/strong><\/p><p><strong>* Removable travel mat<\/strong><\/p><p><strong>* Practical and portable<\/strong><\/p><p><strong>* Non-slip shoulder strap<\/strong><\/p>",
            "page": "",
            "open": false,
            "show_in_quickbuy": false
          }
        },
        "e6e00af3-73f3-4b24-9ffd-9c6239f0b70a": {
          "type": "accordion",
          "disabled": true,
          "settings": {
            "title": "SIZE TO FIT",
            "content": "<p>The top is designed to be oversized. Shorts are designed with an easy and relaxed fit.<\/p>",
            "page": "",
            "open": false,
            "show_in_quickbuy": false
          }
        },
        "6992ed0b-4b88-440e-aac3-260c5784dc8f": {
          "type": "accordion",
          "disabled": true,
          "settings": {
            "title": "FABRIC",
            "content": "<p><strong>47%  Rayon + 41% Nylon + 12% Spandex <\/strong><\/p>",
            "page": "",
            "open": false,
            "show_in_quickbuy": false
          }
        },
        "2b7d1c40-60e4-4d88-a7ac-ed09871c5217": {
          "type": "accordion",
          "settings": {
            "title": "SIZE",
            "content": "<p><strong>50 X 33 X 32\/19.7'' x 13'' x 12.5''<\/strong><\/p><p>*CM\/Inches<\/p>",
            "page": "",
            "open": false,
            "show_in_quickbuy": false
          }
        },
        "572270c6-2676-4c39-a468-53536a802d56": {
          "type": "accordion",
          "disabled": true,
          "settings": {
            "title": "CARE",
            "content": "<p>It couldn't be easier or more efficient to care for: our quick dry technology makes laundry futuristically fast. And unlike other fabrics that break down over wash and wear cycles, ours gets even softer and more comfortable over time.<\/p><p><strong>We recommend you to follow these tips:<\/strong><br\/>Natural Detergent <br\/>Machine Wash Cold <br\/>Do Not Bleach <br\/>Machine Dry Low Heat <br\/>Max Temp 110°C or 230°F<\/p>",
            "page": "",
            "open": false,
            "show_in_quickbuy": false
          }
        },
        "b0e70b84-1c21-4ec4-ac98-21c062c028d0": {
          "type": "sharing",
          "settings": {
            "show_in_quickbuy": false
          }
        }
      },
      "block_order": [
        "title",
        "5299b5a6-6b97-405c-b9a7-a136e22fe9a4",
        "price",
        "e16eb14b-0ba9-4180-a2c8-c26223761a76",
        "1d0aa8f9-171e-4f36-95bf-3bcf803cc458",
        "buy_buttons",
        "994447e9-3922-4951-95dd-6b7e134286de",
        "030b31b0-dc19-48de-a6b7-fc930a945e63",
        "e6e00af3-73f3-4b24-9ffd-9c6239f0b70a",
        "6992ed0b-4b88-440e-aac3-260c5784dc8f",
        "2b7d1c40-60e4-4d88-a7ac-ed09871c5217",
        "572270c6-2676-4c39-a468-53536a802d56",
        "b0e70b84-1c21-4ec4-ac98-21c062c028d0"
      ],
      "settings": {
        "show_breadcrumbs": false,
        "show_location_underneath": false,
        "inventory_transfers_enable": false,
        "gallery_size": "large",
        "prod_gall_thumbs_under": "under",
        "enable_sticky_gallery": true,
        "enable_zoom": true,
        "enable_video_looping": true
      }
    },
    "1649947048eaf7e450": {
      "type": "background-video",
      "disabled": true,
      "settings": {
        "video": "https:\/\/www.youtube.com\/watch?v=MV7ewcqftng",
        "placeholder_image": "shopify:\/\/shop_images\/Untitled-1_0ad4ce9a-416e-46e9-97b2-5c2e988cab0e.jpg",
        "subheading": "",
        "title": "",
        "title_size": 34,
        "use_h1": false,
        "text": "",
        "enlarge_text": false,
        "button_label": "",
        "button_link": "",
        "text_alignment": "center center",
        "height_desktop": 1000,
        "height_mobile": 500,
        "full_width": true,
        "overlay_style": "no_background"
      }
    },
    "16499471369440bd83": {
      "type": "collection-list",
      "blocks": {
        "fe3acfcb-370e-4656-b143-e0ee7be0ca9f": {
          "type": "collection",
          "settings": {
            "collection": "starry-night-set",
            "image": "shopify:\/\/shop_images\/full_a555c582-ef43-4271-9415-c554df6f44fd.jpg"
          }
        },
        "189856bb-f25a-4218-8a0a-b9669088e41f": {
          "type": "collection",
          "settings": {
            "collection": "vanilla-dream-set",
            "image": "shopify:\/\/shop_images\/full-angled_e4250a7e-640f-4bc0-a4b2-f3a1fb5556d4.jpg"
          }
        },
        "66b7566a-5717-4acc-bff4-045b0993715d": {
          "type": "collection",
          "settings": {
            "collection": "milky-white-set",
            "image": "shopify:\/\/shop_images\/full-front.jpg"
          }
        },
        "e0448535-abde-4bdf-bd8e-cf1f030c4006": {
          "type": "collection",
          "settings": {
            "collection": "contemplating-blue",
            "image": "shopify:\/\/shop_images\/ide_2fe69e21-43ae-497f-b162-91109ab34b1b.jpg"
          }
        },
        "e08e4ca4-6057-4135-89ba-cbcd75622c97": {
          "type": "collection",
          "settings": {
            "collection": "silver-veil-set",
            "image": "shopify:\/\/shop_images\/Full-side_85a8661a-aa05-491f-9e30-e7d031a2937e.jpg"
          }
        }
      },
      "block_order": [
        "fe3acfcb-370e-4656-b143-e0ee7be0ca9f",
        "189856bb-f25a-4218-8a0a-b9669088e41f",
        "66b7566a-5717-4acc-bff4-045b0993715d",
        "e0448535-abde-4bdf-bd8e-cf1f030c4006",
        "e08e4ca4-6057-4135-89ba-cbcd75622c97"
      ],
      "disabled": true,
      "settings": {
        "title": "Discover loungewear collection",
        "enable_carousel": true,
        "grid": 3,
        "use_alt_bg": true,
        "full_width": true
      }
    },
    "recommendations": {
      "type": "product-recommendations",
      "disabled": true,
      "settings": {
        "title": "Related products",
        "show_vendor": false,
        "grid": 2
      }
    },
    "1637660518324c9917": {
      "type": "apps",
      "blocks": {
        "302f972d-47a0-4358-a255-2bf9037d4092": {
          "type": "shopify:\/\/apps\/yotpo-product-photo-reviews\/blocks\/reviews\/eb7dfd7d-db44-4334-bc49-c893b51b36cf",
          "settings": {
            "product": "{{product}}"
          }
        }
      },
      "block_order": [
        "302f972d-47a0-4358-a255-2bf9037d4092"
      ],
      "settings": {
        "full_width": false
      }
    },
    "63be74a9-2e13-4ea1-9a1b-5f26d4a01932": {
      "type": "featured-collection",
      "settings": {
        "title": "Featured collection",
        "collection": "pet-accessories",
        "show_vendor": false,
        "enable_carousel": false,
        "grid": 4,
        "rows": 4,
        "use_alt_bg": false,
        "show_view_all": false,
        "full_width": true
      }
    }
  },
  "order": [
    "main",
    "1649947048eaf7e450",
    "16499471369440bd83",
    "recommendations",
    "1637660518324c9917",
    "63be74a9-2e13-4ea1-9a1b-5f26d4a01932"
  ]
}