{
  "sections": {
    "main": {
      "type": "main-product",
      "blocks": {
        "title": {
          "type": "title",
          "settings": {}
        },
        "95d4f0e1-d803-4fde-a840-90b0ca429e6d": {
          "type": "shopify:\/\/apps\/yotpo-product-photo-reviews\/blocks\/star-rating\/eb7dfd7d-db44-4334-bc49-c893b51b36cf",
          "settings": {
            "product": "{{product}}"
          }
        },
        "price": {
          "type": "price",
          "settings": {
            "show_tax_and_shipping": false
          }
        },
        "e16eb14b-0ba9-4180-a2c8-c26223761a76": {
          "type": "variant_picker",
          "settings": {
            "show_single": false,
            "show_size_chart": true,
            "size_chart_variant": "Size Guide",
            "size_chart_page": "size-guide-loungewear"
          }
        },
        "6cccffce-d381-4e20-890c-a649f6213e9b": {
          "type": "richtext",
          "settings": {
            "richtext": "<p><strong>Includes short-sleeve top and pants.<\/strong><\/p>",
            "show_in_quickbuy": false
          }
        },
        "994447e9-3922-4951-95dd-6b7e134286de": {
          "type": "richtext",
          "settings": {
            "richtext": "<p><strong>Free delivery on orders over $100.<\/strong><\/p>",
            "show_in_quickbuy": false
          }
        },
        "buy_buttons": {
          "type": "buy_buttons",
          "settings": {
            "show_quantity_selector": false,
            "enable_payment_button": true,
            "show_backorder_text": false,
            "show_inventory_notice": false,
            "inventory_notice_threshold": 10,
            "show_pickup_availability": true
          }
        },
        "ba58b819-3956-47bd-9e96-6f00d5539d0c": {
          "type": "image",
          "disabled": true,
          "settings": {
            "image": "shopify:\/\/shop_images\/pajamas_size_guide_0b59f9be-f721-4c2a-919c-3b0b80f32816.png",
            "image_width": 700,
            "url": "",
            "show_in_quickbuy": false
          }
        },
        "030b31b0-dc19-48de-a6b7-fc930a945e63": {
          "type": "accordion",
          "settings": {
            "title": "DETAILS",
            "content": "<p><strong>Gender-fluid style suits many body types<\/strong><\/p><p>Our oxford pants set features an easy and clean short-sleeved button-down style, crisp collar, and breast pocket detail. Comes with matching, relaxed fit, drawstring trousers with roomy pockets. <\/p><p><strong>Breathable and weather-adaptable <\/strong><\/p><p>It's cooling, moisture-wicking and quick to dry — ready to regulate your temperature in any climate. Silky smooth, soft, and naturally breathable <\/p><p><strong>A style for night-to-day or day-to-night <\/strong><\/p><p>Perfect to transition from late morning wake-up to your first Zoom of the day with elegance and ease.<\/p><p><strong>Hypoallergenic and ultra soft for even the most sensitive skin <\/strong><\/p><p>Brilliant breathability, and second-skin softness — perfect for even the most sensitive of skin.<\/p>",
            "page": "",
            "open": false,
            "show_in_quickbuy": false
          }
        },
        "41e8e499-9dce-4a02-bf60-0a62da3862bf": {
          "type": "accordion",
          "settings": {
            "title": "FABRIC",
            "content": "<p><strong>70% Eucalyptus Tencel + 30% Cotton<\/strong><\/p><p>Has a familiar snap and crispness reminiscent of a high-end oxford button-down— but softened to a cooling, powdery smooth finish with just the right amount of stretch.<\/p><p>This blend offers more structure than our 100% Eucalyptus Tencel pieces, and feature a forgiving (and flattering) moderate drape.<\/p><p>Our fibers are antibacterial, antimicrobial, and hypoallergenic, while our weave repels static dirt, dust, hair and fur and resists tugs, snags, and tears — making them family and pet friendly.<\/p><p>To call this fabric breathable and weather-adaptable is an understatement: it offers futuristic temperature-regulation so you're never too warm in winter or cool in summer.<\/p>",
            "page": "",
            "open": false,
            "show_in_quickbuy": false
          }
        },
        "6992ed0b-4b88-440e-aac3-260c5784dc8f": {
          "type": "accordion",
          "settings": {
            "title": "FIT & SIZE",
            "content": "<p>Model is 5'8 wearing size M<\/p>",
            "page": "",
            "open": false,
            "show_in_quickbuy": false
          }
        },
        "572270c6-2676-4c39-a468-53536a802d56": {
          "type": "accordion",
          "settings": {
            "title": "CARE",
            "content": "<p>Soft and smooth, elegant and effortless, this fabric makes care and maintenance as easy as can be. It machine washes and dries super quickly, making it ideal for your demanding lifestyle. And unlike other fabrics that break down over wash and wear cycles, ours gets even softer and more comfortable over time.<\/p><p><strong>We recommend you to follow these tips:<\/strong><\/p><p>Neutral Detergent<br\/>Machine Wash Cold <br\/>Do Not Bleach <br\/>Machine Dry Low Heat <br\/>Max Temp 110°C or 230°F<\/p>",
            "page": "",
            "open": false,
            "show_in_quickbuy": false
          }
        },
        "d9614002-9090-429e-a49f-4ed258d292e1": {
          "type": "image",
          "settings": {
            "image_width": 700,
            "url": "",
            "show_in_quickbuy": false
          }
        },
        "dfb571ed-a717-4003-a633-3711277d1d24": {
          "type": "image",
          "settings": {
            "image_width": 700,
            "url": "",
            "show_in_quickbuy": false
          }
        },
        "72636f6e-905d-421e-a6f9-fbad4f4051d6": {
          "type": "sharing",
          "settings": {
            "show_in_quickbuy": false
          }
        }
      },
      "block_order": [
        "title",
        "95d4f0e1-d803-4fde-a840-90b0ca429e6d",
        "price",
        "e16eb14b-0ba9-4180-a2c8-c26223761a76",
        "6cccffce-d381-4e20-890c-a649f6213e9b",
        "994447e9-3922-4951-95dd-6b7e134286de",
        "buy_buttons",
        "ba58b819-3956-47bd-9e96-6f00d5539d0c",
        "030b31b0-dc19-48de-a6b7-fc930a945e63",
        "41e8e499-9dce-4a02-bf60-0a62da3862bf",
        "6992ed0b-4b88-440e-aac3-260c5784dc8f",
        "572270c6-2676-4c39-a468-53536a802d56",
        "d9614002-9090-429e-a49f-4ed258d292e1",
        "dfb571ed-a717-4003-a633-3711277d1d24",
        "72636f6e-905d-421e-a6f9-fbad4f4051d6"
      ],
      "settings": {
        "show_breadcrumbs": false,
        "show_location_underneath": false,
        "inventory_transfers_enable": false,
        "gallery_size": "large",
        "prod_gall_thumbs_under": "under",
        "enable_sticky_gallery": true,
        "enable_zoom": true,
        "enable_video_looping": true
      }
    },
    "1649947048eaf7e450": {
      "type": "background-video",
      "disabled": true,
      "settings": {
        "video": "https:\/\/cdn.shopify.com\/videos\/c\/o\/v\/243fedac91fe4d23a2c5d5c6059176dc.mp4",
        "placeholder_image": "shopify:\/\/shop_images\/video-holder.jpg",
        "subheading": "",
        "title": "",
        "title_size": 34,
        "use_h1": false,
        "text": "",
        "enlarge_text": false,
        "button_label": "",
        "button_link": "",
        "text_alignment": "center center",
        "height_desktop": 1000,
        "height_mobile": 500,
        "full_width": true,
        "overlay_style": "no_background"
      }
    },
    "16499471369440bd83": {
      "type": "collection-list",
      "blocks": {
        "fe3acfcb-370e-4656-b143-e0ee7be0ca9f": {
          "type": "collection",
          "settings": {
            "collection": "starry-night-set",
            "image": "shopify:\/\/shop_images\/full_a555c582-ef43-4271-9415-c554df6f44fd.jpg"
          }
        },
        "189856bb-f25a-4218-8a0a-b9669088e41f": {
          "type": "collection",
          "settings": {
            "collection": "vanilla-dream-set",
            "image": "shopify:\/\/shop_images\/full-angled_e4250a7e-640f-4bc0-a4b2-f3a1fb5556d4.jpg"
          }
        },
        "66b7566a-5717-4acc-bff4-045b0993715d": {
          "type": "collection",
          "settings": {
            "collection": "milky-white-set",
            "image": "shopify:\/\/shop_images\/full-front.jpg"
          }
        },
        "e0448535-abde-4bdf-bd8e-cf1f030c4006": {
          "type": "collection",
          "settings": {
            "collection": "contemplating-blue-set",
            "image": "shopify:\/\/shop_images\/ide_2fe69e21-43ae-497f-b162-91109ab34b1b.jpg"
          }
        },
        "e08e4ca4-6057-4135-89ba-cbcd75622c97": {
          "type": "collection",
          "settings": {
            "collection": "silver-veil-set",
            "image": "shopify:\/\/shop_images\/Full-side_85a8661a-aa05-491f-9e30-e7d031a2937e.jpg"
          }
        }
      },
      "block_order": [
        "fe3acfcb-370e-4656-b143-e0ee7be0ca9f",
        "189856bb-f25a-4218-8a0a-b9669088e41f",
        "66b7566a-5717-4acc-bff4-045b0993715d",
        "e0448535-abde-4bdf-bd8e-cf1f030c4006",
        "e08e4ca4-6057-4135-89ba-cbcd75622c97"
      ],
      "disabled": true,
      "settings": {
        "title": "Discover loungewear collection",
        "enable_carousel": true,
        "grid": 3,
        "use_alt_bg": true,
        "full_width": true
      }
    },
    "recommendations": {
      "type": "product-recommendations",
      "disabled": true,
      "settings": {
        "title": "Related products",
        "show_vendor": false,
        "grid": 2
      }
    },
    "16570207546deb1bae": {
      "type": "testimonials",
      "blocks": {
        "1657020754dedd60d8-0": {
          "type": "testimonial",
          "settings": {
            "star_rating": 5,
            "testimonial": "Mimi",
            "author": "I absolutely love my new loungewear. It's cooling & soft. You can wear it outside too.",
            "image": "shopify:\/\/shop_images\/Untitled-1_8af45736-e29d-4716-8bc0-4fe27b013dd6.png",
            "image_alignment": "center center",
            "image_caption": "",
            "link": ""
          }
        },
        "1657020754dedd60d8-1": {
          "type": "testimonial",
          "settings": {
            "star_rating": 5,
            "testimonial": "Looks nice & feels comfortable Indoors and Outdoors. Also a must have for pet families!",
            "author": "sana",
            "image": "shopify:\/\/shop_images\/kol_kol-1.png",
            "image_alignment": "center center",
            "image_caption": "",
            "link": ""
          }
        }
      },
      "block_order": [
        "1657020754dedd60d8-0",
        "1657020754dedd60d8-1"
      ],
      "disabled": true,
      "settings": {
        "title": "Customer reviews",
        "layout": "image-left",
        "image_shape": "square",
        "use_alt_bg": false
      }
    },
    "1637660518324c9917": {
      "type": "apps",
      "settings": {
        "full_width": false
      }
    },
    "c6f74049-925d-4197-b837-f7e482bc14b3": {
      "type": "featured-collection",
      "settings": {
        "title": "Styles You May Like",
        "collection": "loungewear",
        "show_vendor": false,
        "enable_carousel": true,
        "grid": 2,
        "rows": 1,
        "use_alt_bg": false,
        "show_view_all": false,
        "full_width": true
      }
    },
    "166d1db4-4f13-45df-b920-3d5c84a6b33d": {
      "type": "slideshow",
      "blocks": {
        "template--15704604639428__166d1db4-4f13-45df-b920-3d5c84a6b33d-16663195009786bd51-0": {
          "type": "image",
          "settings": {
            "image": "shopify:\/\/shop_images\/brand_intro_2_71449a2a-2862-4163-86a2-6ed1ffc5c98f.png",
            "mobile_image": "shopify:\/\/shop_images\/banner_6_b8549a8c-0f98-4d6e-93d0-849730885c31.png",
            "image_position": "center center",
            "slide_link": "",
            "subheading": "",
            "title": "What pajamas are best for people with dogs and cats? \nslashop",
            "title_size": 38,
            "text": "",
            "enlarge_text": true,
            "button_label": "",
            "text_alignment": "center center"
          }
        },
        "template--15704604639428__166d1db4-4f13-45df-b920-3d5c84a6b33d-16663195009786bd51-1": {
          "type": "image",
          "settings": {
            "image": "shopify:\/\/shop_images\/brand-intro-1_0665f17b-889b-4e44-8103-13400a9a27f3.jpg",
            "mobile_image": "shopify:\/\/shop_images\/banner_4_ff2e72c4-2d12-44cd-b8ee-95dd97820475.jpg",
            "image_position": "center center",
            "slide_link": "",
            "subheading": "",
            "title": "We redesign all textile essentials to meet the pet family’s needs, with the environment in mind",
            "title_size": 38,
            "text": "",
            "enlarge_text": true,
            "button_label": "",
            "text_alignment": "center center"
          }
        },
        "bf34052b-025b-4642-9bbb-9bcb59f81b7e": {
          "type": "image",
          "settings": {
            "image": "shopify:\/\/shop_images\/banner_3_a4e98c87-512c-4a4d-8697-a2f799ef8832.png",
            "mobile_image": "shopify:\/\/shop_images\/banner_5_f9f74646-a40b-4cbc-a7e0-43bd68acbe05.jpg",
            "image_position": "center center",
            "slide_link": "",
            "subheading": "",
            "title": "Welcome furry friends to your life, easy and free",
            "title_size": 38,
            "text": "",
            "enlarge_text": true,
            "button_label": "",
            "text_alignment": "center center"
          }
        }
      },
      "block_order": [
        "template--15704604639428__166d1db4-4f13-45df-b920-3d5c84a6b33d-16663195009786bd51-0",
        "template--15704604639428__166d1db4-4f13-45df-b920-3d5c84a6b33d-16663195009786bd51-1",
        "bf34052b-025b-4642-9bbb-9bcb59f81b7e"
      ],
      "settings": {
        "height": "adapt",
        "height_desktop": 640,
        "height_mobile": 520,
        "full_width": true,
        "mobile_overlay_under": false,
        "overlay_style": "full",
        "slide_transition": "fade",
        "slide_navigation": "arrows",
        "autoplay": true,
        "autoplay_speed": 3
      }
    },
    "3dde6d5f-f22a-4d8b-bbde-3fb5145ab9fd": {
      "type": "rich-text",
      "blocks": {
        "template--15704604639428__3dde6d5f-f22a-4d8b-bbde-3fb5145ab9fd-16663400768cf79fe7-0": {
          "type": "subheading",
          "settings": {
            "subheading": ""
          }
        },
        "template--15704604639428__3dde6d5f-f22a-4d8b-bbde-3fb5145ab9fd-16663400768cf79fe7-1": {
          "type": "heading",
          "settings": {
            "title": "Why slashop Pajamas?",
            "use_h1": false
          }
        },
        "template--15704604639428__3dde6d5f-f22a-4d8b-bbde-3fb5145ab9fd-16663400768cf79fe7-2": {
          "type": "text",
          "settings": {
            "text": "<p>Learn about fabric and features<\/p>",
            "enlarge_text": false
          }
        }
      },
      "block_order": [
        "template--15704604639428__3dde6d5f-f22a-4d8b-bbde-3fb5145ab9fd-16663400768cf79fe7-0",
        "template--15704604639428__3dde6d5f-f22a-4d8b-bbde-3fb5145ab9fd-16663400768cf79fe7-1",
        "template--15704604639428__3dde6d5f-f22a-4d8b-bbde-3fb5145ab9fd-16663400768cf79fe7-2"
      ],
      "settings": {
        "height": "medium",
        "text_alignment": "center",
        "full_width": false,
        "use_alt_bg": false
      }
    },
    "20094514-379a-4665-b4e0-c0cc24b9661b": {
      "type": "custom-row",
      "blocks": {
        "template--15704604639428__20094514-379a-4665-b4e0-c0cc24b9661b-1666340092e9c99c82-0": {
          "type": "image",
          "settings": {
            "width": "third",
            "image": "shopify:\/\/shop_images\/20221021-140100.png",
            "image_position": "center center",
            "height": "fixed",
            "height_desktop": 480,
            "height_mobile": 360,
            "subheading": "",
            "title": "",
            "text": "",
            "enlarge_text": false,
            "button_label": "",
            "image_link": "",
            "text_alignment": "center center",
            "mobile_overlay_under": false,
            "overlay_style": "full"
          }
        },
        "template--15704604639428__20094514-379a-4665-b4e0-c0cc24b9661b-1666340092e9c99c82-1": {
          "type": "text",
          "settings": {
            "width": "half",
            "subheading": "",
            "title": "Beyond sleepwear",
            "text": "<p><strong>Wear pajamas to walk your dog<\/strong><\/p><p>Who doesn't want to walk the dog without changing?  slashop pajamas are designed to be elegant and ease, from a late morning wake up to walking directly in street. <\/p>",
            "button_label": "",
            "button_link": "",
            "button_style": "primary",
            "text_alignment": "left"
          }
        }
      },
      "block_order": [
        "template--15704604639428__20094514-379a-4665-b4e0-c0cc24b9661b-1666340092e9c99c82-0",
        "template--15704604639428__20094514-379a-4665-b4e0-c0cc24b9661b-1666340092e9c99c82-1"
      ],
      "settings": {
        "alignment": "middle"
      }
    },
    "5bd6c97a-39c3-4fc2-b07d-90a5584238f0": {
      "type": "custom-row",
      "blocks": {
        "template--15704604639428__5bd6c97a-39c3-4fc2-b07d-90a5584238f0-1666340092e9c99c82-0": {
          "type": "image",
          "settings": {
            "width": "third",
            "image": "shopify:\/\/shop_images\/20221021-140110.png",
            "image_position": "center center",
            "height": "fixed",
            "height_desktop": 480,
            "height_mobile": 360,
            "subheading": "",
            "title": "",
            "text": "",
            "enlarge_text": false,
            "button_label": "",
            "image_link": "",
            "text_alignment": "center center",
            "mobile_overlay_under": false,
            "overlay_style": "full"
          }
        },
        "template--15704604639428__5bd6c97a-39c3-4fc2-b07d-90a5584238f0-1666340092e9c99c82-1": {
          "type": "text",
          "settings": {
            "width": "half",
            "subheading": "",
            "title": "Fur & Scratch Resistant",
            "text": "<p><strong>Perfect for families with dogs and cats<\/strong><\/p><p>Slashop innovative plant based fabric is anti-static, effectively prevents hair and dust stuck on clothes. It also improves toughness for snag-free performance; no more claw scratches and holes.<\/p>",
            "button_label": "",
            "button_link": "",
            "button_style": "primary",
            "text_alignment": "left"
          }
        }
      },
      "block_order": [
        "template--15704604639428__5bd6c97a-39c3-4fc2-b07d-90a5584238f0-1666340092e9c99c82-0",
        "template--15704604639428__5bd6c97a-39c3-4fc2-b07d-90a5584238f0-1666340092e9c99c82-1"
      ],
      "settings": {
        "alignment": "middle"
      }
    },
    "ea03cc88-8fc2-4c38-9f3a-4b672075bd1e": {
      "type": "rich-text",
      "blocks": {
        "template--15704604639428__ea03cc88-8fc2-4c38-9f3a-4b672075bd1e-16663400768cf79fe7-0": {
          "type": "subheading",
          "settings": {
            "subheading": ""
          }
        },
        "template--15704604639428__ea03cc88-8fc2-4c38-9f3a-4b672075bd1e-16663400768cf79fe7-1": {
          "type": "heading",
          "settings": {
            "title": "Furry friends approved",
            "use_h1": false
          }
        },
        "template--15704604639428__ea03cc88-8fc2-4c38-9f3a-4b672075bd1e-16663400768cf79fe7-2": {
          "type": "text",
          "settings": {
            "text": "<p>Follow @slashopofficial to find more<\/p>",
            "enlarge_text": false
          }
        }
      },
      "block_order": [
        "template--15704604639428__ea03cc88-8fc2-4c38-9f3a-4b672075bd1e-16663400768cf79fe7-0",
        "template--15704604639428__ea03cc88-8fc2-4c38-9f3a-4b672075bd1e-16663400768cf79fe7-1",
        "template--15704604639428__ea03cc88-8fc2-4c38-9f3a-4b672075bd1e-16663400768cf79fe7-2"
      ],
      "settings": {
        "height": "medium",
        "text_alignment": "center",
        "full_width": false,
        "use_alt_bg": false
      }
    },
    "d9de616a-535c-4266-8f69-bf04ab48b518": {
      "type": "gallery",
      "blocks": {
        "template--15704604639428__d9de616a-535c-4266-8f69-bf04ab48b518-1666340335984e5d6d-0": {
          "type": "image",
          "settings": {
            "image": "shopify:\/\/shop_images\/20221021-140042.png",
            "alignment": "center center",
            "enlarge_image": false,
            "subheading": "",
            "title": "",
            "button_label": "",
            "link": "",
            "text_alignment": "center center"
          }
        },
        "template--15704604639428__d9de616a-535c-4266-8f69-bf04ab48b518-1666340335984e5d6d-1": {
          "type": "image",
          "settings": {
            "image": "shopify:\/\/shop_images\/20221021-140036.png",
            "alignment": "center center",
            "enlarge_image": false,
            "subheading": "",
            "title": "",
            "button_label": "",
            "link": "",
            "text_alignment": "center center"
          }
        },
        "template--15704604639428__d9de616a-535c-4266-8f69-bf04ab48b518-1666340335984e5d6d-2": {
          "type": "image",
          "settings": {
            "image": "shopify:\/\/shop_images\/20221021-140028.png",
            "alignment": "center center",
            "enlarge_image": false,
            "subheading": "",
            "title": "",
            "button_label": "",
            "link": "",
            "text_alignment": "center center"
          }
        }
      },
      "block_order": [
        "template--15704604639428__d9de616a-535c-4266-8f69-bf04ab48b518-1666340335984e5d6d-0",
        "template--15704604639428__d9de616a-535c-4266-8f69-bf04ab48b518-1666340335984e5d6d-1",
        "template--15704604639428__d9de616a-535c-4266-8f69-bf04ab48b518-1666340335984e5d6d-2"
      ],
      "settings": {
        "grid": 3,
        "desktop_image_height": 400,
        "mobile_image_height": 400,
        "enable_margin": true,
        "full_width": false,
        "use_alt_bg": false,
        "enable_carousel": true,
        "overlay_style": "full",
        "button_style": "primary"
      }
    },
    "1666329489fe2a7d9e": {
      "type": "apps",
      "blocks": {
        "f0a7b1de-a0ef-4bc2-a670-15d829e6a988": {
          "type": "shopify:\/\/apps\/yotpo-product-photo-reviews\/blocks\/reviews\/eb7dfd7d-db44-4334-bc49-c893b51b36cf",
          "settings": {
            "product": "{{product}}"
          }
        }
      },
      "block_order": [
        "f0a7b1de-a0ef-4bc2-a670-15d829e6a988"
      ],
      "settings": {
        "full_width": false
      }
    },
    "8e48573d-235b-42a4-8279-83eb32fa0aaa": {
      "type": "image-with-text-overlay",
      "settings": {
        "image": "shopify:\/\/shop_images\/banner_sale_9f9124b4-7069-4d80-830f-76a169591ce9.png",
        "image_position": "center center",
        "height": "fixed",
        "height_desktop": 440,
        "height_mobile": 220,
        "subheading": "",
        "title": "Last Call Sale",
        "title_size": 46,
        "use_h1": false,
        "text": "",
        "enlarge_text": true,
        "button_label": "Shop now",
        "image_link": "shopify:\/\/collections\/sale",
        "text_alignment": "center center",
        "full_width": true,
        "mobile_overlay_under": false,
        "overlay_style": "full"
      }
    }
  },
  "order": [
    "main",
    "1649947048eaf7e450",
    "16499471369440bd83",
    "recommendations",
    "16570207546deb1bae",
    "1637660518324c9917",
    "c6f74049-925d-4197-b837-f7e482bc14b3",
    "166d1db4-4f13-45df-b920-3d5c84a6b33d",
    "3dde6d5f-f22a-4d8b-bbde-3fb5145ab9fd",
    "20094514-379a-4665-b4e0-c0cc24b9661b",
    "5bd6c97a-39c3-4fc2-b07d-90a5584238f0",
    "ea03cc88-8fc2-4c38-9f3a-4b672075bd1e",
    "d9de616a-535c-4266-8f69-bf04ab48b518",
    "1666329489fe2a7d9e",
    "8e48573d-235b-42a4-8279-83eb32fa0aaa"
  ]
}