{
  "sections": {
    "main": {
      "type": "main-product",
      "blocks": {
        "title": {
          "type": "title",
          "settings": {}
        },
        "8ec027b3-a73b-43e7-ab41-d1f38c94ed67": {
          "type": "shopify:\/\/apps\/yotpo-product-photo-reviews\/blocks\/star-rating\/eb7dfd7d-db44-4334-bc49-c893b51b36cf",
          "settings": {
            "product": "{{product}}"
          }
        },
        "price": {
          "type": "price",
          "settings": {
            "show_tax_and_shipping": false
          }
        },
        "e16eb14b-0ba9-4180-a2c8-c26223761a76": {
          "type": "variant_picker",
          "settings": {
            "show_single": true,
            "show_size_chart": false,
            "size_chart_variant": "Size Guide",
            "size_chart_page": "size-guide_matcha-mood"
          }
        },
        "994447e9-3922-4951-95dd-6b7e134286de": {
          "type": "richtext",
          "settings": {
            "richtext": "<p><strong>Free delivery on orders over $100.<\/strong><\/p>",
            "show_in_quickbuy": false
          }
        },
        "buy_buttons": {
          "type": "buy_buttons",
          "settings": {
            "show_quantity_selector": false,
            "enable_payment_button": true,
            "show_backorder_text": false,
            "show_inventory_notice": false,
            "inventory_notice_threshold": 10,
            "show_pickup_availability": true
          }
        },
        "ba58b819-3956-47bd-9e96-6f00d5539d0c": {
          "type": "image",
          "disabled": true,
          "settings": {
            "image": "shopify:\/\/shop_images\/pajamas_size_guide_0b59f9be-f721-4c2a-919c-3b0b80f32816.png",
            "image_width": 700,
            "url": "",
            "show_in_quickbuy": false
          }
        },
        "030b31b0-dc19-48de-a6b7-fc930a945e63": {
          "type": "accordion",
          "settings": {
            "title": "DETAILS",
            "content": "<p>Our daily essential socks keep you cozy and comfortable on your feet, all day and night long. <br\/>Our viscose\/nylon blend makes them soft and breathable, but highly durable and long lasting. <br\/>They're also odor resistant, so say farewell to funky feet!  <\/p>",
            "page": "",
            "open": false,
            "show_in_quickbuy": false
          }
        },
        "6992ed0b-4b88-440e-aac3-260c5784dc8f": {
          "type": "accordion",
          "settings": {
            "title": "FABRIC",
            "content": "<p>*Soft and comfortable polyester.<br\/>*Breathable, naturally moisture-wicking and odour resistant.<br\/>*Natural and non-synthetic, made from sustainable plant-based fibres.<\/p>",
            "page": "",
            "open": false,
            "show_in_quickbuy": false
          }
        },
        "4a2ed4a5-b006-4bcc-befc-a50334618390": {
          "type": "accordion",
          "settings": {
            "title": "FIT & SIZE",
            "content": "<p>Fits US size 5-8 shoe (UK size 3-6 shoe\/ EU size 35-38 shoe)<\/p>",
            "page": "",
            "open": false,
            "show_in_quickbuy": false
          }
        },
        "572270c6-2676-4c39-a468-53536a802d56": {
          "type": "accordion",
          "settings": {
            "title": "CARE",
            "content": "<p><strong>We recommend you to follow these tips:<\/strong><br\/>Neutral Detergent<br\/>Machine Wash Cold<br\/>Do Not Bleach<\/p>",
            "page": "",
            "open": false,
            "show_in_quickbuy": false
          }
        },
        "d9614002-9090-429e-a49f-4ed258d292e1": {
          "type": "image",
          "settings": {
            "image_width": 700,
            "url": "",
            "show_in_quickbuy": false
          }
        },
        "dfb571ed-a717-4003-a633-3711277d1d24": {
          "type": "image",
          "settings": {
            "image_width": 700,
            "url": "",
            "show_in_quickbuy": false
          }
        },
        "72636f6e-905d-421e-a6f9-fbad4f4051d6": {
          "type": "sharing",
          "settings": {
            "show_in_quickbuy": false
          }
        }
      },
      "block_order": [
        "title",
        "8ec027b3-a73b-43e7-ab41-d1f38c94ed67",
        "price",
        "e16eb14b-0ba9-4180-a2c8-c26223761a76",
        "994447e9-3922-4951-95dd-6b7e134286de",
        "buy_buttons",
        "ba58b819-3956-47bd-9e96-6f00d5539d0c",
        "030b31b0-dc19-48de-a6b7-fc930a945e63",
        "6992ed0b-4b88-440e-aac3-260c5784dc8f",
        "4a2ed4a5-b006-4bcc-befc-a50334618390",
        "572270c6-2676-4c39-a468-53536a802d56",
        "d9614002-9090-429e-a49f-4ed258d292e1",
        "dfb571ed-a717-4003-a633-3711277d1d24",
        "72636f6e-905d-421e-a6f9-fbad4f4051d6"
      ],
      "settings": {
        "show_breadcrumbs": false,
        "show_location_underneath": false,
        "inventory_transfers_enable": false,
        "gallery_size": "large",
        "prod_gall_thumbs_under": "under",
        "enable_sticky_gallery": true,
        "enable_zoom": true,
        "enable_video_looping": true
      }
    },
    "16499471369440bd83": {
      "type": "collection-list",
      "blocks": {
        "fe3acfcb-370e-4656-b143-e0ee7be0ca9f": {
          "type": "collection",
          "settings": {
            "collection": "starry-night-set",
            "image": "shopify:\/\/shop_images\/full_a555c582-ef43-4271-9415-c554df6f44fd.jpg"
          }
        },
        "189856bb-f25a-4218-8a0a-b9669088e41f": {
          "type": "collection",
          "settings": {
            "collection": "vanilla-dream-set",
            "image": "shopify:\/\/shop_images\/full-angled_e4250a7e-640f-4bc0-a4b2-f3a1fb5556d4.jpg"
          }
        },
        "66b7566a-5717-4acc-bff4-045b0993715d": {
          "type": "collection",
          "settings": {
            "collection": "milky-white-set",
            "image": "shopify:\/\/shop_images\/full-front.jpg"
          }
        },
        "e0448535-abde-4bdf-bd8e-cf1f030c4006": {
          "type": "collection",
          "settings": {
            "collection": "contemplating-blue-set",
            "image": "shopify:\/\/shop_images\/ide_2fe69e21-43ae-497f-b162-91109ab34b1b.jpg"
          }
        },
        "e08e4ca4-6057-4135-89ba-cbcd75622c97": {
          "type": "collection",
          "settings": {
            "collection": "silver-veil-set",
            "image": "shopify:\/\/shop_images\/Full-side_85a8661a-aa05-491f-9e30-e7d031a2937e.jpg"
          }
        }
      },
      "block_order": [
        "fe3acfcb-370e-4656-b143-e0ee7be0ca9f",
        "189856bb-f25a-4218-8a0a-b9669088e41f",
        "66b7566a-5717-4acc-bff4-045b0993715d",
        "e0448535-abde-4bdf-bd8e-cf1f030c4006",
        "e08e4ca4-6057-4135-89ba-cbcd75622c97"
      ],
      "disabled": true,
      "settings": {
        "title": "Discover loungewear collection",
        "enable_carousel": true,
        "grid": 3,
        "use_alt_bg": true,
        "full_width": true
      }
    },
    "16499471446bb97770": {
      "type": "image-with-text-overlay",
      "disabled": true,
      "settings": {
        "image": "shopify:\/\/shop_images\/product_page_banner_3_eb80177a-8249-4507-ac5b-1f96b6b6b47f.png",
        "image_position": "center left",
        "height": "fixed",
        "height_desktop": 440,
        "height_mobile": 520,
        "subheading": "",
        "title": "Freezing summer",
        "title_size": 42,
        "use_h1": false,
        "text": "<p>Come experience the instant cooling technology on our loungewears<\/p>",
        "enlarge_text": false,
        "button_label": "",
        "image_link": "",
        "text_alignment": "center center",
        "full_width": true,
        "mobile_overlay_under": true,
        "overlay_style": "no_background"
      }
    },
    "recommendations": {
      "type": "product-recommendations",
      "disabled": true,
      "settings": {
        "title": "Related products",
        "show_vendor": false,
        "grid": 2
      }
    },
    "16570207546deb1bae": {
      "type": "testimonials",
      "blocks": {
        "1657020754dedd60d8-0": {
          "type": "testimonial",
          "settings": {
            "star_rating": 5,
            "testimonial": "Mimi",
            "author": "I absolutely love my new loungewear. It's cooling & soft. You can wear it outside too.",
            "image": "shopify:\/\/shop_images\/Untitled-1_8af45736-e29d-4716-8bc0-4fe27b013dd6.png",
            "image_alignment": "center center",
            "image_caption": "",
            "link": ""
          }
        },
        "1657020754dedd60d8-1": {
          "type": "testimonial",
          "settings": {
            "star_rating": 5,
            "testimonial": "Looks nice & feels comfortable Indoors and Outdoors. Also a must have for pet families!",
            "author": "sana",
            "image": "shopify:\/\/shop_images\/kol_kol-1.png",
            "image_alignment": "center center",
            "image_caption": "",
            "link": ""
          }
        }
      },
      "block_order": [
        "1657020754dedd60d8-0",
        "1657020754dedd60d8-1"
      ],
      "disabled": true,
      "settings": {
        "title": "Customer reviews",
        "layout": "image-left",
        "image_shape": "square",
        "use_alt_bg": false
      }
    },
    "1637660518324c9917": {
      "type": "apps",
      "blocks": {
        "7710bd3b-f5cc-404a-92d6-ad33f0c62dbf": {
          "type": "shopify:\/\/apps\/yotpo-product-photo-reviews\/blocks\/reviews\/eb7dfd7d-db44-4334-bc49-c893b51b36cf",
          "settings": {
            "product": "{{product}}"
          }
        }
      },
      "block_order": [
        "7710bd3b-f5cc-404a-92d6-ad33f0c62dbf"
      ],
      "settings": {
        "full_width": false
      }
    },
    "cc0e881a-0899-4bb1-82a4-b45ae3e98e27": {
      "type": "featured-collection",
      "settings": {
        "title": "You Might Also Like...",
        "collection": "fur-free",
        "show_vendor": false,
        "enable_carousel": false,
        "grid": 4,
        "rows": 5,
        "use_alt_bg": false,
        "show_view_all": true,
        "full_width": true
      }
    }
  },
  "order": [
    "main",
    "16499471369440bd83",
    "16499471446bb97770",
    "recommendations",
    "16570207546deb1bae",
    "1637660518324c9917",
    "cc0e881a-0899-4bb1-82a4-b45ae3e98e27"
  ]
}