{
  "sections": {
    "shogun-helper": {
      "type": "shogun-helper",
      "settings": {}
    },
    "shogun-above": {
      "type": "shogun-above",
      "settings": {}
    },
    "main": {
      "type": "main-product",
      "blocks": {
        "title": {
          "type": "title",
          "settings": {}
        },
        "23aed880-fe64-4eb5-be6a-8420d1b86840": {
          "type": "shopify:\/\/apps\/yotpo-product-photo-reviews\/blocks\/star-rating\/eb7dfd7d-db44-4334-bc49-c893b51b36cf",
          "settings": {
            "product": "{{product}}"
          }
        },
        "price": {
          "type": "price",
          "settings": {
            "show_tax_and_shipping": false
          }
        },
        "e16eb14b-0ba9-4180-a2c8-c26223761a76": {
          "type": "variant_picker",
          "settings": {
            "show_single": false,
            "show_size_chart": true,
            "size_chart_variant": "Size Guide",
            "size_chart_page": "size-guide-sheet-pillowcase"
          }
        },
        "f3a25f10-9668-4e48-99d5-d65528f18e08": {
          "type": "richtext",
          "settings": {
            "richtext": "<p><strong>Includes 1 flat sheet, 1 fitted sheet and 2 pillowcases.<\/strong><\/p>",
            "show_in_quickbuy": false
          }
        },
        "61598d8d-b87c-4bbb-8fa1-b14a67460996": {
          "type": "richtext",
          "settings": {
            "richtext": "<p><strong>Free delivery on orders over $100.<\/strong><\/p>",
            "show_in_quickbuy": false
          }
        },
        "7c523533-ebf4-4f72-8942-feda1e8fa34d": {
          "type": "text",
          "disabled": true,
          "settings": {
            "text": "Includes 1*Flat sheet, 1*Fitted sheet and 2*Pillowcases.",
            "show_in_quickbuy": false
          }
        },
        "6515b48a-8f4a-4bad-acc6-799e8d70e96c": {
          "type": "text",
          "disabled": true,
          "settings": {
            "text": "*Fast Free Delivery Site-wide",
            "show_in_quickbuy": false
          }
        },
        "buy_buttons": {
          "type": "buy_buttons",
          "settings": {
            "show_quantity_selector": false,
            "enable_payment_button": true,
            "show_backorder_text": true,
            "show_inventory_notice": false,
            "inventory_notice_threshold": 100,
            "show_pickup_availability": true
          }
        },
        "23c9a8d7-9888-4e4f-8842-17e80ae81f56": {
          "type": "accordion",
          "settings": {
            "title": "DETAILS",
            "content": "<p><strong>Anti-static<\/strong> <\/p><p>Sleep easy and unbothered. Our anti-static finishing effectively prevents the absorption of pet hair and fine dust and danders, and protects your hair and skin from unnecessary static friction and damage. Immerse yourself and your lovely pets into our sheets without a second thought of unwanted grip and resistance. The soft silk automatically brushes off hair and dust particles. This one is perfect for families with pets and\/or small children.<\/p><p><strong>Ultra-thin weaving high density<\/strong> <\/p><p>This set is made with an innovative fabric that is totally smooth and anti-friction. This makes the material of the fabric incredibly durable and resilient so it is slightly hooked to effectively rebound when stretched. For a unique and sophisticated sleeping experience, the thin weaving gives an amazing finish to your bedsheets. The fine weaving cotton is combed to filter out impurities and ensure superb strength. <\/p><p><strong>Temperature controlling<\/strong><\/p><p>Sweating throughout the night? The new sweet combination of bamboo-cotton blend bedding uses high-density materials and tightly woven techniques. We carefully monitor the composition of cotton and bamboo and take into consideration factors like thickness, density, and twist for each of our sheets. So that, the cold doesn't get your skin and chills you to the bone.<br\/>The modern weaving process enables us to manufacture sheets that breathe! Our super breathable bamboo fabric stays cool in the summer and slightly warm in winter helping your body to regulate temperature accordingly. <\/p><p><strong>Anti-bacterial & Hypoallergenic<\/strong><\/p><p>Got sensitive skin? No worries! Our smooth sheet set is ideal for sensitive skin. Bamboo-cotton blend materials are hypoallergenic, free from harmful chemicals, and naturally resistant to bacteria so you can have a safe sleeping space. The bamboo bedding is better than ordinary silk as it is smooth on your face, and hair and does not create static or heat of silk. <\/p>",
            "page": "",
            "open": true,
            "show_in_quickbuy": false
          }
        },
        "ec0f2381-7ba8-46c1-b5e9-356b32c4d926": {
          "type": "accordion",
          "settings": {
            "title": "FABRIC",
            "content": "<p><strong>60% Bamboo fiber + 40% Cotton<\/strong><\/p>",
            "page": "",
            "open": false,
            "show_in_quickbuy": false
          }
        },
        "572270c6-2676-4c39-a468-53536a802d56": {
          "type": "accordion",
          "settings": {
            "title": "CARE",
            "content": "<p><strong>Keep your bamboo sheets fresh with these care tips.<\/strong><\/p><p>Natural Detergent <br\/>Machine Wash Cold <br\/>Do Not Bleach <br\/>Machine Dry Low Heat<br\/>Max Temp 110°C or 230°F<br\/><\/p><p>For additional questions, please contact us.<\/p>",
            "page": "",
            "open": false,
            "show_in_quickbuy": false
          }
        },
        "b17ea531-cdc9-41b5-83ba-82d7c5700d27": {
          "type": "image",
          "disabled": true,
          "settings": {
            "image_width": 700,
            "url": "",
            "show_in_quickbuy": false
          }
        }
      },
      "block_order": [
        "title",
        "23aed880-fe64-4eb5-be6a-8420d1b86840",
        "price",
        "e16eb14b-0ba9-4180-a2c8-c26223761a76",
        "f3a25f10-9668-4e48-99d5-d65528f18e08",
        "61598d8d-b87c-4bbb-8fa1-b14a67460996",
        "7c523533-ebf4-4f72-8942-feda1e8fa34d",
        "6515b48a-8f4a-4bad-acc6-799e8d70e96c",
        "buy_buttons",
        "23c9a8d7-9888-4e4f-8842-17e80ae81f56",
        "ec0f2381-7ba8-46c1-b5e9-356b32c4d926",
        "572270c6-2676-4c39-a468-53536a802d56",
        "b17ea531-cdc9-41b5-83ba-82d7c5700d27"
      ],
      "settings": {
        "show_breadcrumbs": false,
        "show_location_underneath": false,
        "inventory_transfers_enable": false,
        "gallery_size": "large",
        "prod_gall_thumbs_under": "under",
        "enable_sticky_gallery": true,
        "enable_zoom": true,
        "enable_video_looping": true
      }
    },
    "1643444220e8d0ba61": {
      "type": "logo-list",
      "blocks": {
        "837cd503-8490-4957-b16e-a6e1c5dd85e6": {
          "type": "logo",
          "settings": {
            "image": "shopify:\/\/shop_images\/fur_resistant.png",
            "image_width": 80,
            "link": "",
            "title": "Pet fur-resistant"
          }
        },
        "e9e388f4-c588-4cc1-a98b-8e84f12e743d": {
          "type": "logo",
          "settings": {
            "image": "shopify:\/\/shop_images\/snag_proof.png",
            "image_width": 80,
            "link": "",
            "title": "Snag-proof"
          }
        },
        "b672e834-1a2f-4fab-bcdd-82b453935ea7": {
          "type": "logo",
          "settings": {
            "image": "shopify:\/\/shop_images\/sustainable.png",
            "image_width": 80,
            "link": "",
            "title": "Plant-based"
          }
        },
        "c6d674eb-c1ba-40e2-a05c-bf2ad861bf62": {
          "type": "logo",
          "disabled": true,
          "settings": {
            "image_width": 80,
            "link": "",
            "title": "Water-saving"
          }
        },
        "edeb7ee9-b7a5-445b-8113-8790247ba45e": {
          "type": "logo",
          "settings": {
            "image": "shopify:\/\/shop_images\/comfortable.png",
            "image_width": 80,
            "link": "",
            "title": "Extra wholesome"
          }
        }
      },
      "block_order": [
        "837cd503-8490-4957-b16e-a6e1c5dd85e6",
        "e9e388f4-c588-4cc1-a98b-8e84f12e743d",
        "b672e834-1a2f-4fab-bcdd-82b453935ea7",
        "c6d674eb-c1ba-40e2-a05c-bf2ad861bf62",
        "edeb7ee9-b7a5-445b-8113-8790247ba45e"
      ],
      "settings": {
        "title": "",
        "image_opacity": 100,
        "use_alt_bg": true
      }
    },
    "1637827161ab4ea7d6": {
      "type": "custom-row",
      "blocks": {
        "1637827161214f8d12-1": {
          "type": "text",
          "settings": {
            "width": "half",
            "subheading": "",
            "title": "Bamboo properties",
            "text": "",
            "button_label": "",
            "button_link": "",
            "button_style": "primary",
            "text_alignment": "center"
          }
        }
      },
      "block_order": [
        "1637827161214f8d12-1"
      ],
      "settings": {
        "alignment": "top"
      }
    },
    "1638940697011c8bb5": {
      "type": "custom-row",
      "blocks": {
        "1638940697994455c0-0": {
          "type": "image",
          "settings": {
            "width": "half",
            "image": "shopify:\/\/shop_images\/sustainability_bamboo.png",
            "image_position": "center center",
            "height": "fixed",
            "height_desktop": 520,
            "height_mobile": 360,
            "subheading": "",
            "title": "",
            "text": "",
            "enlarge_text": false,
            "button_label": "",
            "image_link": "",
            "text_alignment": "center center",
            "mobile_overlay_under": false,
            "overlay_style": "no_background"
          }
        },
        "1638940697994455c0-1": {
          "type": "text",
          "settings": {
            "width": "half",
            "subheading": "",
            "title": "Regenerative",
            "text": "<p><strong>Free from chemicals<\/strong><\/p><p>Bamboo is known for being one of the fastest-growing and regenerative plants. Once harvested, it can replenish itself within a year and requires no fertilizer, pesticides, or chemicals to grow. <\/p>",
            "button_label": "",
            "button_link": "",
            "button_style": "primary",
            "text_alignment": "left"
          }
        }
      },
      "block_order": [
        "1638940697994455c0-0",
        "1638940697994455c0-1"
      ],
      "settings": {
        "alignment": "middle"
      }
    },
    "163894072740ffbfce": {
      "type": "custom-row",
      "blocks": {
        "163894072768ad7053-0": {
          "type": "image",
          "settings": {
            "width": "half",
            "image": "shopify:\/\/shop_images\/sustainability_cat_a337d61b-36be-4206-97c5-0db64593b5ec.png",
            "image_position": "center center",
            "height": "fixed",
            "height_desktop": 520,
            "height_mobile": 360,
            "subheading": "",
            "title": "",
            "text": "",
            "enlarge_text": false,
            "button_label": "",
            "image_link": "",
            "text_alignment": "center center",
            "mobile_overlay_under": false,
            "overlay_style": "full"
          }
        },
        "163894072768ad7053-1": {
          "type": "text",
          "settings": {
            "width": "half",
            "subheading": "",
            "title": "Pet friendly",
            "text": "<p><strong>Enjoy sleeping with your furry mate<\/strong><\/p><p>Naturally anti-bacterial and hypoallergenic, rest soundly knowing your sheets are safe from harmful bacteria.<\/p>",
            "button_label": "",
            "button_link": "",
            "button_style": "primary",
            "text_alignment": "left"
          }
        }
      },
      "block_order": [
        "163894072768ad7053-0",
        "163894072768ad7053-1"
      ],
      "settings": {
        "alignment": "middle"
      }
    },
    "1638941065e1970d95": {
      "type": "custom-row",
      "blocks": {
        "16389410655a411aaf-0": {
          "type": "image",
          "settings": {
            "width": "half",
            "image": "shopify:\/\/shop_images\/bamboo_2.png",
            "image_position": "center center",
            "height": "fixed",
            "height_desktop": 540,
            "height_mobile": 360,
            "subheading": "",
            "title": "",
            "text": "",
            "enlarge_text": false,
            "button_label": "",
            "image_link": "",
            "text_alignment": "bottom left",
            "mobile_overlay_under": false,
            "overlay_style": "full"
          }
        },
        "16389410655a411aaf-1": {
          "type": "text",
          "settings": {
            "width": "half",
            "subheading": "",
            "title": "Breathable",
            "text": "<p><strong>Forget about hot flashes<\/strong><\/p><p> Breathable and moisture-wicking bamboo fabric feels degrees cooler than cotton. Never worry about hot flashes again!<\/p>",
            "button_label": "",
            "button_link": "",
            "button_style": "primary",
            "text_alignment": "left"
          }
        }
      },
      "block_order": [
        "16389410655a411aaf-0",
        "16389410655a411aaf-1"
      ],
      "settings": {
        "alignment": "middle"
      }
    },
    "16433551324dca06ee": {
      "type": "logo-list",
      "blocks": {
        "6207d941-fdb6-49f0-9e98-0125880c5565": {
          "type": "logo",
          "settings": {
            "image": "shopify:\/\/shop_images\/fo__round.png",
            "image_width": 160,
            "link": "shopify:\/\/pages\/certifications",
            "title": "Forest Stewardship Council"
          }
        },
        "0f88bd70-5b81-47d8-8564-a8950f2dccad": {
          "type": "logo",
          "settings": {
            "image": "shopify:\/\/shop_images\/forest__round.png",
            "image_width": 160,
            "link": "shopify:\/\/pages\/certifications",
            "title": "Organic Content Standard"
          }
        },
        "aa4c67e9-98c7-4025-8948-1aeab2267bb3": {
          "type": "logo",
          "settings": {
            "image": "shopify:\/\/shop_images\/oeko__round_45db7309-ad8d-4830-a266-3f3e4446e798.png",
            "image_width": 280,
            "link": "shopify:\/\/pages\/certifications",
            "title": "Standard 100 by OEKO-TEX"
          }
        }
      },
      "block_order": [
        "6207d941-fdb6-49f0-9e98-0125880c5565",
        "0f88bd70-5b81-47d8-8564-a8950f2dccad",
        "aa4c67e9-98c7-4025-8948-1aeab2267bb3"
      ],
      "settings": {
        "title": "Certified by",
        "image_opacity": 100,
        "use_alt_bg": false
      }
    },
    "recommendations": {
      "type": "product-recommendations",
      "disabled": true,
      "settings": {
        "title": "Related products",
        "show_vendor": false,
        "grid": 4
      }
    },
    "164318472923bd8e51": {
      "type": "featured-collection",
      "settings": {
        "title": "Find your perfect sheets",
        "collection": "all-products",
        "show_vendor": false,
        "enable_carousel": true,
        "grid": 2,
        "rows": 1,
        "use_alt_bg": false,
        "show_view_all": false,
        "full_width": true
      }
    },
    "1641899986c3ca8597": {
      "type": "text-columns-with-images",
      "blocks": {
        "16418999869057970b-0": {
          "type": "text_block",
          "settings": {
            "enable_image": true,
            "image": "shopify:\/\/shop_images\/bamboo_b_e6f07c01-6852-4c91-ae87-e8676b04b648.png",
            "image_width": 700,
            "title": "Eucalyptus",
            "text": "<p>Biobased material, water-saving,   biodegradable.<\/p>",
            "button_label": "Learn more",
            "link": "shopify:\/\/pages\/eucalyptus"
          }
        },
        "16418999869057970b-1": {
          "type": "text_block",
          "settings": {
            "enable_image": true,
            "image": "shopify:\/\/shop_images\/bamboo_bb.png",
            "image_width": 700,
            "title": "Bamboo",
            "text": "<p>Regenerative, water + energy-efficient, bio circular.<\/p>",
            "button_label": "Learn more",
            "link": "shopify:\/\/pages\/bamboo"
          }
        },
        "16418999869057970b-2": {
          "type": "text_block",
          "settings": {
            "enable_image": true,
            "image": "shopify:\/\/shop_images\/sustainability_round_8_99bd24e4-2ebe-471a-8f84-0d56f7dff19b.png",
            "image_width": 700,
            "title": "Aerogel",
            "text": "<p>Developed by NASA, let science keep you warm.<\/p>",
            "button_label": "Learn more",
            "link": "shopify:\/\/pages\/aerogel"
          }
        }
      },
      "block_order": [
        "16418999869057970b-0",
        "16418999869057970b-1",
        "16418999869057970b-2"
      ],
      "settings": {
        "title": "Our responsible materials",
        "text_alignment": "center",
        "button_style": "link",
        "use_alt_bg": false
      }
    },
    "16566724657dfe3a69": {
      "type": "testimonials",
      "blocks": {
        "641ba3e9-c3a0-4bb5-8fa3-22bf3a81e58b": {
          "type": "testimonial",
          "disabled": true,
          "settings": {
            "star_rating": 5,
            "testimonial": "Absolutely snag-and-scratch proof weaving stand up to stress from claws and paws.",
            "author": "Bella A.",
            "image": "shopify:\/\/shop_images\/no_fur_or_dander_gets_caught_in_our_superfine_weave..png",
            "image_alignment": "center center",
            "image_caption": "",
            "link": "https:\/\/youtube.com\/shorts\/Pm4OhD7S4dU?feature=share"
          }
        },
        "1656672465e112a601-0": {
          "type": "testimonial",
          "settings": {
            "star_rating": 5,
            "testimonial": "\"My new sheets are incredibly soft & excellent for hot sleepers. Most comfortable sleep ever.\"",
            "author": "dinaraxyz",
            "image": "shopify:\/\/shop_images\/kol_3.png",
            "image_alignment": "center center",
            "image_caption": "",
            "link": ""
          }
        },
        "1656672465e112a601-1": {
          "type": "testimonial",
          "settings": {
            "star_rating": 5,
            "testimonial": "The sheets are beautiful with a soft luxury feel. I've been sleeping more comfortably ever since!",
            "author": "sabrinagagnelussien",
            "image": "shopify:\/\/shop_images\/ins_9.png",
            "image_alignment": "center left",
            "image_caption": "",
            "link": ""
          }
        },
        "7b9578e5-cdc4-4f49-bad9-ec391114ec79": {
          "type": "testimonial",
          "settings": {
            "star_rating": 5,
            "testimonial": "We got new sheets for our bed. They are hypoallergenic, very soft & silky.",
            "author": "lafamilialatorre",
            "image": "shopify:\/\/shop_images\/5.png",
            "image_alignment": "center center",
            "image_caption": "",
            "link": ""
          }
        }
      },
      "block_order": [
        "641ba3e9-c3a0-4bb5-8fa3-22bf3a81e58b",
        "1656672465e112a601-0",
        "1656672465e112a601-1",
        "7b9578e5-cdc4-4f49-bad9-ec391114ec79"
      ],
      "settings": {
        "title": "Customer reviews",
        "layout": "image-left",
        "image_shape": "square",
        "use_alt_bg": false
      }
    },
    "1637660818f2c8d56c": {
      "type": "apps",
      "settings": {
        "full_width": false
      }
    },
    "shogun-below": {
      "type": "shogun-below",
      "settings": {}
    },
    "16656362084f3aa8d1": {
      "type": "apps",
      "blocks": {
        "ee86a22e-75b9-4dcc-96c9-a6dcbf8b327e": {
          "type": "shopify:\/\/apps\/yotpo-product-photo-reviews\/blocks\/reviews\/eb7dfd7d-db44-4334-bc49-c893b51b36cf",
          "settings": {
            "product": "{{product}}"
          }
        }
      },
      "block_order": [
        "ee86a22e-75b9-4dcc-96c9-a6dcbf8b327e"
      ],
      "settings": {
        "full_width": false
      }
    }
  },
  "order": [
    "shogun-helper",
    "shogun-above",
    "main",
    "1643444220e8d0ba61",
    "1637827161ab4ea7d6",
    "1638940697011c8bb5",
    "163894072740ffbfce",
    "1638941065e1970d95",
    "16433551324dca06ee",
    "recommendations",
    "164318472923bd8e51",
    "1641899986c3ca8597",
    "16566724657dfe3a69",
    "1637660818f2c8d56c",
    "shogun-below",
    "16656362084f3aa8d1"
  ]
}