{
  "sections": {
    "main": {
      "type": "main-product",
      "blocks": {
        "title": {
          "type": "title",
          "settings": {}
        },
        "price": {
          "type": "price",
          "settings": {
            "show_tax_and_shipping": false
          }
        },
        "e16eb14b-0ba9-4180-a2c8-c26223761a76": {
          "type": "variant_picker",
          "settings": {
            "show_single": true,
            "show_size_chart": true,
            "size_chart_variant": "Size Guide",
            "size_chart_page": "dark-peach-dog-raincoat"
          }
        },
        "6b477c3c-bcee-4269-a8d1-1e6a005f3d55": {
          "type": "richtext",
          "settings": {
            "richtext": "<p><strong>Includes 1 dog raincoat.<\/strong><\/p>",
            "show_in_quickbuy": false
          }
        },
        "1d0aa8f9-171e-4f36-95bf-3bcf803cc458": {
          "type": "richtext",
          "settings": {
            "richtext": "<p><strong>Free delivery on orders over $100.<\/strong><\/p>",
            "show_in_quickbuy": false
          }
        },
        "buy_buttons": {
          "type": "buy_buttons",
          "settings": {
            "show_quantity_selector": false,
            "enable_payment_button": true,
            "show_backorder_text": false,
            "show_inventory_notice": false,
            "inventory_notice_threshold": 10,
            "show_pickup_availability": true
          }
        },
        "994447e9-3922-4951-95dd-6b7e134286de": {
          "type": "richtext",
          "disabled": true,
          "settings": {
            "richtext": "",
            "show_in_quickbuy": false
          }
        },
        "030b31b0-dc19-48de-a6b7-fc930a945e63": {
          "type": "accordion",
          "settings": {
            "title": "DETAILS",
            "content": "<p><strong>Lightweight & Waterproof<\/strong><\/p><p><\/p><p>Keep your furry friend comfortable and dry during walks, even in the harshest weather conditions, with this waterproof dog raincoat. Its lightweight design ensures ease of movement, and its water-resistant fabric provides excellent protection. Rest assured, this durable raincoat will keep your pup dry for a long time to come.<\/p><p><\/p><p><strong>Reflective Strips for Safety<\/strong><\/p><p><\/p><p>Our dog raincoats are equipped with high-visibility reflective strips along the belly, ensuring your pet is easily seen and can be easily seen during night walks. When a flashlight or strong light shines on the coat, its highly reflective properties create visibility and help your dog avoid any potential accidents.<\/p><p><\/p><p><strong>Easy to Clean & Pack<\/strong><\/p><p><\/p><p>Cleaning this lightweight pet raincoat is a breeze, and it can be conveniently folded into any shape to fit in car storage areas or day bags. Take it along on trips to the park, beach, hiking trails, or camping adventures, knowing you have a reliable rain coat to protect your furry friend.<\/p>",
            "page": "",
            "open": false,
            "show_in_quickbuy": false
          }
        },
        "e6e00af3-73f3-4b24-9ffd-9c6239f0b70a": {
          "type": "accordion",
          "disabled": true,
          "settings": {
            "title": "SIZE",
            "content": "<p>The top is designed to be oversized. Shorts are designed with an easy and relaxed fit.<\/p>",
            "page": "",
            "open": false,
            "show_in_quickbuy": false
          }
        },
        "6992ed0b-4b88-440e-aac3-260c5784dc8f": {
          "type": "accordion",
          "disabled": true,
          "settings": {
            "title": "FABRIC",
            "content": "<p><strong>47%  Rayon + 41% Nylon + 12% Spandex <\/strong><\/p>",
            "page": "",
            "open": false,
            "show_in_quickbuy": false
          }
        },
        "2b7d1c40-60e4-4d88-a7ac-ed09871c5217": {
          "type": "accordion",
          "settings": {
            "title": "MATERIALS",
            "content": "<p><strong>100% Polyester<\/strong><\/p>",
            "page": "",
            "open": false,
            "show_in_quickbuy": false
          }
        },
        "572270c6-2676-4c39-a468-53536a802d56": {
          "type": "accordion",
          "disabled": true,
          "settings": {
            "title": "CARE",
            "content": "<p>For day-to-day cleaning, simply wipe with a damp cloth.<\/p><p>For a deeper clean, machine wash on a gentle cycle using cold water.<\/p><p>After washing, it is best to hang the product to dry naturally.<\/p>",
            "page": "",
            "open": false,
            "show_in_quickbuy": false
          }
        },
        "b0e70b84-1c21-4ec4-ac98-21c062c028d0": {
          "type": "sharing",
          "settings": {
            "show_in_quickbuy": false
          }
        }
      },
      "block_order": [
        "title",
        "price",
        "e16eb14b-0ba9-4180-a2c8-c26223761a76",
        "6b477c3c-bcee-4269-a8d1-1e6a005f3d55",
        "1d0aa8f9-171e-4f36-95bf-3bcf803cc458",
        "buy_buttons",
        "994447e9-3922-4951-95dd-6b7e134286de",
        "030b31b0-dc19-48de-a6b7-fc930a945e63",
        "e6e00af3-73f3-4b24-9ffd-9c6239f0b70a",
        "6992ed0b-4b88-440e-aac3-260c5784dc8f",
        "2b7d1c40-60e4-4d88-a7ac-ed09871c5217",
        "572270c6-2676-4c39-a468-53536a802d56",
        "b0e70b84-1c21-4ec4-ac98-21c062c028d0"
      ],
      "settings": {
        "show_breadcrumbs": false,
        "show_location_underneath": false,
        "inventory_transfers_enable": false,
        "gallery_size": "large",
        "prod_gall_thumbs_under": "under",
        "enable_sticky_gallery": true,
        "enable_zoom": true,
        "enable_video_looping": true
      }
    },
    "16499471369440bd83": {
      "type": "collection-list",
      "blocks": {
        "fe3acfcb-370e-4656-b143-e0ee7be0ca9f": {
          "type": "collection",
          "settings": {
            "collection": "starry-night-set",
            "image": "shopify:\/\/shop_images\/full_a555c582-ef43-4271-9415-c554df6f44fd.jpg"
          }
        },
        "189856bb-f25a-4218-8a0a-b9669088e41f": {
          "type": "collection",
          "settings": {
            "collection": "vanilla-dream-set",
            "image": "shopify:\/\/shop_images\/full-angled_e4250a7e-640f-4bc0-a4b2-f3a1fb5556d4.jpg"
          }
        },
        "66b7566a-5717-4acc-bff4-045b0993715d": {
          "type": "collection",
          "settings": {
            "collection": "milky-white-set",
            "image": "shopify:\/\/shop_images\/full-front.jpg"
          }
        },
        "e0448535-abde-4bdf-bd8e-cf1f030c4006": {
          "type": "collection",
          "settings": {
            "collection": "contemplating-blue",
            "image": "shopify:\/\/shop_images\/ide_2fe69e21-43ae-497f-b162-91109ab34b1b.jpg"
          }
        },
        "e08e4ca4-6057-4135-89ba-cbcd75622c97": {
          "type": "collection",
          "settings": {
            "collection": "silver-veil-set",
            "image": "shopify:\/\/shop_images\/Full-side_85a8661a-aa05-491f-9e30-e7d031a2937e.jpg"
          }
        }
      },
      "block_order": [
        "fe3acfcb-370e-4656-b143-e0ee7be0ca9f",
        "189856bb-f25a-4218-8a0a-b9669088e41f",
        "66b7566a-5717-4acc-bff4-045b0993715d",
        "e0448535-abde-4bdf-bd8e-cf1f030c4006",
        "e08e4ca4-6057-4135-89ba-cbcd75622c97"
      ],
      "disabled": true,
      "settings": {
        "title": "Discover loungewear collection",
        "enable_carousel": true,
        "grid": 3,
        "use_alt_bg": true,
        "full_width": true
      }
    },
    "recommendations": {
      "type": "product-recommendations",
      "disabled": true,
      "settings": {
        "title": "Related products",
        "show_vendor": false,
        "grid": 2
      }
    },
    "1637660518324c9917": {
      "type": "apps",
      "settings": {
        "full_width": false
      }
    },
    "2bfbd148-0fa9-49ba-a22e-7b9615d2e718": {
      "type": "featured-collection",
      "settings": {
        "title": "Featured collection",
        "collection": "pet-accessories",
        "show_vendor": false,
        "enable_carousel": true,
        "grid": 4,
        "rows": 1,
        "use_alt_bg": true,
        "show_view_all": true,
        "full_width": true
      }
    }
  },
  "order": [
    "main",
    "16499471369440bd83",
    "recommendations",
    "1637660518324c9917",
    "2bfbd148-0fa9-49ba-a22e-7b9615d2e718"
  ]
}