{
  "sections": {
    "main": {
      "type": "main-product",
      "blocks": {
        "title": {
          "type": "title",
          "settings": {}
        },
        "34be2da3-036d-4cf2-ab2f-3871cda79d38": {
          "type": "shopify:\/\/apps\/yotpo-product-photo-reviews\/blocks\/star-rating\/eb7dfd7d-db44-4334-bc49-c893b51b36cf",
          "settings": {
            "product": "{{product}}"
          }
        },
        "price": {
          "type": "price",
          "settings": {
            "show_tax_and_shipping": false
          }
        },
        "e16eb14b-0ba9-4180-a2c8-c26223761a76": {
          "type": "variant_picker",
          "settings": {
            "show_single": false,
            "show_size_chart": false,
            "size_chart_variant": "Size Guide",
            "size_chart_page": "size-guide-loungewear"
          }
        },
        "3806ca75-f52e-4533-9f43-ee6ac2adaa17": {
          "type": "richtext",
          "disabled": true,
          "settings": {
            "richtext": "<p><strong>Includes 1 cave cat bed.<\/strong><\/p>",
            "show_in_quickbuy": false
          }
        },
        "1d0aa8f9-171e-4f36-95bf-3bcf803cc458": {
          "type": "richtext",
          "settings": {
            "richtext": "<p><strong>Free delivery on orders over $100.<\/strong><\/p>",
            "show_in_quickbuy": false
          }
        },
        "buy_buttons": {
          "type": "buy_buttons",
          "settings": {
            "show_quantity_selector": false,
            "enable_payment_button": false,
            "show_backorder_text": false,
            "show_inventory_notice": false,
            "inventory_notice_threshold": 10,
            "show_pickup_availability": true
          }
        },
        "994447e9-3922-4951-95dd-6b7e134286de": {
          "type": "richtext",
          "settings": {
            "richtext": "",
            "show_in_quickbuy": false
          }
        },
        "030b31b0-dc19-48de-a6b7-fc930a945e63": {
          "type": "accordion",
          "settings": {
            "title": "DETAILS",
            "content": "<p>Your cat will enjoy long winter naps in this convertible cat bed. This machine-washable, hooded haven can also be flattened into a snuggly open bed. Whether your cat needs some alone time to relax or wants to stretch and enjoy some belly rubs, providing them with this comfortable bed can make their dreams come true.<br\/> <br\/><strong> * Pop-up design, hooded\/cradled options<br\/> <br\/> * Machine-washable<br\/> <br\/> * Fuzzy lining for nuzzling and kneading<\/strong><\/p>",
            "page": "",
            "open": false,
            "show_in_quickbuy": false
          }
        },
        "e6e00af3-73f3-4b24-9ffd-9c6239f0b70a": {
          "type": "accordion",
          "disabled": true,
          "settings": {
            "title": "SIZE TO FIT",
            "content": "<p>The top is designed to be oversized. Shorts are designed with an easy and relaxed fit.<\/p>",
            "page": "",
            "open": false,
            "show_in_quickbuy": false
          }
        },
        "2b7d1c40-60e4-4d88-a7ac-ed09871c5217": {
          "type": "accordion",
          "settings": {
            "title": "SIZE",
            "content": "<p><strong>40 x40 x 32cm \/ 15.7'' x 15.7'' x 12.5''<\/strong><\/p><p>*CM\/Inches<\/p>",
            "page": "",
            "open": false,
            "show_in_quickbuy": false
          }
        },
        "6992ed0b-4b88-440e-aac3-260c5784dc8f": {
          "type": "accordion",
          "disabled": true,
          "settings": {
            "title": "FABRIC",
            "content": "<p><strong>47%  Rayon + 41% Nylon + 12% Spandex <\/strong><\/p>",
            "page": "",
            "open": false,
            "show_in_quickbuy": false
          }
        },
        "572270c6-2676-4c39-a468-53536a802d56": {
          "type": "accordion",
          "disabled": true,
          "settings": {
            "title": "CARE",
            "content": "<p>It couldn't be easier or more efficient to care for: our quick dry technology makes laundry futuristically fast. And unlike other fabrics that break down over wash and wear cycles, ours gets even softer and more comfortable over time.<\/p><p><strong>We recommend you to follow these tips:<\/strong><br\/>Natural Detergent <br\/>Machine Wash Cold <br\/>Do Not Bleach <br\/>Machine Dry Low Heat <br\/>Max Temp 110°C or 230°F<\/p>",
            "page": "",
            "open": false,
            "show_in_quickbuy": false
          }
        },
        "b0e70b84-1c21-4ec4-ac98-21c062c028d0": {
          "type": "sharing",
          "settings": {
            "show_in_quickbuy": false
          }
        }
      },
      "block_order": [
        "title",
        "34be2da3-036d-4cf2-ab2f-3871cda79d38",
        "price",
        "e16eb14b-0ba9-4180-a2c8-c26223761a76",
        "3806ca75-f52e-4533-9f43-ee6ac2adaa17",
        "1d0aa8f9-171e-4f36-95bf-3bcf803cc458",
        "buy_buttons",
        "994447e9-3922-4951-95dd-6b7e134286de",
        "030b31b0-dc19-48de-a6b7-fc930a945e63",
        "e6e00af3-73f3-4b24-9ffd-9c6239f0b70a",
        "2b7d1c40-60e4-4d88-a7ac-ed09871c5217",
        "6992ed0b-4b88-440e-aac3-260c5784dc8f",
        "572270c6-2676-4c39-a468-53536a802d56",
        "b0e70b84-1c21-4ec4-ac98-21c062c028d0"
      ],
      "settings": {
        "show_breadcrumbs": false,
        "show_location_underneath": false,
        "inventory_transfers_enable": false,
        "gallery_size": "large",
        "prod_gall_thumbs_under": "under",
        "enable_sticky_gallery": true,
        "enable_zoom": true,
        "enable_video_looping": true
      }
    },
    "1649947048eaf7e450": {
      "type": "background-video",
      "disabled": true,
      "settings": {
        "video": "https:\/\/www.youtube.com\/watch?v=MV7ewcqftng",
        "placeholder_image": "shopify:\/\/shop_images\/Untitled-1_0ad4ce9a-416e-46e9-97b2-5c2e988cab0e.jpg",
        "subheading": "",
        "title": "",
        "title_size": 34,
        "use_h1": false,
        "text": "",
        "enlarge_text": false,
        "button_label": "",
        "button_link": "",
        "text_alignment": "center center",
        "height_desktop": 1000,
        "height_mobile": 500,
        "full_width": true,
        "overlay_style": "no_background"
      }
    },
    "16499471369440bd83": {
      "type": "collection-list",
      "blocks": {
        "fe3acfcb-370e-4656-b143-e0ee7be0ca9f": {
          "type": "collection",
          "settings": {
            "collection": "starry-night-set",
            "image": "shopify:\/\/shop_images\/full_a555c582-ef43-4271-9415-c554df6f44fd.jpg"
          }
        },
        "189856bb-f25a-4218-8a0a-b9669088e41f": {
          "type": "collection",
          "settings": {
            "collection": "vanilla-dream-set",
            "image": "shopify:\/\/shop_images\/full-angled_e4250a7e-640f-4bc0-a4b2-f3a1fb5556d4.jpg"
          }
        },
        "66b7566a-5717-4acc-bff4-045b0993715d": {
          "type": "collection",
          "settings": {
            "collection": "milky-white-set",
            "image": "shopify:\/\/shop_images\/full-front.jpg"
          }
        },
        "e0448535-abde-4bdf-bd8e-cf1f030c4006": {
          "type": "collection",
          "settings": {
            "collection": "contemplating-blue",
            "image": "shopify:\/\/shop_images\/ide_2fe69e21-43ae-497f-b162-91109ab34b1b.jpg"
          }
        },
        "e08e4ca4-6057-4135-89ba-cbcd75622c97": {
          "type": "collection",
          "settings": {
            "collection": "silver-veil-set",
            "image": "shopify:\/\/shop_images\/Full-side_85a8661a-aa05-491f-9e30-e7d031a2937e.jpg"
          }
        },
        "e11f7624-a3d1-41a0-bd17-fc01bd8cf4ec": {
          "type": "collection",
          "disabled": true,
          "settings": {
            "collection": ""
          }
        }
      },
      "block_order": [
        "fe3acfcb-370e-4656-b143-e0ee7be0ca9f",
        "189856bb-f25a-4218-8a0a-b9669088e41f",
        "66b7566a-5717-4acc-bff4-045b0993715d",
        "e0448535-abde-4bdf-bd8e-cf1f030c4006",
        "e08e4ca4-6057-4135-89ba-cbcd75622c97",
        "e11f7624-a3d1-41a0-bd17-fc01bd8cf4ec"
      ],
      "disabled": true,
      "settings": {
        "title": "Discover loungewear collection",
        "enable_carousel": true,
        "grid": 3,
        "use_alt_bg": true,
        "full_width": true
      }
    },
    "recommendations": {
      "type": "product-recommendations",
      "disabled": true,
      "settings": {
        "title": "Related products",
        "show_vendor": false,
        "grid": 2
      }
    },
    "1637660518324c9917": {
      "type": "apps",
      "blocks": {
        "19bbf302-d6b9-473c-ad6f-1e031b105a73": {
          "type": "shopify:\/\/apps\/yotpo-product-photo-reviews\/blocks\/reviews\/eb7dfd7d-db44-4334-bc49-c893b51b36cf",
          "settings": {
            "product": "{{product}}"
          }
        }
      },
      "block_order": [
        "19bbf302-d6b9-473c-ad6f-1e031b105a73"
      ],
      "settings": {
        "full_width": false
      }
    },
    "c757d48f-c6a5-4e57-a30b-b1efb4682aa3": {
      "type": "collection-list",
      "blocks": {
        "fae22877-b504-47c7-8c47-d80dd6657eb1": {
          "type": "collection",
          "settings": {
            "collection": "pet-accessories"
          }
        }
      },
      "block_order": [
        "fae22877-b504-47c7-8c47-d80dd6657eb1"
      ],
      "disabled": true,
      "settings": {
        "title": "Collection list",
        "enable_carousel": true,
        "grid": 4,
        "use_alt_bg": true,
        "full_width": true
      }
    },
    "d9f1d8c3-0306-4911-abf1-b66a13fd7386": {
      "type": "featured-collection",
      "settings": {
        "title": "Featured collection",
        "collection": "pet-accessories",
        "show_vendor": false,
        "enable_carousel": false,
        "grid": 4,
        "rows": 4,
        "use_alt_bg": false,
        "show_view_all": false,
        "full_width": true
      }
    }
  },
  "order": [
    "main",
    "1649947048eaf7e450",
    "16499471369440bd83",
    "recommendations",
    "1637660518324c9917",
    "c757d48f-c6a5-4e57-a30b-b1efb4682aa3",
    "d9f1d8c3-0306-4911-abf1-b66a13fd7386"
  ]
}