{
  "sections": {
    "shogun-helper": {
      "type": "shogun-helper",
      "settings": {}
    },
    "shogun-above": {
      "type": "shogun-above",
      "settings": {}
    },
    "main": {
      "type": "main-product",
      "blocks": {
        "title": {
          "type": "title",
          "settings": {}
        },
        "6cc9b4cd-0e31-48d5-8fae-337ae9cac5cb": {
          "type": "shopify:\/\/apps\/yotpo-product-photo-reviews\/blocks\/star-rating\/eb7dfd7d-db44-4334-bc49-c893b51b36cf",
          "settings": {
            "product": "{{product}}"
          }
        },
        "price": {
          "type": "price",
          "settings": {
            "show_tax_and_shipping": false
          }
        },
        "e16eb14b-0ba9-4180-a2c8-c26223761a76": {
          "type": "variant_picker",
          "settings": {
            "show_single": false,
            "show_size_chart": true,
            "size_chart_variant": "Size Guide",
            "size_chart_page": "size-guide-bedding"
          }
        },
        "d7e6c276-ec68-4aca-94c9-3e6a5582557d": {
          "type": "richtext",
          "settings": {
            "richtext": "<p><strong>Includes 1 aerogel comforter (Color: <\/strong><a href=\"https:\/\/slashop.com\/products\/pet-hair-resistant-aerogel-comforter-for-dogs-cats-family?variant=42204458254532\" title=\"https:\/\/slashop.com\/products\/pet-hair-resistant-aerogel-comforter-for-dogs-cats-family?variant=42204458254532\"><strong>Porcelain white<\/strong><\/a><strong>), 1 flat sheet, 1 fitted sheet, 1 duvet cover, and 2 pillowcases. <\/strong><\/p>",
            "show_in_quickbuy": false
          }
        },
        "1f9b412a-0dc1-4089-8f39-d63d2f0d7eba": {
          "type": "richtext",
          "settings": {
            "richtext": "<p><strong>Free delivery on orders over $100.<\/strong><\/p>",
            "show_in_quickbuy": false
          }
        },
        "buy_buttons": {
          "type": "buy_buttons",
          "settings": {
            "show_quantity_selector": false,
            "enable_payment_button": false,
            "show_backorder_text": false,
            "show_inventory_notice": false,
            "inventory_notice_threshold": 100,
            "show_pickup_availability": true
          }
        },
        "23c9a8d7-9888-4e4f-8842-17e80ae81f56": {
          "type": "accordion",
          "settings": {
            "title": "DETAILS",
            "content": "<p>Are you moving into a new home, upgrading or wanting to start fresh? We’ve got you covered. The pet hair-repelling technology move-in bundle includes everything you need to turn your mattress into a fully functioning and comforting bed. Save 30% when you purchase our move-in bundle compared to getting the same set piece-by-piece.<br\/> <br\/><strong>Pet Hair Repellent<br\/> <br\/> Antibacterial & Hypoallergenic<br\/> <br\/> Save 30% vs. buying separately<br\/> <br\/> OEKO-TEX® certified for chemical safety<\/strong><\/p>",
            "page": "",
            "open": true,
            "show_in_quickbuy": false
          }
        },
        "8e4690f6-13e0-4873-965d-0dcae96647f9": {
          "type": "richtext",
          "disabled": true,
          "settings": {
            "richtext": "<p><strong>Pet hair resistant & Snag proof <\/strong><\/p>",
            "show_in_quickbuy": false
          }
        },
        "800faf0a-0a22-4b05-98e0-717086516121": {
          "type": "richtext",
          "disabled": true,
          "settings": {
            "richtext": "<p><strong>Anti-bacterial & Hypoesallergenic<\/strong><\/p>",
            "show_in_quickbuy": false
          }
        },
        "fc0748b4-b956-4337-ae5c-2cb7a0727db9": {
          "type": "richtext",
          "disabled": true,
          "settings": {
            "richtext": "<p><strong>100% bamboo fiber<\/strong><\/p>",
            "show_in_quickbuy": false
          }
        },
        "c4413f46-ee47-4629-a402-09f785c85ab6": {
          "type": "richtext",
          "disabled": true,
          "settings": {
            "richtext": "<p><strong>Save 30% vs. buying seperately<\/strong><\/p>",
            "show_in_quickbuy": false
          }
        },
        "ab2f2349-0ba1-4939-819a-a48b30f66f11": {
          "type": "richtext",
          "disabled": true,
          "settings": {
            "richtext": "<p><strong>OEKO-TEX® certified for chemical safety<\/strong><\/p>",
            "show_in_quickbuy": false
          }
        },
        "764ba016-1e20-45cc-8bac-18b13c1a18e2": {
          "type": "accordion",
          "settings": {
            "title": "FABRIC",
            "content": "<p>Sheets: 100% premium viscose from bamboo<\/p><p>Duvet cover:<strong> <\/strong>100% premium viscose from bamboo<\/p><p>Pillowcases:<strong> <\/strong>100% premium viscose from bamboo<\/p><p>Comforter filling: 100% Aerogel<\/p>",
            "page": "",
            "open": false,
            "show_in_quickbuy": false
          }
        },
        "572270c6-2676-4c39-a468-53536a802d56": {
          "type": "accordion",
          "settings": {
            "title": "CARE",
            "content": "<p><strong>Keep your bamboo sheets fresh with these care tips.<\/strong><\/p><p>Neutral Detergent<br\/>Machine Wash Cold <br\/>Do Not Bleach <br\/>Machine Dry Low Heat<br\/>Max Temp 110°C or 230°F<br\/><\/p><p>For additional questions, please contact us.<\/p>",
            "page": "",
            "open": false,
            "show_in_quickbuy": false
          }
        },
        "b17ea531-cdc9-41b5-83ba-82d7c5700d27": {
          "type": "image",
          "disabled": true,
          "settings": {
            "image_width": 700,
            "url": "",
            "show_in_quickbuy": false
          }
        },
        "39c50f13-dd7b-4d9f-ab0e-7401fcec7586": {
          "type": "sharing",
          "settings": {
            "show_in_quickbuy": false
          }
        }
      },
      "block_order": [
        "title",
        "6cc9b4cd-0e31-48d5-8fae-337ae9cac5cb",
        "price",
        "e16eb14b-0ba9-4180-a2c8-c26223761a76",
        "d7e6c276-ec68-4aca-94c9-3e6a5582557d",
        "1f9b412a-0dc1-4089-8f39-d63d2f0d7eba",
        "buy_buttons",
        "23c9a8d7-9888-4e4f-8842-17e80ae81f56",
        "8e4690f6-13e0-4873-965d-0dcae96647f9",
        "800faf0a-0a22-4b05-98e0-717086516121",
        "fc0748b4-b956-4337-ae5c-2cb7a0727db9",
        "c4413f46-ee47-4629-a402-09f785c85ab6",
        "ab2f2349-0ba1-4939-819a-a48b30f66f11",
        "764ba016-1e20-45cc-8bac-18b13c1a18e2",
        "572270c6-2676-4c39-a468-53536a802d56",
        "b17ea531-cdc9-41b5-83ba-82d7c5700d27",
        "39c50f13-dd7b-4d9f-ab0e-7401fcec7586"
      ],
      "settings": {
        "show_breadcrumbs": false,
        "show_location_underneath": false,
        "inventory_transfers_enable": false,
        "gallery_size": "large",
        "prod_gall_thumbs_under": "under",
        "enable_sticky_gallery": true,
        "enable_zoom": true,
        "enable_video_looping": true
      }
    },
    "1643444220e8d0ba61": {
      "type": "logo-list",
      "blocks": {
        "837cd503-8490-4957-b16e-a6e1c5dd85e6": {
          "type": "logo",
          "settings": {
            "image": "shopify:\/\/shop_images\/fur_resistant.png",
            "image_width": 80,
            "link": "",
            "title": "Pet fur-resistant"
          }
        },
        "e9e388f4-c588-4cc1-a98b-8e84f12e743d": {
          "type": "logo",
          "settings": {
            "image": "shopify:\/\/shop_images\/snag_proof.png",
            "image_width": 80,
            "link": "",
            "title": "Snag-proof"
          }
        },
        "b672e834-1a2f-4fab-bcdd-82b453935ea7": {
          "type": "logo",
          "settings": {
            "image": "shopify:\/\/shop_images\/sustainable.png",
            "image_width": 80,
            "link": "",
            "title": "Plant-based"
          }
        },
        "c6d674eb-c1ba-40e2-a05c-bf2ad861bf62": {
          "type": "logo",
          "disabled": true,
          "settings": {
            "image_width": 80,
            "link": "",
            "title": "Water-saving"
          }
        },
        "edeb7ee9-b7a5-445b-8113-8790247ba45e": {
          "type": "logo",
          "settings": {
            "image": "shopify:\/\/shop_images\/comfortable.png",
            "image_width": 80,
            "link": "",
            "title": "Extra wholesome"
          }
        }
      },
      "block_order": [
        "837cd503-8490-4957-b16e-a6e1c5dd85e6",
        "e9e388f4-c588-4cc1-a98b-8e84f12e743d",
        "b672e834-1a2f-4fab-bcdd-82b453935ea7",
        "c6d674eb-c1ba-40e2-a05c-bf2ad861bf62",
        "edeb7ee9-b7a5-445b-8113-8790247ba45e"
      ],
      "disabled": true,
      "settings": {
        "title": "",
        "image_opacity": 100,
        "use_alt_bg": true
      }
    },
    "164318472923bd8e51": {
      "type": "featured-collection",
      "settings": {
        "title": "You Might Also Like...",
        "collection": "bamboo-bedding",
        "show_vendor": false,
        "enable_carousel": false,
        "grid": 4,
        "rows": 4,
        "use_alt_bg": false,
        "show_view_all": false,
        "full_width": true
      }
    },
    "aa74e1bb-6025-4d81-a09a-83a285a2c7f0": {
      "type": "slideshow",
      "blocks": {
        "template--15747436478660__aa74e1bb-6025-4d81-a09a-83a285a2c7f0-166617632492b62f7c-1": {
          "type": "image",
          "settings": {
            "image": "shopify:\/\/shop_images\/brand_intro_2_71449a2a-2862-4163-86a2-6ed1ffc5c98f.png",
            "mobile_image": "shopify:\/\/shop_images\/banner_6_b8549a8c-0f98-4d6e-93d0-849730885c31.png",
            "image_position": "center center",
            "slide_link": "",
            "subheading": "",
            "title": "What bedding is best for people with dogs and cats? \nslashop",
            "title_size": 38,
            "text": "",
            "enlarge_text": true,
            "button_label": "",
            "text_alignment": "center center"
          }
        },
        "template--15747436478660__aa74e1bb-6025-4d81-a09a-83a285a2c7f0-166617632492b62f7c-0": {
          "type": "image",
          "settings": {
            "image": "shopify:\/\/shop_images\/brand-intro-1_0665f17b-889b-4e44-8103-13400a9a27f3.jpg",
            "mobile_image": "shopify:\/\/shop_images\/banner_4_ff2e72c4-2d12-44cd-b8ee-95dd97820475.jpg",
            "image_position": "center center",
            "slide_link": "",
            "subheading": "",
            "title": "We redesign all textile essentials to meet the pet family’s needs, with the environment in mind",
            "title_size": 38,
            "text": "",
            "enlarge_text": true,
            "button_label": "",
            "text_alignment": "center center"
          }
        },
        "c19607a7-8e6a-4bfb-b0a6-d3fb38b85fd8": {
          "type": "image",
          "settings": {
            "image": "shopify:\/\/shop_images\/banner_3_17145fcc-009b-47cb-a9c1-cf7e1ae6aacc.png",
            "mobile_image": "shopify:\/\/shop_images\/banner_5_f9f74646-a40b-4cbc-a7e0-43bd68acbe05.jpg",
            "image_position": "center center",
            "slide_link": "",
            "subheading": "",
            "title": "Welcome furry friends to your life, easy and free",
            "title_size": 38,
            "text": "",
            "enlarge_text": true,
            "button_label": "",
            "text_alignment": "center center"
          }
        }
      },
      "block_order": [
        "template--15747436478660__aa74e1bb-6025-4d81-a09a-83a285a2c7f0-166617632492b62f7c-1",
        "template--15747436478660__aa74e1bb-6025-4d81-a09a-83a285a2c7f0-166617632492b62f7c-0",
        "c19607a7-8e6a-4bfb-b0a6-d3fb38b85fd8"
      ],
      "disabled": true,
      "settings": {
        "height": "adapt",
        "height_desktop": 640,
        "height_mobile": 520,
        "full_width": true,
        "mobile_overlay_under": false,
        "overlay_style": "full",
        "slide_transition": "fade",
        "slide_navigation": "arrows",
        "autoplay": true,
        "autoplay_speed": 1
      }
    },
    "b3cb08a9-2d12-4f1e-a93f-ef08803e5e95": {
      "type": "rich-text",
      "blocks": {
        "template--15747436478660__b3cb08a9-2d12-4f1e-a93f-ef08803e5e95-166617633844f03127-1": {
          "type": "heading",
          "settings": {
            "title": "Why Bamboo Bedding?",
            "use_h1": false
          }
        },
        "template--15747436478660__b3cb08a9-2d12-4f1e-a93f-ef08803e5e95-166617633844f03127-2": {
          "type": "text",
          "settings": {
            "text": "<p>Learn about Bamboo properties<\/p>",
            "enlarge_text": false
          }
        }
      },
      "block_order": [
        "template--15747436478660__b3cb08a9-2d12-4f1e-a93f-ef08803e5e95-166617633844f03127-1",
        "template--15747436478660__b3cb08a9-2d12-4f1e-a93f-ef08803e5e95-166617633844f03127-2"
      ],
      "disabled": true,
      "settings": {
        "height": "medium",
        "text_alignment": "center",
        "full_width": false,
        "use_alt_bg": false
      }
    },
    "1637827161ab4ea7d6": {
      "type": "custom-row",
      "blocks": {
        "1637827161214f8d12-1": {
          "type": "text",
          "settings": {
            "width": "half",
            "subheading": "",
            "title": "Bamboo properties",
            "text": "",
            "button_label": "",
            "button_link": "",
            "button_style": "primary",
            "text_alignment": "center"
          }
        }
      },
      "block_order": [
        "1637827161214f8d12-1"
      ],
      "disabled": true,
      "settings": {
        "alignment": "top",
        "class_name": "custom-row"
      }
    },
    "1638940697011c8bb5": {
      "type": "custom-row",
      "blocks": {
        "1638940697994455c0-0": {
          "type": "image",
          "settings": {
            "width": "third",
            "image": "shopify:\/\/shop_images\/selling_point_8cabaedc-e29c-48fd-8684-69bd32c7d061.png",
            "image_position": "center center",
            "height": "fixed",
            "height_desktop": 480,
            "height_mobile": 360,
            "subheading": "",
            "title": "",
            "text": "",
            "enlarge_text": false,
            "button_label": "",
            "image_link": "",
            "text_alignment": "center center",
            "mobile_overlay_under": false,
            "overlay_style": "no_background"
          }
        },
        "1638940697994455c0-1": {
          "type": "text",
          "settings": {
            "width": "half",
            "subheading": "",
            "title": "Pet hair resistant",
            "text": "<p><strong>Perfect for families with dogs and cats<\/strong><\/p><p>Slashop innovative hair resistant fabric is anti-static, effectively prevents hair and dust stuck on bed. It doesn't prevent your husky from shedding, while you remove pet furwith hands easily.<\/p>",
            "button_label": "",
            "button_link": "",
            "button_style": "primary",
            "text_alignment": "left"
          }
        }
      },
      "block_order": [
        "1638940697994455c0-0",
        "1638940697994455c0-1"
      ],
      "disabled": true,
      "settings": {
        "alignment": "middle",
        "class_name": "custom-row"
      }
    },
    "163894072740ffbfce": {
      "type": "custom-row",
      "blocks": {
        "163894072768ad7053-0": {
          "type": "image",
          "settings": {
            "width": "third",
            "image": "shopify:\/\/shop_images\/fur-resistant_95460dd6-de96-4323-8cee-9f94c19e5756.png",
            "image_position": "center center",
            "height": "fixed",
            "height_desktop": 480,
            "height_mobile": 360,
            "subheading": "",
            "title": "",
            "text": "",
            "enlarge_text": false,
            "button_label": "",
            "image_link": "",
            "text_alignment": "center center",
            "mobile_overlay_under": false,
            "overlay_style": "full"
          }
        },
        "163894072768ad7053-1": {
          "type": "text",
          "settings": {
            "width": "half",
            "subheading": "",
            "title": "Anti-bacterial  and Anti-odor",
            "text": "<p><strong>Enjoy sleeping with your furry friends<\/strong><\/p><p>Bamboo naturally contains anti-bacterial substance \"bamboo quinone\" which makes it anti-odor and anti-microbial<em>.<\/em><\/p>",
            "button_label": "",
            "button_link": "",
            "button_style": "primary",
            "text_alignment": "left"
          }
        }
      },
      "block_order": [
        "163894072768ad7053-0",
        "163894072768ad7053-1"
      ],
      "disabled": true,
      "settings": {
        "alignment": "middle",
        "class_name": "custom-row"
      }
    },
    "1638941065e1970d95": {
      "type": "custom-row",
      "blocks": {
        "16389410655a411aaf-0": {
          "type": "image",
          "settings": {
            "width": "third",
            "image": "shopify:\/\/shop_images\/dog1.png",
            "image_position": "center center",
            "height": "fixed",
            "height_desktop": 480,
            "height_mobile": 360,
            "subheading": "",
            "title": "",
            "text": "",
            "enlarge_text": false,
            "button_label": "",
            "image_link": "",
            "text_alignment": "bottom left",
            "mobile_overlay_under": false,
            "overlay_style": "full"
          }
        },
        "16389410655a411aaf-1": {
          "type": "text",
          "settings": {
            "width": "half",
            "subheading": "",
            "title": "Ideal for hot sleepers",
            "text": "<p><strong>Forget about hot flashes<\/strong><\/p><p>Slashop bamboo bedding is absorbent and dries super quickly, perfect for sweaty hot sleepers. Our innovative fabric is also thermo-regulating and breathable, keeps you cool all night long.<\/p>",
            "button_label": "",
            "button_link": "",
            "button_style": "primary",
            "text_alignment": "left"
          }
        }
      },
      "block_order": [
        "16389410655a411aaf-0",
        "16389410655a411aaf-1"
      ],
      "disabled": true,
      "settings": {
        "alignment": "middle",
        "class_name": "custom-row"
      }
    },
    "d844b793-e35a-4e68-9486-3ad90ed58bc7": {
      "type": "slideshow",
      "blocks": {
        "template--15747436478660__d844b793-e35a-4e68-9486-3ad90ed58bc7-166617632773c30fb2-0": {
          "type": "image",
          "settings": {
            "image": "shopify:\/\/shop_images\/comparison.png",
            "mobile_image": "shopify:\/\/shop_images\/bamboo_cotton_update_a04fc060-b2da-4c35-b63e-3bede995866b.png",
            "image_position": "center center",
            "slide_link": "",
            "subheading": "",
            "title": "",
            "title_size": 46,
            "text": "",
            "enlarge_text": true,
            "button_label": "",
            "text_alignment": "center center"
          }
        },
        "template--15747436478660__d844b793-e35a-4e68-9486-3ad90ed58bc7-166617632773c30fb2-1": {
          "type": "image",
          "disabled": true,
          "settings": {
            "image_position": "center center",
            "slide_link": "",
            "subheading": "Subheading",
            "title": "Tell your story",
            "title_size": 46,
            "text": "<p>Pair text with an image to tell a story<\/p>",
            "enlarge_text": true,
            "button_label": "",
            "text_alignment": "center center"
          }
        }
      },
      "block_order": [
        "template--15747436478660__d844b793-e35a-4e68-9486-3ad90ed58bc7-166617632773c30fb2-0",
        "template--15747436478660__d844b793-e35a-4e68-9486-3ad90ed58bc7-166617632773c30fb2-1"
      ],
      "disabled": true,
      "settings": {
        "height": "adapt",
        "height_desktop": 400,
        "height_mobile": 540,
        "full_width": true,
        "mobile_overlay_under": false,
        "overlay_style": "full",
        "slide_transition": "fade",
        "slide_navigation": "arrows",
        "autoplay": true,
        "autoplay_speed": 1
      }
    },
    "recommendations": {
      "type": "product-recommendations",
      "disabled": true,
      "settings": {
        "title": "Related products",
        "show_vendor": false,
        "grid": 4
      }
    },
    "1641899986c3ca8597": {
      "type": "text-columns-with-images",
      "blocks": {
        "16418999869057970b-0": {
          "type": "text_block",
          "settings": {
            "enable_image": true,
            "image": "shopify:\/\/shop_images\/bamboo_b_e6f07c01-6852-4c91-ae87-e8676b04b648.png",
            "image_width": 700,
            "title": "Eucalyptus",
            "text": "<p>Biobased material, water-saving,   biodegradable.<\/p>",
            "button_label": "Learn more",
            "link": "shopify:\/\/pages\/eucalyptus"
          }
        },
        "16418999869057970b-1": {
          "type": "text_block",
          "settings": {
            "enable_image": true,
            "image": "shopify:\/\/shop_images\/bamboo_bb.png",
            "image_width": 700,
            "title": "Bamboo",
            "text": "<p>Regenerative, water + energy-efficient, bio circular.<\/p>",
            "button_label": "Learn more",
            "link": "shopify:\/\/pages\/bamboo"
          }
        },
        "16418999869057970b-2": {
          "type": "text_block",
          "settings": {
            "enable_image": true,
            "image": "shopify:\/\/shop_images\/sustainability_round_8_99bd24e4-2ebe-471a-8f84-0d56f7dff19b.png",
            "image_width": 700,
            "title": "Aerogel",
            "text": "<p>Developed by NASA, let science keep you warm.<\/p>",
            "button_label": "Learn more",
            "link": "shopify:\/\/pages\/aerogel"
          }
        }
      },
      "block_order": [
        "16418999869057970b-0",
        "16418999869057970b-1",
        "16418999869057970b-2"
      ],
      "disabled": true,
      "settings": {
        "title": "Our responsible materials",
        "text_alignment": "center",
        "button_style": "link",
        "use_alt_bg": false
      }
    },
    "16566724657dfe3a69": {
      "type": "testimonials",
      "blocks": {
        "1656672465e112a601-0": {
          "type": "testimonial",
          "settings": {
            "star_rating": 5,
            "testimonial": "\"My new sheets are incredibly soft & excellent for hot sleepers. Most comfortable sleep ever.\"",
            "author": "dinaraxyz",
            "image": "shopify:\/\/shop_images\/kol_3.png",
            "image_alignment": "center center",
            "image_caption": "",
            "link": ""
          }
        },
        "1656672465e112a601-1": {
          "type": "testimonial",
          "settings": {
            "star_rating": 5,
            "testimonial": "The sheets are beautiful with a soft luxury feel. I've been sleeping more comfortably ever since!",
            "author": "sabrinagagnelussien",
            "image": "shopify:\/\/shop_images\/ins_9.png",
            "image_alignment": "center left",
            "image_caption": "",
            "link": ""
          }
        },
        "7b9578e5-cdc4-4f49-bad9-ec391114ec79": {
          "type": "testimonial",
          "settings": {
            "star_rating": 5,
            "testimonial": "We got new sheets for our bed. They are hypoallergenic, very soft & silky.",
            "author": "lafamilialatorre",
            "image": "shopify:\/\/shop_images\/5.png",
            "image_alignment": "center center",
            "image_caption": "",
            "link": ""
          }
        }
      },
      "block_order": [
        "1656672465e112a601-0",
        "1656672465e112a601-1",
        "7b9578e5-cdc4-4f49-bad9-ec391114ec79"
      ],
      "disabled": true,
      "settings": {
        "title": "Customer reviews",
        "layout": "image-left",
        "image_shape": "square",
        "use_alt_bg": false
      }
    },
    "bd952129-c228-4ec7-8669-5a84ac4cb299": {
      "type": "rich-text",
      "blocks": {
        "template--15747436478660__bd952129-c228-4ec7-8669-5a84ac4cb299-166617633844f03127-0": {
          "type": "subheading",
          "disabled": true,
          "settings": {
            "subheading": "Subheading"
          }
        },
        "template--15747436478660__bd952129-c228-4ec7-8669-5a84ac4cb299-166617633844f03127-1": {
          "type": "heading",
          "settings": {
            "title": "Furry friends approved",
            "use_h1": false
          }
        },
        "template--15747436478660__bd952129-c228-4ec7-8669-5a84ac4cb299-166617633844f03127-2": {
          "type": "text",
          "settings": {
            "text": "<p>Follow @slashopofficial to find more<\/p>",
            "enlarge_text": false
          }
        }
      },
      "block_order": [
        "template--15747436478660__bd952129-c228-4ec7-8669-5a84ac4cb299-166617633844f03127-0",
        "template--15747436478660__bd952129-c228-4ec7-8669-5a84ac4cb299-166617633844f03127-1",
        "template--15747436478660__bd952129-c228-4ec7-8669-5a84ac4cb299-166617633844f03127-2"
      ],
      "settings": {
        "height": "medium",
        "text_alignment": "center",
        "full_width": false,
        "use_alt_bg": false
      }
    },
    "shogun-below": {
      "type": "shogun-below",
      "settings": {}
    },
    "d1e3be9a-687e-4d78-ad1f-51a5b1c3d246": {
      "type": "gallery",
      "blocks": {
        "template--15747436478660__d1e3be9a-687e-4d78-ad1f-51a5b1c3d246-1666176326de12d1fb-0": {
          "type": "image",
          "settings": {
            "image": "shopify:\/\/shop_images\/KOL_review_2_7eb7914a-4702-4ff9-8151-1af27d1f8e13.png",
            "alignment": "center center",
            "enlarge_image": false,
            "subheading": "",
            "title": "",
            "button_label": "",
            "link": "",
            "text_alignment": "center center"
          }
        },
        "template--15747436478660__d1e3be9a-687e-4d78-ad1f-51a5b1c3d246-1666176326de12d1fb-1": {
          "type": "image",
          "settings": {
            "image": "shopify:\/\/shop_images\/kol_reviews_3.png",
            "alignment": "center center",
            "enlarge_image": false,
            "subheading": "",
            "title": "",
            "button_label": "",
            "link": "",
            "text_alignment": "center center"
          }
        },
        "template--15747436478660__d1e3be9a-687e-4d78-ad1f-51a5b1c3d246-1666176326de12d1fb-2": {
          "type": "image",
          "settings": {
            "image": "shopify:\/\/shop_images\/Kol_review_1_4962ff73-ae4a-4b5c-90db-81979faecb29.png",
            "alignment": "center center",
            "enlarge_image": false,
            "subheading": "",
            "title": "",
            "button_label": "",
            "link": "",
            "text_alignment": "center center"
          }
        }
      },
      "block_order": [
        "template--15747436478660__d1e3be9a-687e-4d78-ad1f-51a5b1c3d246-1666176326de12d1fb-0",
        "template--15747436478660__d1e3be9a-687e-4d78-ad1f-51a5b1c3d246-1666176326de12d1fb-1",
        "template--15747436478660__d1e3be9a-687e-4d78-ad1f-51a5b1c3d246-1666176326de12d1fb-2"
      ],
      "settings": {
        "grid": 3,
        "desktop_image_height": 400,
        "mobile_image_height": 400,
        "enable_margin": true,
        "full_width": false,
        "use_alt_bg": false,
        "enable_carousel": true,
        "overlay_style": "full",
        "button_style": "primary"
      }
    },
    "1637660818f2c8d56c": {
      "type": "apps",
      "blocks": {
        "cbf4094a-53cc-4ecc-bb56-11579e9270ec": {
          "type": "shopify:\/\/apps\/yotpo-product-photo-reviews\/blocks\/reviews\/eb7dfd7d-db44-4334-bc49-c893b51b36cf",
          "settings": {
            "product": "{{product}}"
          }
        }
      },
      "block_order": [
        "cbf4094a-53cc-4ecc-bb56-11579e9270ec"
      ],
      "settings": {
        "full_width": false
      }
    },
    "16433551324dca06ee": {
      "type": "logo-list",
      "blocks": {
        "6207d941-fdb6-49f0-9e98-0125880c5565": {
          "type": "logo",
          "settings": {
            "image": "shopify:\/\/shop_images\/fo__round.png",
            "image_width": 160,
            "link": "",
            "title": "Forest Stewardship Council"
          }
        },
        "0f88bd70-5b81-47d8-8564-a8950f2dccad": {
          "type": "logo",
          "disabled": true,
          "settings": {
            "image": "shopify:\/\/shop_images\/forest__round.png",
            "image_width": 160,
            "link": "shopify:\/\/pages\/certifications",
            "title": "Organic Content Standard"
          }
        },
        "aa4c67e9-98c7-4025-8948-1aeab2267bb3": {
          "type": "logo",
          "settings": {
            "image": "shopify:\/\/shop_images\/oeko__round_45db7309-ad8d-4830-a266-3f3e4446e798.png",
            "image_width": 280,
            "link": "",
            "title": "Standard 100 by OEKO-TEX"
          }
        }
      },
      "block_order": [
        "6207d941-fdb6-49f0-9e98-0125880c5565",
        "0f88bd70-5b81-47d8-8564-a8950f2dccad",
        "aa4c67e9-98c7-4025-8948-1aeab2267bb3"
      ],
      "settings": {
        "title": "Certified by",
        "image_opacity": 100,
        "use_alt_bg": false
      }
    },
    "ef6b13bb-414f-483b-9fff-920706944731": {
      "type": "image-with-text-overlay",
      "settings": {
        "image": "shopify:\/\/shop_images\/sale.png",
        "image_position": "center center",
        "height": "fixed",
        "height_desktop": 440,
        "height_mobile": 220,
        "subheading": "",
        "title": "Last Call Sale",
        "title_size": 46,
        "use_h1": false,
        "text": "",
        "enlarge_text": false,
        "button_label": "Shop now",
        "image_link": "shopify:\/\/collections\/sale",
        "text_alignment": "center center",
        "full_width": true,
        "mobile_overlay_under": false,
        "overlay_style": "full"
      }
    }
  },
  "order": [
    "shogun-helper",
    "shogun-above",
    "main",
    "1643444220e8d0ba61",
    "164318472923bd8e51",
    "aa74e1bb-6025-4d81-a09a-83a285a2c7f0",
    "b3cb08a9-2d12-4f1e-a93f-ef08803e5e95",
    "1637827161ab4ea7d6",
    "1638940697011c8bb5",
    "163894072740ffbfce",
    "1638941065e1970d95",
    "d844b793-e35a-4e68-9486-3ad90ed58bc7",
    "recommendations",
    "1641899986c3ca8597",
    "16566724657dfe3a69",
    "bd952129-c228-4ec7-8669-5a84ac4cb299",
    "shogun-below",
    "d1e3be9a-687e-4d78-ad1f-51a5b1c3d246",
    "1637660818f2c8d56c",
    "16433551324dca06ee",
    "ef6b13bb-414f-483b-9fff-920706944731"
  ]
}