{
  "sections": {
    "shogun-helper": {
      "type": "shogun-helper",
      "settings": {}
    },
    "shogun-above": {
      "type": "shogun-above",
      "settings": {}
    },
    "main": {
      "type": "main-product",
      "blocks": {
        "title": {
          "type": "title",
          "settings": {}
        },
        "dc683298-ab09-4c00-b7a7-181936016a2c": {
          "type": "shopify:\/\/apps\/yotpo-product-photo-reviews\/blocks\/star-rating\/eb7dfd7d-db44-4334-bc49-c893b51b36cf",
          "settings": {
            "product": "{{product}}"
          }
        },
        "price": {
          "type": "price",
          "settings": {
            "show_tax_and_shipping": false
          }
        },
        "e16eb14b-0ba9-4180-a2c8-c26223761a76": {
          "type": "variant_picker",
          "settings": {
            "show_single": true,
            "show_size_chart": true,
            "size_chart_variant": "Size Guide",
            "size_chart_page": "size-guide-bedding"
          }
        },
        "f3a25f10-9668-4e48-99d5-d65528f18e08": {
          "type": "richtext",
          "settings": {
            "richtext": "<p><strong>Includes  1 duvet cover.<\/strong><\/p>",
            "show_in_quickbuy": false
          }
        },
        "61598d8d-b87c-4bbb-8fa1-b14a67460996": {
          "type": "richtext",
          "settings": {
            "richtext": "<p><strong>Free delivery on orders over $100.<\/strong><\/p>",
            "show_in_quickbuy": false
          }
        },
        "7c523533-ebf4-4f72-8942-feda1e8fa34d": {
          "type": "text",
          "disabled": true,
          "settings": {
            "text": "Includes 1*Flat sheet, 1*Fitted sheet and 2*Pillowcases.",
            "show_in_quickbuy": false
          }
        },
        "6515b48a-8f4a-4bad-acc6-799e8d70e96c": {
          "type": "text",
          "disabled": true,
          "settings": {
            "text": "*Fast Free Delivery Site-wide",
            "show_in_quickbuy": false
          }
        },
        "buy_buttons": {
          "type": "buy_buttons",
          "settings": {
            "show_quantity_selector": false,
            "enable_payment_button": false,
            "show_backorder_text": false,
            "show_inventory_notice": false,
            "inventory_notice_threshold": 100,
            "show_pickup_availability": true
          }
        },
        "23c9a8d7-9888-4e4f-8842-17e80ae81f56": {
          "type": "accordion",
          "settings": {
            "title": "DETAILS",
            "content": "<p>Made from a blend of bamboo viscose and linen, this duvet cover is breathable, moisture-wicking, and feels cooler than cotton.<\/p><p><strong>* Comfortable bedding for all seasons<\/strong><\/p><p><strong>* Helps regulate body temperature, especially for hot sleepers<\/strong><\/p><p><strong>* Enhanced weave prevents pilling<\/strong><\/p><p><strong>* Naturally antimicrobial, environmentally friendly<\/strong><\/p>",
            "page": "",
            "open": true,
            "show_in_quickbuy": false
          }
        },
        "5835fca3-e839-4707-850f-f5042ca77209": {
          "type": "accordion",
          "settings": {
            "title": "FABRIC",
            "content": "<p><strong>70% Bamboo + 30% Linen<\/strong><\/p>",
            "page": "",
            "open": false,
            "show_in_quickbuy": false
          }
        },
        "572270c6-2676-4c39-a468-53536a802d56": {
          "type": "accordion",
          "settings": {
            "title": "CARE",
            "content": "<p>Machine wash in warm water with mild detergent; no bleach.<\/p><p>Machine wash in a commercial-sized front loading washing machine.<\/p><p>Tumble dry on low heat in a commercial-sized dryer for a minimum of two to three cycles.<br\/><\/p><p>For additional questions, please contact us.<\/p>",
            "page": "",
            "open": false,
            "show_in_quickbuy": false
          }
        },
        "b17ea531-cdc9-41b5-83ba-82d7c5700d27": {
          "type": "image",
          "disabled": true,
          "settings": {
            "image_width": 700,
            "url": "",
            "show_in_quickbuy": false
          }
        },
        "a18f81f8-63c2-4ef1-9a56-7e3da88860f0": {
          "type": "sharing",
          "settings": {
            "show_in_quickbuy": false
          }
        }
      },
      "block_order": [
        "title",
        "dc683298-ab09-4c00-b7a7-181936016a2c",
        "price",
        "e16eb14b-0ba9-4180-a2c8-c26223761a76",
        "f3a25f10-9668-4e48-99d5-d65528f18e08",
        "61598d8d-b87c-4bbb-8fa1-b14a67460996",
        "7c523533-ebf4-4f72-8942-feda1e8fa34d",
        "6515b48a-8f4a-4bad-acc6-799e8d70e96c",
        "buy_buttons",
        "23c9a8d7-9888-4e4f-8842-17e80ae81f56",
        "5835fca3-e839-4707-850f-f5042ca77209",
        "572270c6-2676-4c39-a468-53536a802d56",
        "b17ea531-cdc9-41b5-83ba-82d7c5700d27",
        "a18f81f8-63c2-4ef1-9a56-7e3da88860f0"
      ],
      "settings": {
        "show_breadcrumbs": false,
        "show_location_underneath": false,
        "inventory_transfers_enable": false,
        "gallery_size": "large",
        "prod_gall_thumbs_under": "under",
        "enable_sticky_gallery": true,
        "enable_zoom": true,
        "enable_video_looping": true
      }
    },
    "1643444220e8d0ba61": {
      "type": "logo-list",
      "blocks": {
        "837cd503-8490-4957-b16e-a6e1c5dd85e6": {
          "type": "logo",
          "settings": {
            "image": "shopify:\/\/shop_images\/fur_resistant.png",
            "image_width": 80,
            "link": "",
            "title": "Pet fur-resistant"
          }
        },
        "e9e388f4-c588-4cc1-a98b-8e84f12e743d": {
          "type": "logo",
          "settings": {
            "image": "shopify:\/\/shop_images\/snag_proof.png",
            "image_width": 80,
            "link": "",
            "title": "Snag-proof"
          }
        },
        "b672e834-1a2f-4fab-bcdd-82b453935ea7": {
          "type": "logo",
          "settings": {
            "image": "shopify:\/\/shop_images\/sustainable.png",
            "image_width": 80,
            "link": "",
            "title": "Plant-based"
          }
        },
        "c6d674eb-c1ba-40e2-a05c-bf2ad861bf62": {
          "type": "logo",
          "disabled": true,
          "settings": {
            "image_width": 80,
            "link": "",
            "title": "Water-saving"
          }
        },
        "edeb7ee9-b7a5-445b-8113-8790247ba45e": {
          "type": "logo",
          "settings": {
            "image": "shopify:\/\/shop_images\/comfortable.png",
            "image_width": 80,
            "link": "",
            "title": "Extra wholesome"
          }
        }
      },
      "block_order": [
        "837cd503-8490-4957-b16e-a6e1c5dd85e6",
        "e9e388f4-c588-4cc1-a98b-8e84f12e743d",
        "b672e834-1a2f-4fab-bcdd-82b453935ea7",
        "c6d674eb-c1ba-40e2-a05c-bf2ad861bf62",
        "edeb7ee9-b7a5-445b-8113-8790247ba45e"
      ],
      "disabled": true,
      "settings": {
        "title": "",
        "image_opacity": 100,
        "use_alt_bg": true
      }
    },
    "164318472923bd8e51": {
      "type": "featured-collection",
      "settings": {
        "title": "You Might Also Like...",
        "collection": "best-seller",
        "show_vendor": false,
        "enable_carousel": true,
        "grid": 2,
        "rows": 1,
        "use_alt_bg": false,
        "show_view_all": false,
        "full_width": true
      }
    },
    "ccbad8c6-7129-48ad-af24-d5efad6d370e": {
      "type": "slideshow",
      "blocks": {
        "template--15688058503364__ccbad8c6-7129-48ad-af24-d5efad6d370e-16661724087f31119d-1": {
          "type": "image",
          "settings": {
            "image": "shopify:\/\/shop_images\/brand_intro_2_71449a2a-2862-4163-86a2-6ed1ffc5c98f.png",
            "mobile_image": "shopify:\/\/shop_images\/banner_6_b8549a8c-0f98-4d6e-93d0-849730885c31.png",
            "image_position": "bottom center",
            "slide_link": "",
            "subheading": "",
            "title": "What bedding is best for people with dogs and cats? \nslashop",
            "title_size": 38,
            "text": "",
            "enlarge_text": false,
            "button_label": "",
            "text_alignment": "center center"
          }
        },
        "template--15688058503364__ccbad8c6-7129-48ad-af24-d5efad6d370e-16661724087f31119d-0": {
          "type": "image",
          "settings": {
            "image": "shopify:\/\/shop_images\/brand-intro-1_29b29aa7-c65b-4102-af62-0f4fc1aba1f7.jpg",
            "mobile_image": "shopify:\/\/shop_images\/banner_4_78cea3b2-ea3e-4ca1-891e-1bf0d93c9d3a.jpg",
            "image_position": "bottom center",
            "slide_link": "",
            "subheading": "",
            "title": "We redesign all textile essentials to meet the pet family’s needs, with the environment in mind",
            "title_size": 38,
            "text": "",
            "enlarge_text": false,
            "button_label": "",
            "text_alignment": "center center"
          }
        },
        "2d0f12b8-19eb-4a08-82a0-c842142bd93e": {
          "type": "image",
          "settings": {
            "image": "shopify:\/\/shop_images\/banner_3_a4e98c87-512c-4a4d-8697-a2f799ef8832.png",
            "mobile_image": "shopify:\/\/shop_images\/banner_5_f9f74646-a40b-4cbc-a7e0-43bd68acbe05.jpg",
            "image_position": "bottom center",
            "slide_link": "",
            "subheading": "",
            "title": "Welcome furry friends to your life, easy and free",
            "title_size": 38,
            "text": "",
            "enlarge_text": false,
            "button_label": "",
            "text_alignment": "center center"
          }
        }
      },
      "block_order": [
        "template--15688058503364__ccbad8c6-7129-48ad-af24-d5efad6d370e-16661724087f31119d-1",
        "template--15688058503364__ccbad8c6-7129-48ad-af24-d5efad6d370e-16661724087f31119d-0",
        "2d0f12b8-19eb-4a08-82a0-c842142bd93e"
      ],
      "settings": {
        "height": "adapt",
        "height_desktop": 640,
        "height_mobile": 520,
        "full_width": true,
        "mobile_overlay_under": false,
        "overlay_style": "full",
        "slide_transition": "fade",
        "slide_navigation": "arrows",
        "autoplay": true,
        "autoplay_speed": 3
      }
    },
    "bd5db276-5973-4e50-83a3-eb87494b4713": {
      "type": "rich-text",
      "blocks": {
        "template--15688058503364__bd5db276-5973-4e50-83a3-eb87494b4713-1666172908a8f590cb-0": {
          "type": "subheading",
          "disabled": true,
          "settings": {
            "subheading": ""
          }
        },
        "template--15688058503364__bd5db276-5973-4e50-83a3-eb87494b4713-1666172908a8f590cb-1": {
          "type": "heading",
          "settings": {
            "title": "Why Bamboo Bedding?",
            "use_h1": false
          }
        },
        "template--15688058503364__bd5db276-5973-4e50-83a3-eb87494b4713-1666172908a8f590cb-2": {
          "type": "text",
          "settings": {
            "text": "<p>Learn about Bamboo properties<\/p>",
            "enlarge_text": false
          }
        }
      },
      "block_order": [
        "template--15688058503364__bd5db276-5973-4e50-83a3-eb87494b4713-1666172908a8f590cb-0",
        "template--15688058503364__bd5db276-5973-4e50-83a3-eb87494b4713-1666172908a8f590cb-1",
        "template--15688058503364__bd5db276-5973-4e50-83a3-eb87494b4713-1666172908a8f590cb-2"
      ],
      "settings": {
        "height": "medium",
        "text_alignment": "center",
        "full_width": false,
        "use_alt_bg": false
      }
    },
    "1637827161ab4ea7d6": {
      "type": "custom-row",
      "blocks": {
        "1637827161214f8d12-1": {
          "type": "text",
          "settings": {
            "width": "half",
            "subheading": "",
            "title": "Why Bamboo Bedding?",
            "text": "",
            "button_label": "",
            "button_link": "",
            "button_style": "primary",
            "text_alignment": "center"
          }
        }
      },
      "block_order": [
        "1637827161214f8d12-1"
      ],
      "disabled": true,
      "settings": {
        "alignment": "top",
        "class_name": "custom-row"
      }
    },
    "1638940697011c8bb5": {
      "type": "custom-row",
      "blocks": {
        "1638940697994455c0-0": {
          "type": "image",
          "settings": {
            "width": "third",
            "image": "shopify:\/\/shop_images\/selling_point.png",
            "image_position": "center center",
            "height": "fixed",
            "height_desktop": 480,
            "height_mobile": 360,
            "subheading": "",
            "title": "",
            "text": "",
            "enlarge_text": false,
            "button_label": "",
            "image_link": "",
            "text_alignment": "center center",
            "mobile_overlay_under": false,
            "overlay_style": "no_background"
          }
        },
        "1638940697994455c0-1": {
          "type": "text",
          "settings": {
            "width": "half",
            "subheading": "",
            "title": "Pet hair resistant",
            "text": "<p><strong>Perfect for families with dogs and cats<\/strong><\/p><p>Slashop innovative hair resistant fabric is anti-static, effectively prevents hair and dust stuck on bed. It doesn't prevent your husky from shedding, while you remove pet fur with hands easily.<\/p>",
            "button_label": "",
            "button_link": "",
            "button_style": "primary",
            "text_alignment": "left"
          }
        }
      },
      "block_order": [
        "1638940697994455c0-0",
        "1638940697994455c0-1"
      ],
      "settings": {
        "alignment": "middle",
        "class_name": "custom-row"
      }
    },
    "163894072740ffbfce": {
      "type": "custom-row",
      "blocks": {
        "163894072768ad7053-0": {
          "type": "image",
          "settings": {
            "width": "third",
            "image": "shopify:\/\/shop_images\/fur-resistant_e81d8704-2729-4e65-983f-e5e88d6fd5e9.png",
            "image_position": "center center",
            "height": "fixed",
            "height_desktop": 480,
            "height_mobile": 360,
            "subheading": "",
            "title": "",
            "text": "",
            "enlarge_text": false,
            "button_label": "",
            "image_link": "",
            "text_alignment": "center center",
            "mobile_overlay_under": false,
            "overlay_style": "full"
          }
        },
        "163894072768ad7053-1": {
          "type": "text",
          "settings": {
            "width": "half",
            "subheading": "",
            "title": "Anti-bacterial  and Anti-odor",
            "text": "<p><strong>Enjoy sleeping with your furry friends<\/strong><\/p><p>Bamboo naturally contains anti-bacterial substance \"bamboo quinone\" which makes it anti-odor and anti-microbial<em>.<\/em><\/p>",
            "button_label": "",
            "button_link": "",
            "button_style": "primary",
            "text_alignment": "left"
          }
        }
      },
      "block_order": [
        "163894072768ad7053-0",
        "163894072768ad7053-1"
      ],
      "settings": {
        "alignment": "middle",
        "class_name": "custom-row"
      }
    },
    "1638941065e1970d95": {
      "type": "custom-row",
      "blocks": {
        "16389410655a411aaf-0": {
          "type": "image",
          "settings": {
            "width": "third",
            "image": "shopify:\/\/shop_images\/dog1.png",
            "image_position": "center center",
            "height": "fixed",
            "height_desktop": 480,
            "height_mobile": 360,
            "subheading": "",
            "title": "",
            "text": "",
            "enlarge_text": false,
            "button_label": "",
            "image_link": "",
            "text_alignment": "bottom left",
            "mobile_overlay_under": false,
            "overlay_style": "full"
          }
        },
        "16389410655a411aaf-1": {
          "type": "text",
          "settings": {
            "width": "half",
            "subheading": "",
            "title": "Ideal for hot sleepers",
            "text": "<p><strong>Forget about hot flashes<\/strong><\/p><p>Slashop bamboo bedding is absorbent and dries super quickly, perfect for sweaty hot sleepers. Our innovative fabric is also thermo-regulating and breathable, keeps you cool all night long.<\/p>",
            "button_label": "",
            "button_link": "",
            "button_style": "primary",
            "text_alignment": "left"
          }
        }
      },
      "block_order": [
        "16389410655a411aaf-0",
        "16389410655a411aaf-1"
      ],
      "settings": {
        "alignment": "middle",
        "class_name": "custom-row"
      }
    },
    "8ebb24d1-efd3-4fa0-9df9-14ab388f9a99": {
      "type": "slideshow",
      "blocks": {
        "template--15688058503364__8ebb24d1-efd3-4fa0-9df9-14ab388f9a99-166617241100c7758f-0": {
          "type": "image",
          "settings": {
            "image": "shopify:\/\/shop_images\/comparison.png",
            "mobile_image": "shopify:\/\/shop_images\/bamboo_cotton_update_a04fc060-b2da-4c35-b63e-3bede995866b.png",
            "image_position": "center center",
            "slide_link": "",
            "subheading": "",
            "title": "",
            "title_size": 46,
            "text": "",
            "enlarge_text": true,
            "button_label": "",
            "text_alignment": "center center"
          }
        }
      },
      "block_order": [
        "template--15688058503364__8ebb24d1-efd3-4fa0-9df9-14ab388f9a99-166617241100c7758f-0"
      ],
      "settings": {
        "height": "fixed",
        "height_desktop": 400,
        "height_mobile": 540,
        "full_width": false,
        "mobile_overlay_under": false,
        "overlay_style": "full",
        "slide_transition": "fade",
        "slide_navigation": "arrows",
        "autoplay": true,
        "autoplay_speed": 1
      }
    },
    "7047f1c3-aa6e-4751-815d-9b52b4f81ef3": {
      "type": "rich-text",
      "blocks": {
        "template--15688058503364__7047f1c3-aa6e-4751-815d-9b52b4f81ef3-1666174104450fc41d-0": {
          "type": "subheading",
          "disabled": true,
          "settings": {
            "subheading": "Subheading"
          }
        },
        "template--15688058503364__7047f1c3-aa6e-4751-815d-9b52b4f81ef3-1666174104450fc41d-1": {
          "type": "heading",
          "settings": {
            "title": "Furry friends approved",
            "use_h1": false
          }
        },
        "template--15688058503364__7047f1c3-aa6e-4751-815d-9b52b4f81ef3-1666174104450fc41d-2": {
          "type": "text",
          "settings": {
            "text": "<p>Follow @slashopofficial to find more<\/p>",
            "enlarge_text": false
          }
        }
      },
      "block_order": [
        "template--15688058503364__7047f1c3-aa6e-4751-815d-9b52b4f81ef3-1666174104450fc41d-0",
        "template--15688058503364__7047f1c3-aa6e-4751-815d-9b52b4f81ef3-1666174104450fc41d-1",
        "template--15688058503364__7047f1c3-aa6e-4751-815d-9b52b4f81ef3-1666174104450fc41d-2"
      ],
      "settings": {
        "height": "medium",
        "text_alignment": "center",
        "full_width": false,
        "use_alt_bg": false
      }
    },
    "89692bec-f5f5-4b49-a04e-97cb1372dec1": {
      "type": "gallery",
      "blocks": {
        "template--15688058503364__89692bec-f5f5-4b49-a04e-97cb1372dec1-1666174107aa86626f-0": {
          "type": "image",
          "settings": {
            "image": "shopify:\/\/shop_images\/KOL_review_2.png",
            "alignment": "center center",
            "enlarge_image": false,
            "subheading": "",
            "title": "",
            "button_label": "",
            "link": "",
            "text_alignment": "center center"
          }
        },
        "template--15688058503364__89692bec-f5f5-4b49-a04e-97cb1372dec1-1666174107aa86626f-1": {
          "type": "image",
          "settings": {
            "image": "shopify:\/\/shop_images\/kol_reviews_3.png",
            "alignment": "center center",
            "enlarge_image": false,
            "subheading": "",
            "title": "",
            "button_label": "",
            "link": "",
            "text_alignment": "center center"
          }
        },
        "template--15688058503364__89692bec-f5f5-4b49-a04e-97cb1372dec1-1666174107aa86626f-2": {
          "type": "image",
          "settings": {
            "image": "shopify:\/\/shop_images\/Kol_review_1_4962ff73-ae4a-4b5c-90db-81979faecb29.png",
            "alignment": "center center",
            "enlarge_image": false,
            "subheading": "",
            "title": "",
            "button_label": "",
            "link": "",
            "text_alignment": "center center"
          }
        }
      },
      "block_order": [
        "template--15688058503364__89692bec-f5f5-4b49-a04e-97cb1372dec1-1666174107aa86626f-0",
        "template--15688058503364__89692bec-f5f5-4b49-a04e-97cb1372dec1-1666174107aa86626f-1",
        "template--15688058503364__89692bec-f5f5-4b49-a04e-97cb1372dec1-1666174107aa86626f-2"
      ],
      "settings": {
        "grid": 3,
        "desktop_image_height": 400,
        "mobile_image_height": 400,
        "enable_margin": true,
        "full_width": false,
        "use_alt_bg": false,
        "enable_carousel": true,
        "overlay_style": "full",
        "button_style": "primary"
      }
    },
    "recommendations": {
      "type": "product-recommendations",
      "disabled": true,
      "settings": {
        "title": "Related products",
        "show_vendor": false,
        "grid": 4
      }
    },
    "1641899986c3ca8597": {
      "type": "text-columns-with-images",
      "blocks": {
        "16418999869057970b-0": {
          "type": "text_block",
          "settings": {
            "enable_image": true,
            "image": "shopify:\/\/shop_images\/bamboo_b_e6f07c01-6852-4c91-ae87-e8676b04b648.png",
            "image_width": 700,
            "title": "Eucalyptus",
            "text": "<p>Biobased material, water-saving,   biodegradable.<\/p>",
            "button_label": "Learn more",
            "link": "shopify:\/\/pages\/eucalyptus"
          }
        },
        "16418999869057970b-1": {
          "type": "text_block",
          "settings": {
            "enable_image": true,
            "image": "shopify:\/\/shop_images\/bamboo_bb.png",
            "image_width": 700,
            "title": "Bamboo",
            "text": "<p>Regenerative, water + energy-efficient, bio circular.<\/p>",
            "button_label": "Learn more",
            "link": "shopify:\/\/pages\/bamboo"
          }
        },
        "16418999869057970b-2": {
          "type": "text_block",
          "settings": {
            "enable_image": true,
            "image": "shopify:\/\/shop_images\/sustainability_round_8_99bd24e4-2ebe-471a-8f84-0d56f7dff19b.png",
            "image_width": 700,
            "title": "Aerogel",
            "text": "<p>Developed by NASA, let science keep you warm.<\/p>",
            "button_label": "Learn more",
            "link": "shopify:\/\/pages\/aerogel"
          }
        }
      },
      "block_order": [
        "16418999869057970b-0",
        "16418999869057970b-1",
        "16418999869057970b-2"
      ],
      "disabled": true,
      "settings": {
        "title": "Our responsible materials",
        "text_alignment": "center",
        "button_style": "link",
        "use_alt_bg": false
      }
    },
    "16566724657dfe3a69": {
      "type": "testimonials",
      "blocks": {
        "641ba3e9-c3a0-4bb5-8fa3-22bf3a81e58b": {
          "type": "testimonial",
          "disabled": true,
          "settings": {
            "star_rating": 5,
            "testimonial": "Absolutely snag-and-scratch proof weaving stand up to stress from claws and paws.",
            "author": "Bella A.",
            "image": "shopify:\/\/shop_images\/no_fur_or_dander_gets_caught_in_our_superfine_weave..png",
            "image_alignment": "center center",
            "image_caption": "",
            "link": "https:\/\/youtube.com\/shorts\/Pm4OhD7S4dU?feature=share"
          }
        },
        "1656672465e112a601-0": {
          "type": "testimonial",
          "settings": {
            "star_rating": 5,
            "testimonial": "\"My new sheets are incredibly soft & excellent for hot sleepers. Most comfortable sleep ever.\"",
            "author": "dinaraxyz",
            "image": "shopify:\/\/shop_images\/kol_3.png",
            "image_alignment": "center center",
            "image_caption": "",
            "link": ""
          }
        },
        "1656672465e112a601-1": {
          "type": "testimonial",
          "settings": {
            "star_rating": 5,
            "testimonial": "The sheets are beautiful with a soft luxury feel. I've been sleeping more comfortably ever since!",
            "author": "sabrinagagnelussien",
            "image": "shopify:\/\/shop_images\/ins_9.png",
            "image_alignment": "center left",
            "image_caption": "",
            "link": ""
          }
        },
        "7b9578e5-cdc4-4f49-bad9-ec391114ec79": {
          "type": "testimonial",
          "settings": {
            "star_rating": 5,
            "testimonial": "We got new sheets for our bed. They are hypoallergenic, very soft & silky.",
            "author": "lafamilialatorre",
            "image": "shopify:\/\/shop_images\/5.png",
            "image_alignment": "center center",
            "image_caption": "",
            "link": ""
          }
        }
      },
      "block_order": [
        "641ba3e9-c3a0-4bb5-8fa3-22bf3a81e58b",
        "1656672465e112a601-0",
        "1656672465e112a601-1",
        "7b9578e5-cdc4-4f49-bad9-ec391114ec79"
      ],
      "disabled": true,
      "settings": {
        "title": "Customer reviews",
        "layout": "image-left",
        "image_shape": "square",
        "use_alt_bg": false
      }
    },
    "1637660818f2c8d56c": {
      "type": "apps",
      "blocks": {
        "75b2e4c7-28db-46c0-b496-4f6be798e0bb": {
          "type": "shopify:\/\/apps\/yotpo-product-photo-reviews\/blocks\/reviews\/eb7dfd7d-db44-4334-bc49-c893b51b36cf",
          "settings": {
            "product": "{{product}}"
          }
        }
      },
      "block_order": [
        "75b2e4c7-28db-46c0-b496-4f6be798e0bb"
      ],
      "settings": {
        "full_width": false
      }
    },
    "16433551324dca06ee": {
      "type": "logo-list",
      "blocks": {
        "6207d941-fdb6-49f0-9e98-0125880c5565": {
          "type": "logo",
          "settings": {
            "image": "shopify:\/\/shop_images\/fo__round.png",
            "image_width": 160,
            "link": "shopify:\/\/pages\/certifications",
            "title": "Forest Stewardship Council"
          }
        },
        "0f88bd70-5b81-47d8-8564-a8950f2dccad": {
          "type": "logo",
          "settings": {
            "image": "shopify:\/\/shop_images\/forest__round.png",
            "image_width": 160,
            "link": "shopify:\/\/pages\/certifications",
            "title": "Organic Content Standard"
          }
        },
        "aa4c67e9-98c7-4025-8948-1aeab2267bb3": {
          "type": "logo",
          "settings": {
            "image": "shopify:\/\/shop_images\/oeko__round_45db7309-ad8d-4830-a266-3f3e4446e798.png",
            "image_width": 280,
            "link": "shopify:\/\/pages\/certifications",
            "title": "Standard 100 by OEKO-TEX"
          }
        }
      },
      "block_order": [
        "6207d941-fdb6-49f0-9e98-0125880c5565",
        "0f88bd70-5b81-47d8-8564-a8950f2dccad",
        "aa4c67e9-98c7-4025-8948-1aeab2267bb3"
      ],
      "settings": {
        "title": "Certified by",
        "image_opacity": 100,
        "use_alt_bg": false
      }
    },
    "shogun-below": {
      "type": "shogun-below",
      "settings": {}
    },
    "4fc9d627-e150-4322-89c6-2f8eb1068430": {
      "type": "image-with-text-overlay",
      "disabled": true,
      "settings": {
        "image": "shopify:\/\/shop_images\/sale.png",
        "image_position": "center center",
        "height": "fixed",
        "height_desktop": 440,
        "height_mobile": 220,
        "subheading": "",
        "title": "Last Call Sale",
        "title_size": 46,
        "use_h1": false,
        "text": "",
        "enlarge_text": false,
        "button_label": "Shop now",
        "image_link": "shopify:\/\/collections\/sale",
        "text_alignment": "center center",
        "full_width": true,
        "mobile_overlay_under": false,
        "overlay_style": "full"
      }
    },
    "9f441fa1-1513-4cde-b6ea-773bd937a923": {
      "type": "custom-row",
      "blocks": {
        "template--15688058503364__9f441fa1-1513-4cde-b6ea-773bd937a923-167343274395c1c001-1": {
          "type": "text",
          "settings": {
            "width": "two-thirds",
            "subheading": "",
            "title": "DON'T MISS OUT",
            "text": "<p>Save up to 50% on our products<\/p>",
            "button_label": "Shop now",
            "button_link": "shopify:\/\/collections\/sale",
            "button_style": "primary",
            "text_alignment": "center"
          }
        }
      },
      "block_order": [
        "template--15688058503364__9f441fa1-1513-4cde-b6ea-773bd937a923-167343274395c1c001-1"
      ],
      "settings": {
        "alignment": "middle",
        "class_name": "custom-row"
      }
    },
    "54b6fe21-e106-4321-ad2a-d0a535baf770": {
      "type": "slideshow",
      "blocks": {
        "template--15688058503364__54b6fe21-e106-4321-ad2a-d0a535baf770-167334289089cdb003-0": {
          "type": "image",
          "settings": {
            "image": "shopify:\/\/shop_images\/sale_banner_f688454f-3cf7-426d-b809-5a797ace233e.png",
            "mobile_image": "shopify:\/\/shop_images\/sale_banner_3.png",
            "image_position": "center right",
            "slide_link": "shopify:\/\/collections\/sale",
            "subheading": "",
            "title": "Last Call Sale",
            "title_size": 40,
            "text": "",
            "enlarge_text": false,
            "button_label": "Shop now",
            "text_alignment": "center center"
          }
        }
      },
      "block_order": [
        "template--15688058503364__54b6fe21-e106-4321-ad2a-d0a535baf770-167334289089cdb003-0"
      ],
      "disabled": true,
      "settings": {
        "height": "fixed",
        "height_desktop": 440,
        "height_mobile": 320,
        "full_width": true,
        "mobile_overlay_under": false,
        "overlay_style": "full",
        "slide_transition": "fade",
        "slide_navigation": "arrows",
        "autoplay": false,
        "autoplay_speed": 1
      }
    },
    "94a38eee-a071-40f4-9acf-6a1d4fb06dc0": {
      "type": "background-video",
      "settings": {
        "video": "https:\/\/cdn.shopify.com\/videos\/c\/o\/v\/6f1ee8da73fb428684c7705617741149.mp4",
        "placeholder_image": "shopify:\/\/shop_images\/sale_placeholder.png",
        "subheading": "",
        "title": "",
        "title_size": 34,
        "use_h1": false,
        "text": "",
        "enlarge_text": false,
        "button_label": "",
        "button_link": "",
        "text_alignment": "center center",
        "height_desktop": 480,
        "height_mobile": 300,
        "full_width": true,
        "overlay_style": "full"
      }
    }
  },
  "order": [
    "shogun-helper",
    "shogun-above",
    "main",
    "1643444220e8d0ba61",
    "164318472923bd8e51",
    "ccbad8c6-7129-48ad-af24-d5efad6d370e",
    "bd5db276-5973-4e50-83a3-eb87494b4713",
    "1637827161ab4ea7d6",
    "1638940697011c8bb5",
    "163894072740ffbfce",
    "1638941065e1970d95",
    "8ebb24d1-efd3-4fa0-9df9-14ab388f9a99",
    "7047f1c3-aa6e-4751-815d-9b52b4f81ef3",
    "89692bec-f5f5-4b49-a04e-97cb1372dec1",
    "recommendations",
    "1641899986c3ca8597",
    "16566724657dfe3a69",
    "1637660818f2c8d56c",
    "16433551324dca06ee",
    "shogun-below",
    "4fc9d627-e150-4322-89c6-2f8eb1068430",
    "9f441fa1-1513-4cde-b6ea-773bd937a923",
    "54b6fe21-e106-4321-ad2a-d0a535baf770",
    "94a38eee-a071-40f4-9acf-6a1d4fb06dc0"
  ]
}