{
  "sections": {
    "shogun-helper": {
      "type": "shogun-helper",
      "settings": {}
    },
    "shogun-above": {
      "type": "shogun-above",
      "settings": {}
    },
    "main": {
      "type": "main-product",
      "blocks": {
        "title": {
          "type": "title",
          "settings": {}
        },
        "982f920e-e894-413a-9ce4-bc54a9cef468": {
          "type": "shopify:\/\/apps\/yotpo-product-photo-reviews\/blocks\/star-rating\/eb7dfd7d-db44-4334-bc49-c893b51b36cf",
          "settings": {
            "product": "{{product}}"
          }
        },
        "price": {
          "type": "price",
          "settings": {
            "show_tax_and_shipping": false
          }
        },
        "e16eb14b-0ba9-4180-a2c8-c26223761a76": {
          "type": "variant_picker",
          "settings": {
            "show_single": true,
            "show_size_chart": true,
            "size_chart_variant": "Size Guide",
            "size_chart_page": "protectors"
          }
        },
        "9a792dc0-1f46-42e0-a3c1-1aae82ac3ca8": {
          "type": "image",
          "disabled": true,
          "settings": {
            "image": "shopify:\/\/shop_images\/Artboard_26_b24b81d8-a468-467c-9673-d092ef902d7d.jpg",
            "image_width": 700,
            "url": "",
            "show_in_quickbuy": false
          }
        },
        "cd4886a6-5805-423e-ad41-9e10e44f4f8d": {
          "type": "richtext",
          "disabled": true,
          "settings": {
            "richtext": "<p>Estimated shipping date (Pre-order): Feb 28, 2023.<\/p>",
            "show_in_quickbuy": false
          }
        },
        "763225bf-6437-4650-ad8b-454947dbd76e": {
          "type": "richtext",
          "settings": {
            "richtext": "<p><strong>Includes 1 mattress protector.<\/strong><\/p>",
            "show_in_quickbuy": false
          }
        },
        "2e299c13-f239-49c3-9c7a-dc5696631cb8": {
          "type": "richtext",
          "settings": {
            "richtext": "<p><strong>Free delivery on orders over $100.<\/strong><\/p>",
            "show_in_quickbuy": false
          }
        },
        "7c523533-ebf4-4f72-8942-feda1e8fa34d": {
          "type": "text",
          "disabled": true,
          "settings": {
            "text": "Includes 1*Duvet cover.",
            "show_in_quickbuy": false
          }
        },
        "6515b48a-8f4a-4bad-acc6-799e8d70e96c": {
          "type": "text",
          "disabled": true,
          "settings": {
            "text": "*Fast Free Delivery Site-wide",
            "show_in_quickbuy": false
          }
        },
        "buy_buttons": {
          "type": "buy_buttons",
          "settings": {
            "show_quantity_selector": false,
            "enable_payment_button": false,
            "show_backorder_text": false,
            "show_inventory_notice": false,
            "inventory_notice_threshold": 100,
            "show_pickup_availability": true
          }
        },
        "23c9a8d7-9888-4e4f-8842-17e80ae81f56": {
          "type": "accordion",
          "settings": {
            "title": "DETAILS",
            "content": "<p>Our Nylon Cooling Mattress Protector features a special breathable pattern to promote more airflow, meaning your mattress stays cooler for longer – perfect for hot sleepers! The upgraded 2mm TPU waterproof layer also ensures a noise-free sleep experience while safeguarding against spills and is easily fitted with a high-rebound smart elastic skirt.<\/p><ul><li>100% waterproof & noiseless<\/li><li>Super cooling fabric<\/li><li>Breathable<\/li><\/ul>",
            "page": "",
            "open": true,
            "show_in_quickbuy": false
          }
        },
        "32c60495-21c7-43bf-bc46-d33ecb58b28b": {
          "type": "accordion",
          "settings": {
            "title": "FABRIC",
            "content": "<p>40% nylon + 60% polyester <\/p>",
            "page": "",
            "open": false,
            "show_in_quickbuy": false
          }
        },
        "572270c6-2676-4c39-a468-53536a802d56": {
          "type": "accordion",
          "settings": {
            "title": "CARE",
            "content": "<p>For optimal results, please follow these washing instructions:<\/p><ul><li>Use a Neutral Detergent<\/li><li>Machine Wash Cold<\/li><li>Do Not Bleach<\/li><li>Do Not Dry<\/li><li>Do Not Iron<\/li><li>Max Temp 40°C or 104°F<\/li><\/ul>",
            "page": "",
            "open": false,
            "show_in_quickbuy": false
          }
        }
      },
      "block_order": [
        "title",
        "982f920e-e894-413a-9ce4-bc54a9cef468",
        "price",
        "e16eb14b-0ba9-4180-a2c8-c26223761a76",
        "9a792dc0-1f46-42e0-a3c1-1aae82ac3ca8",
        "cd4886a6-5805-423e-ad41-9e10e44f4f8d",
        "763225bf-6437-4650-ad8b-454947dbd76e",
        "2e299c13-f239-49c3-9c7a-dc5696631cb8",
        "7c523533-ebf4-4f72-8942-feda1e8fa34d",
        "6515b48a-8f4a-4bad-acc6-799e8d70e96c",
        "buy_buttons",
        "23c9a8d7-9888-4e4f-8842-17e80ae81f56",
        "32c60495-21c7-43bf-bc46-d33ecb58b28b",
        "572270c6-2676-4c39-a468-53536a802d56"
      ],
      "settings": {
        "show_breadcrumbs": false,
        "show_location_underneath": false,
        "inventory_transfers_enable": false,
        "gallery_size": "large",
        "prod_gall_thumbs_under": "under",
        "enable_sticky_gallery": true,
        "enable_zoom": true,
        "enable_video_looping": true
      }
    },
    "164318472923bd8e51": {
      "type": "featured-collection",
      "settings": {
        "title": "You Might Also Like...",
        "collection": "best-seller",
        "show_vendor": false,
        "enable_carousel": false,
        "grid": 4,
        "rows": 3,
        "use_alt_bg": true,
        "show_view_all": true,
        "full_width": true
      }
    },
    "recommendations": {
      "type": "product-recommendations",
      "disabled": true,
      "settings": {
        "title": "Related products",
        "show_vendor": false,
        "grid": 4
      }
    },
    "1641899986c3ca8597": {
      "type": "text-columns-with-images",
      "blocks": {
        "16418999869057970b-0": {
          "type": "text_block",
          "settings": {
            "enable_image": true,
            "image": "shopify:\/\/shop_images\/bamboo_b_e6f07c01-6852-4c91-ae87-e8676b04b648.png",
            "image_width": 700,
            "title": "Eucalyptus",
            "text": "<p>Biobased material, water-saving,   biodegradable.<\/p>",
            "button_label": "Learn more",
            "link": "shopify:\/\/pages\/eucalyptus"
          }
        },
        "16418999869057970b-1": {
          "type": "text_block",
          "settings": {
            "enable_image": true,
            "image": "shopify:\/\/shop_images\/bamboo_bb.png",
            "image_width": 700,
            "title": "Bamboo",
            "text": "<p>Regenerative, water + energy-efficient, bio circular.<\/p>",
            "button_label": "Learn more",
            "link": "shopify:\/\/pages\/bamboo"
          }
        },
        "16418999869057970b-2": {
          "type": "text_block",
          "settings": {
            "enable_image": true,
            "image": "shopify:\/\/shop_images\/sustainability_round_8_99bd24e4-2ebe-471a-8f84-0d56f7dff19b.png",
            "image_width": 700,
            "title": "Aerogel",
            "text": "<p>Developed by NASA, let science keep you warm.<\/p>",
            "button_label": "Learn more",
            "link": "shopify:\/\/pages\/aerogel"
          }
        }
      },
      "block_order": [
        "16418999869057970b-0",
        "16418999869057970b-1",
        "16418999869057970b-2"
      ],
      "disabled": true,
      "settings": {
        "title": "Our responsible materials",
        "text_alignment": "center",
        "button_style": "link",
        "use_alt_bg": false
      }
    },
    "shogun-below": {
      "type": "shogun-below",
      "disabled": true,
      "settings": {}
    },
    "ae409b18-ff53-429e-bcce-ecca5b3818eb": {
      "type": "slideshow",
      "blocks": {
        "template--15860352254148__ae409b18-ff53-429e-bcce-ecca5b3818eb-16897599361e41fb70-0": {
          "type": "image",
          "settings": {
            "image": "shopify:\/\/shop_images\/Artboard_13_f9d7c3c3-0fab-4534-8b64-2b8e16f64535.jpg",
            "mobile_image": "shopify:\/\/shop_images\/Artboard_6_455b7b21-6cc5-40dd-8f76-5d4029c9dc73.jpg",
            "image_position": "center center",
            "slide_link": "",
            "subheading": "",
            "title": "",
            "title_size": 46,
            "text": "",
            "enlarge_text": false,
            "button_label": "",
            "text_alignment": "center center"
          }
        }
      },
      "block_order": [
        "template--15860352254148__ae409b18-ff53-429e-bcce-ecca5b3818eb-16897599361e41fb70-0"
      ],
      "settings": {
        "height": "adapt",
        "height_desktop": 600,
        "height_mobile": 500,
        "full_width": true,
        "mobile_overlay_under": false,
        "overlay_style": "full",
        "slide_transition": "fade",
        "slide_navigation": "arrows",
        "autoplay": true,
        "autoplay_speed": 7
      }
    },
    "39da33b9-4ee7-4146-a65f-25d7eb4a7ba6": {
      "type": "slideshow",
      "blocks": {
        "template--15860352254148__39da33b9-4ee7-4146-a65f-25d7eb4a7ba6-16897599361e41fb70-0": {
          "type": "image",
          "settings": {
            "image": "shopify:\/\/shop_images\/Artboard_29_72eee792-9194-4e21-b9b4-6ae6bbaa6a18.jpg",
            "mobile_image": "shopify:\/\/shop_images\/Artboard_28-2.jpg",
            "image_position": "center center",
            "slide_link": "",
            "subheading": "",
            "title": "",
            "title_size": 46,
            "text": "",
            "enlarge_text": false,
            "button_label": "",
            "text_alignment": "center center"
          }
        }
      },
      "block_order": [
        "template--15860352254148__39da33b9-4ee7-4146-a65f-25d7eb4a7ba6-16897599361e41fb70-0"
      ],
      "settings": {
        "height": "adapt",
        "height_desktop": 600,
        "height_mobile": 500,
        "full_width": true,
        "mobile_overlay_under": false,
        "overlay_style": "full",
        "slide_transition": "fade",
        "slide_navigation": "arrows",
        "autoplay": true,
        "autoplay_speed": 7
      }
    },
    "49ef701a-17a3-4889-a4d4-4c91fdda2c2e": {
      "type": "slideshow",
      "settings": {
        "height": "adapt",
        "height_desktop": 600,
        "height_mobile": 500,
        "full_width": true,
        "mobile_overlay_under": false,
        "overlay_style": "full",
        "slide_transition": "fade",
        "slide_navigation": "arrows",
        "autoplay": true,
        "autoplay_speed": 7
      }
    },
    "276a9ce0-010f-4c89-8580-aceb4de8b599": {
      "type": "slideshow",
      "blocks": {
        "template--15860352254148__276a9ce0-010f-4c89-8580-aceb4de8b599-16897599361e41fb70-0": {
          "type": "image",
          "settings": {
            "image": "shopify:\/\/shop_images\/Artboard_23_1.jpg",
            "mobile_image": "shopify:\/\/shop_images\/Artboard_28_fd0050b6-4dda-4712-9e85-ef9438eb15bb.jpg",
            "image_position": "center center",
            "slide_link": "https:\/\/www.instagram.com\/slashopofficial\/",
            "subheading": "",
            "title": "",
            "title_size": 46,
            "text": "",
            "enlarge_text": false,
            "button_label": "",
            "text_alignment": "center center"
          }
        },
        "template--15860352254148__276a9ce0-010f-4c89-8580-aceb4de8b599-16897599361e41fb70-1": {
          "type": "image",
          "settings": {
            "image": "shopify:\/\/shop_images\/Artboard_23_9f44c55c-1116-4b81-8db4-aab86b72f5e3.jpg",
            "mobile_image": "shopify:\/\/shop_images\/Artboard_43.jpg",
            "image_position": "center center",
            "slide_link": "https:\/\/www.instagram.com\/slashopofficial\/",
            "subheading": "",
            "title": "",
            "title_size": 46,
            "text": "",
            "enlarge_text": false,
            "button_label": "",
            "text_alignment": "center center"
          }
        },
        "4c3b66c5-0d22-44ba-91a6-9282a2f308a8": {
          "type": "image",
          "settings": {
            "image": "shopify:\/\/shop_images\/Artboard_23_3.jpg",
            "mobile_image": "shopify:\/\/shop_images\/Artboard_44.jpg",
            "image_position": "center center",
            "slide_link": "https:\/\/www.instagram.com\/slashopofficial\/",
            "subheading": "",
            "title": "",
            "title_size": 46,
            "text": "",
            "enlarge_text": false,
            "button_label": "",
            "text_alignment": "center center"
          }
        }
      },
      "block_order": [
        "template--15860352254148__276a9ce0-010f-4c89-8580-aceb4de8b599-16897599361e41fb70-0",
        "template--15860352254148__276a9ce0-010f-4c89-8580-aceb4de8b599-16897599361e41fb70-1",
        "4c3b66c5-0d22-44ba-91a6-9282a2f308a8"
      ],
      "settings": {
        "height": "adapt",
        "height_desktop": 600,
        "height_mobile": 500,
        "full_width": true,
        "mobile_overlay_under": false,
        "overlay_style": "full",
        "slide_transition": "fade",
        "slide_navigation": "arrows",
        "autoplay": true,
        "autoplay_speed": 2
      }
    },
    "a91e8d88-4b78-44f2-8126-40a51a847b0d": {
      "type": "gallery",
      "blocks": {
        "template--15687985791172__a91e8d88-4b78-44f2-8126-40a51a847b0d-166617423838da1e05-0": {
          "type": "image",
          "settings": {
            "image": "shopify:\/\/shop_images\/Artboard_12_11c47a17-b00f-4a4c-8f30-13b75e0ccc9a.jpg",
            "alignment": "center center",
            "enlarge_image": false,
            "subheading": "",
            "title": "",
            "button_label": "",
            "link": "shopify:\/\/pages\/rewards",
            "text_alignment": "center center"
          }
        },
        "template--15687985791172__a91e8d88-4b78-44f2-8126-40a51a847b0d-166617423838da1e05-1": {
          "type": "image",
          "settings": {
            "image": "shopify:\/\/shop_images\/Artboard_31_822c7f57-7a94-4701-a259-4a5a5b6a371a.jpg",
            "alignment": "center center",
            "enlarge_image": false,
            "subheading": "",
            "title": "",
            "button_label": "",
            "link": "shopify:\/\/pages\/showroom",
            "text_alignment": "center center"
          }
        },
        "template--15687985791172__a91e8d88-4b78-44f2-8126-40a51a847b0d-166617423838da1e05-2": {
          "type": "image",
          "settings": {
            "image": "shopify:\/\/shop_images\/Artboard_32_3b137868-f603-4599-9afd-1052d3bec738.jpg",
            "alignment": "center center",
            "enlarge_image": false,
            "subheading": "",
            "title": "",
            "button_label": "",
            "link": "shopify:\/\/pages\/gift-guide",
            "text_alignment": "center center"
          }
        }
      },
      "block_order": [
        "template--15687985791172__a91e8d88-4b78-44f2-8126-40a51a847b0d-166617423838da1e05-0",
        "template--15687985791172__a91e8d88-4b78-44f2-8126-40a51a847b0d-166617423838da1e05-1",
        "template--15687985791172__a91e8d88-4b78-44f2-8126-40a51a847b0d-166617423838da1e05-2"
      ],
      "settings": {
        "grid": 3,
        "desktop_image_height": 600,
        "mobile_image_height": 400,
        "enable_margin": false,
        "full_width": true,
        "use_alt_bg": false,
        "enable_carousel": false,
        "overlay_style": "full",
        "button_style": "primary"
      }
    },
    "ac6b0a2c-d8f4-40d3-9010-a3d98aeb9b32": {
      "type": "rich-text",
      "blocks": {
        "template--15860352254148__ac6b0a2c-d8f4-40d3-9010-a3d98aeb9b32-heading-1": {
          "type": "heading",
          "settings": {
            "title": "Customer Reviews",
            "use_h1": false
          }
        },
        "template--15860352254148__ac6b0a2c-d8f4-40d3-9010-a3d98aeb9b32-text-1": {
          "type": "text",
          "settings": {
            "text": "",
            "enlarge_text": false
          }
        }
      },
      "block_order": [
        "template--15860352254148__ac6b0a2c-d8f4-40d3-9010-a3d98aeb9b32-heading-1",
        "template--15860352254148__ac6b0a2c-d8f4-40d3-9010-a3d98aeb9b32-text-1"
      ],
      "settings": {
        "height": "medium",
        "text_alignment": "center",
        "full_width": false,
        "use_alt_bg": false
      }
    },
    "1637660818f2c8d56c": {
      "type": "apps",
      "blocks": {
        "22d1c328-423e-4e0e-88df-4336d3e18e31": {
          "type": "shopify:\/\/apps\/yotpo-product-photo-reviews\/blocks\/reviews\/eb7dfd7d-db44-4334-bc49-c893b51b36cf",
          "settings": {
            "product": "{{product}}"
          }
        }
      },
      "block_order": [
        "22d1c328-423e-4e0e-88df-4336d3e18e31"
      ],
      "settings": {
        "full_width": false
      }
    },
    "6189a55c-fceb-4e29-ae04-f3ddf05c6c59": {
      "type": "slideshow",
      "blocks": {
        "template--15860352254148__6189a55c-fceb-4e29-ae04-f3ddf05c6c59-16897599361e41fb70-0": {
          "type": "image",
          "settings": {
            "image": "shopify:\/\/shop_images\/Artboard_1_f65fd61e-a72d-48c4-bff9-1610d99393a9.jpg",
            "mobile_image": "shopify:\/\/shop_images\/Artboard_36_2_9f69c2fb-0885-4aa9-b876-5f6c4fa888aa.jpg",
            "image_position": "center center",
            "slide_link": "shopify:\/\/collections\/sale",
            "subheading": "",
            "title": "",
            "title_size": 46,
            "text": "",
            "enlarge_text": true,
            "button_label": "",
            "text_alignment": "center center"
          }
        }
      },
      "block_order": [
        "template--15860352254148__6189a55c-fceb-4e29-ae04-f3ddf05c6c59-16897599361e41fb70-0"
      ],
      "settings": {
        "height": "adapt",
        "height_desktop": 600,
        "height_mobile": 500,
        "full_width": true,
        "mobile_overlay_under": false,
        "overlay_style": "full",
        "slide_transition": "fade",
        "slide_navigation": "arrows",
        "autoplay": true,
        "autoplay_speed": 7
      }
    }
  },
  "order": [
    "shogun-helper",
    "shogun-above",
    "main",
    "164318472923bd8e51",
    "recommendations",
    "1641899986c3ca8597",
    "shogun-below",
    "ae409b18-ff53-429e-bcce-ecca5b3818eb",
    "39da33b9-4ee7-4146-a65f-25d7eb4a7ba6",
    "49ef701a-17a3-4889-a4d4-4c91fdda2c2e",
    "276a9ce0-010f-4c89-8580-aceb4de8b599",
    "a91e8d88-4b78-44f2-8126-40a51a847b0d",
    "ac6b0a2c-d8f4-40d3-9010-a3d98aeb9b32",
    "1637660818f2c8d56c",
    "6189a55c-fceb-4e29-ae04-f3ddf05c6c59"
  ]
}