{
  "sections": {
    "main": {
      "type": "main-product",
      "blocks": {
        "title": {
          "type": "title",
          "settings": {}
        },
        "1a5ac592-7b1e-4315-92de-a21d635584fb": {
          "type": "shopify:\/\/apps\/yotpo-product-photo-reviews\/blocks\/star-rating\/eb7dfd7d-db44-4334-bc49-c893b51b36cf",
          "settings": {
            "product": "{{product}}"
          }
        },
        "price": {
          "type": "price",
          "settings": {
            "show_tax_and_shipping": false
          }
        },
        "e16eb14b-0ba9-4180-a2c8-c26223761a76": {
          "type": "variant_picker",
          "settings": {
            "show_single": false,
            "show_size_chart": false,
            "size_chart_variant": "Size Guide",
            "size_chart_page": "size-guide-loungewear"
          }
        },
        "994447e9-3922-4951-95dd-6b7e134286de": {
          "type": "richtext",
          "settings": {
            "richtext": "<p><strong>Includes 1 pet mat.<\/strong><\/p>",
            "show_in_quickbuy": false
          }
        },
        "1d0aa8f9-171e-4f36-95bf-3bcf803cc458": {
          "type": "richtext",
          "settings": {
            "richtext": "<p><strong>Free delivery on orders over $100.<\/strong><\/p>",
            "show_in_quickbuy": false
          }
        },
        "buy_buttons": {
          "type": "buy_buttons",
          "settings": {
            "show_quantity_selector": false,
            "enable_payment_button": false,
            "show_backorder_text": false,
            "show_inventory_notice": false,
            "inventory_notice_threshold": 10,
            "show_pickup_availability": true
          }
        },
        "030b31b0-dc19-48de-a6b7-fc930a945e63": {
          "type": "accordion",
          "settings": {
            "title": "DETAILS",
            "content": "<p><strong>Waterproof and Spacious<\/strong><\/p><p>Our waterproof dog mat is constructed from high-quality material, ensuring it remains resistant to water in almost any weather condition. Any water or rain drops can be effortlessly wiped off the mat without leaving a trace. However, it is not recommended to let water sit on the mat for an extended period of time.<\/p><p><strong>Suitable for Indoor and Outdoor Use<\/strong><\/p><p>This dog mat serves as an excellent outdoor bed, making it perfect for camping or as a comfortable sleeping mat during travel. Additionally, it works just as well indoors, making it a suitable crate or kennel mat.<\/p><p><strong>Durable and Washable<\/strong><\/p><p>The mat is designed with durability in mind, featuring refined stitching that resists scratches and claws. Please note that it is not recommended for aggressive chewers. The mat is easily washable and can be cleaned either by machine washing on a gentle cycle or by hand washing.<\/p><p><strong>Portable and Easy to Pack<\/strong><\/p><p>Our dog bed is highly packable, and comes with a convenient carry bag. The mat can be effortlessly folded and slid into the bag, making it compact for travel, camping, and other outdoor activities.<\/p><p><strong>Easy Cleaning<\/strong><\/p><p>Stains can be quickly wiped off with a damp cloth, ensuring hassle-free maintenance.<\/p>",
            "page": "",
            "open": false,
            "show_in_quickbuy": false
          }
        },
        "e6e00af3-73f3-4b24-9ffd-9c6239f0b70a": {
          "type": "accordion",
          "disabled": true,
          "settings": {
            "title": "SIZE TO FIT",
            "content": "<p>The top is designed to be oversized. Shorts are designed with an easy and relaxed fit.<\/p>",
            "page": "",
            "open": false,
            "show_in_quickbuy": false
          }
        },
        "2b7d1c40-60e4-4d88-a7ac-ed09871c5217": {
          "type": "accordion",
          "settings": {
            "title": "SIZE",
            "content": "<p>The sizes are measured in inches.<\/p><p>35.4\"x 51.2\"<\/p>",
            "page": "",
            "open": false,
            "show_in_quickbuy": false
          }
        },
        "6992ed0b-4b88-440e-aac3-260c5784dc8f": {
          "type": "accordion",
          "settings": {
            "title": "MATERIALS",
            "content": "<p><strong>100% Polyester<\/strong><\/p>",
            "page": "",
            "open": false,
            "show_in_quickbuy": false
          }
        },
        "572270c6-2676-4c39-a468-53536a802d56": {
          "type": "accordion",
          "settings": {
            "title": "CARE",
            "content": "<p>Can be spot-cleaned using a cotton cloth and soapy water.<\/p>",
            "page": "",
            "open": false,
            "show_in_quickbuy": false
          }
        },
        "b0e70b84-1c21-4ec4-ac98-21c062c028d0": {
          "type": "sharing",
          "settings": {
            "show_in_quickbuy": false
          }
        },
        "cc8271a4-8725-47ca-963b-de2bfa0be8a6": {
          "type": "image",
          "disabled": true,
          "settings": {
            "image": "shopify:\/\/shop_images\/Artboard_30_216edb10-c082-4f1a-a484-502ffb415227.jpg",
            "image_width": 370,
            "url": "",
            "show_in_quickbuy": false
          }
        }
      },
      "block_order": [
        "title",
        "1a5ac592-7b1e-4315-92de-a21d635584fb",
        "price",
        "e16eb14b-0ba9-4180-a2c8-c26223761a76",
        "994447e9-3922-4951-95dd-6b7e134286de",
        "1d0aa8f9-171e-4f36-95bf-3bcf803cc458",
        "buy_buttons",
        "030b31b0-dc19-48de-a6b7-fc930a945e63",
        "e6e00af3-73f3-4b24-9ffd-9c6239f0b70a",
        "2b7d1c40-60e4-4d88-a7ac-ed09871c5217",
        "6992ed0b-4b88-440e-aac3-260c5784dc8f",
        "572270c6-2676-4c39-a468-53536a802d56",
        "b0e70b84-1c21-4ec4-ac98-21c062c028d0",
        "cc8271a4-8725-47ca-963b-de2bfa0be8a6"
      ],
      "settings": {
        "show_breadcrumbs": false,
        "show_location_underneath": false,
        "inventory_transfers_enable": false,
        "gallery_size": "large",
        "prod_gall_thumbs_under": "under",
        "enable_sticky_gallery": true,
        "enable_zoom": true,
        "enable_video_looping": true
      }
    },
    "1649947048eaf7e450": {
      "type": "background-video",
      "disabled": true,
      "settings": {
        "video": "https:\/\/www.youtube.com\/watch?v=MV7ewcqftng",
        "placeholder_image": "shopify:\/\/shop_images\/Untitled-1_0ad4ce9a-416e-46e9-97b2-5c2e988cab0e.jpg",
        "subheading": "",
        "title": "",
        "title_size": 34,
        "use_h1": false,
        "text": "",
        "enlarge_text": false,
        "button_label": "",
        "button_link": "",
        "text_alignment": "center center",
        "height_desktop": 1000,
        "height_mobile": 500,
        "full_width": true,
        "overlay_style": "no_background"
      }
    },
    "16499471369440bd83": {
      "type": "collection-list",
      "blocks": {
        "fe3acfcb-370e-4656-b143-e0ee7be0ca9f": {
          "type": "collection",
          "settings": {
            "collection": "starry-night-set",
            "image": "shopify:\/\/shop_images\/full_a555c582-ef43-4271-9415-c554df6f44fd.jpg"
          }
        },
        "189856bb-f25a-4218-8a0a-b9669088e41f": {
          "type": "collection",
          "settings": {
            "collection": "vanilla-dream-set",
            "image": "shopify:\/\/shop_images\/full-angled_e4250a7e-640f-4bc0-a4b2-f3a1fb5556d4.jpg"
          }
        },
        "66b7566a-5717-4acc-bff4-045b0993715d": {
          "type": "collection",
          "settings": {
            "collection": "milky-white-set",
            "image": "shopify:\/\/shop_images\/full-front.jpg"
          }
        },
        "e0448535-abde-4bdf-bd8e-cf1f030c4006": {
          "type": "collection",
          "settings": {
            "collection": "contemplating-blue",
            "image": "shopify:\/\/shop_images\/ide_2fe69e21-43ae-497f-b162-91109ab34b1b.jpg"
          }
        },
        "e08e4ca4-6057-4135-89ba-cbcd75622c97": {
          "type": "collection",
          "settings": {
            "collection": "silver-veil-set",
            "image": "shopify:\/\/shop_images\/Full-side_85a8661a-aa05-491f-9e30-e7d031a2937e.jpg"
          }
        }
      },
      "block_order": [
        "fe3acfcb-370e-4656-b143-e0ee7be0ca9f",
        "189856bb-f25a-4218-8a0a-b9669088e41f",
        "66b7566a-5717-4acc-bff4-045b0993715d",
        "e0448535-abde-4bdf-bd8e-cf1f030c4006",
        "e08e4ca4-6057-4135-89ba-cbcd75622c97"
      ],
      "disabled": true,
      "settings": {
        "title": "Discover loungewear collection",
        "enable_carousel": true,
        "grid": 3,
        "use_alt_bg": true,
        "full_width": true
      }
    },
    "recommendations": {
      "type": "product-recommendations",
      "disabled": true,
      "settings": {
        "title": "Related products",
        "show_vendor": false,
        "grid": 2
      }
    },
    "1637660518324c9917": {
      "type": "apps",
      "blocks": {
        "8425dc90-f753-485c-a716-4a6b72068bda": {
          "type": "shopify:\/\/apps\/yotpo-product-photo-reviews\/blocks\/reviews\/eb7dfd7d-db44-4334-bc49-c893b51b36cf",
          "settings": {
            "product": "{{product}}"
          }
        }
      },
      "block_order": [
        "8425dc90-f753-485c-a716-4a6b72068bda"
      ],
      "settings": {
        "full_width": false
      }
    },
    "63be74a9-2e13-4ea1-9a1b-5f26d4a01932": {
      "type": "featured-collection",
      "settings": {
        "title": "Featured collection",
        "collection": "pet-accessories",
        "show_vendor": false,
        "enable_carousel": false,
        "grid": 4,
        "rows": 4,
        "use_alt_bg": false,
        "show_view_all": false,
        "full_width": true
      }
    }
  },
  "order": [
    "main",
    "1649947048eaf7e450",
    "16499471369440bd83",
    "recommendations",
    "1637660518324c9917",
    "63be74a9-2e13-4ea1-9a1b-5f26d4a01932"
  ]
}